<?xml version="1.0" encoding="UTF-8" standalone="no"?>
<!DOCTYPE svg PUBLIC "-//W3C//DTD SVG 1.1//EN" "http://www.w3.org/Graphics/SVG/1.1/DTD/svg11.dtd">
<!-- Generated by Microsoft Visio, SVG Export NAS 500C3-192 LINK_Card_Locations_front_Gen.svg Page-1 -->
<svg xmlns="http://www.w3.org/2000/svg" xmlns:xlink="http://www.w3.org/1999/xlink" xmlns:ev="http://www.w3.org/2001/xml-events"
		xmlns:v="http://schemas.microsoft.com/visio/2003/SVGExtensions/" width="7.5187in" height="3.17884in"
		viewBox="0 0 541.347 228.877" xml:space="preserve" color-interpolation-filters="sRGB" class="st15">
	<title>DRAWING1</title>
	<desc>8.5 x 11 portrait page, blank</desc>
	<v:documentProperties v:langID="1033" v:viewMarkup="false">
		<v:userDefs>
			<v:ud v:nameU="msvConvertTheme"/>
		</v:userDefs>
	</v:documentProperties>

	<style type="text/css">
	<![CDATA[
		.st1 {fill:#ffffff;stroke:#000000;stroke-linecap:round;stroke-linejoin:round;stroke-width:2.16}
		.st2 {fill:#ffffff;stroke:#000000;stroke-linecap:round;stroke-linejoin:round;stroke-width:0.72}
		.st3 {stroke:#000000;stroke-linecap:round;stroke-linejoin:round;stroke-width:0.72}
		.st4 {fill:#ffffff}
		.st5 {stroke:#000000;stroke-linecap:round;stroke-linejoin:round;stroke-width:1.2}
		.st6 {stroke:#000000;stroke-dasharray:0,6;stroke-linecap:round;stroke-linejoin:round;stroke-width:1.2}
		.st7 {fill:#ffffff;stroke:#000000;stroke-linecap:round;stroke-linejoin:round;stroke-width:1.2}
		.st8 {fill:none;stroke:none;stroke-linecap:round;stroke-linejoin:round;stroke-width:0.72}
		.st9 {fill:#000000;font-family:Arial;font-size:0.499992em;font-weight:bold}
		.st10 {fill:#000000;font-family:Arial;font-size:0.416656em;font-weight:bold}
		.st11 {font-size:1em}
		.st12 {stroke:none;stroke-linecap:round;stroke-linejoin:round;stroke-width:0.72}
		.st13 {fill:#737373;stroke:#000000;stroke-linecap:round;stroke-linejoin:round;stroke-width:0.72}
		.st14 {fill:#000000;font-family:Arial;font-size:0.75em;font-weight:bold}
		.st15 {fill:none;fill-rule:evenodd;font-size:12px;overflow:visible;stroke-linecap:square;stroke-miterlimit:3}
	]]>
	</style>

	<g v:mID="0" v:index="1" v:groupContext="foregroundPage">
		<v:custProps>
			<v:cp v:nameU="AskOnDrop" v:lbl="Ask On Drop" v:prompt="To display the custom properties of the shape upon drop."
					v:type="3" v:format="&#34;" v:langID="1033" v:val="VT4(TRUE)"/>
		</v:custProps>
		<title>Page-1</title>
		<v:pageProperties v:drawingScale="1" v:pageScale="1" v:drawingUnits="19" v:shadowOffsetX="9" v:shadowOffsetY="-9"/>
		<g id="shape31-1" v:mID="31" v:groupContext="shape" transform="translate(1.08,-1.08)">
			<title>Sheet.31</title>
			<rect x="0" y="2.16" width="539.187" height="226.717" class="st1"/>
		</g>
		<g id="shape32-3" v:mID="32" v:groupContext="shape" transform="translate(268.49,-84.459)">
			<title>Sheet.32</title>
			<rect x="0" y="214.245" width="87.6322" height="14.6321" rx="4.5" ry="4.5" class="st2"/>
		</g>
		<g id="shape50-5" v:mID="50" v:groupContext="shape" transform="translate(657.061,48.9685) rotate(90)">
			<title>Sheet.50</title>
			<path d="M0 228.88 L153.19 228.88" class="st3"/>
		</g>
		<g id="shape51-8" v:mID="51" v:groupContext="shape" transform="translate(92.5205,-130.63)">
			<title>Sheet.51</title>
			<path d="M0 228.88 L334.1 228.88" class="st3"/>
		</g>
		<g id="shape52-11" v:mID="52" v:groupContext="shape" transform="translate(92.8502,-105.903)">
			<title>Sheet.52</title>
			<path d="M0 228.88 L333.36 228.88" class="st3"/>
		</g>
		<g id="shape53-14" v:mID="53" v:groupContext="shape" transform="translate(92.5205,-78.5445)">
			<title>Sheet.53</title>
			<path d="M0 228.88 L334.1 228.88" class="st3"/>
		</g>
		<g id="shape54-17" v:mID="54" v:groupContext="shape" transform="translate(655.663,48.9685) rotate(90)">
			<title>Sheet.54</title>
			<path d="M0 228.88 L153.19 228.88" class="st3"/>
		</g>
		<g id="group55-20" transform="translate(146.16,-16.7474) scale(-1,1)" v:mID="55" v:groupContext="group">
			<v:custProps>
				<v:cp v:nameU="Thread" v:lbl="Thread Diameter" v:prompt="Select nominal size thread diameter." v:type="1"
						v:format="0000;000;00;0;1;2;3;4;5;6;8;10;12;1/4;5/16;3/8;7/16;1/2;9/16;5/8;3/4" v:invis="false"
						v:langID="1033" v:val="VT4(10)"/>
				<v:cp v:nameU="Diameter" v:lbl="Diameter" v:prompt="Input thread diameter." v:type="2" v:invis="true"
						v:langID="1033" v:val="VT0(0.19):0"/>
				<v:cp v:nameU="Thread" v:lbl="" v:prompt="" v:type="0" v:format="" v:sortKey="" v:invis="true" v:ask="false"
						v:langID="0" v:cal="0" v:val="VT4(6)"/>
				<v:cp v:nameU="Diameter" v:lbl="" v:prompt="" v:type="0" v:format="" v:sortKey="" v:invis="false" v:ask="false"
						v:langID="0" v:cal="0" v:val="VT0(0.03592453150124):1"/>
			</v:custProps>
			<v:userDefs>
				<v:ud v:nameU="Detail" v:val="VT0(0):26"/>
				<v:ud v:nameU="MThread" v:val="VT0(0.19):0"/>
				<v:ud v:nameU="Diameter" v:val="VT0(0.19):0"/>
				<v:ud v:nameU="Min" v:val="VT0(0):5"/>
				<v:ud v:nameU="SetOnDrop" v:val="VT0(1):26"/>
				<v:ud v:nameU="MWidth" v:val="VT0(0.19):0"/>
				<v:ud v:nameU="End" v:val="VT0(1):26"/>
				<v:ud v:nameU="Sizing" v:val="VT0(2):26"/>
				<v:ud v:nameU="AntiScale" v:val="VT0(1):26"/>
				<v:ud v:nameU="HasText" v:val="VT0(0):5"/>
				<v:ud v:nameU="visVersion" v:val="VT0(10):26"/>
				<v:ud v:nameU="MThread" v:prompt="" v:val="VT0(0.138):0"/>
				<v:ud v:nameU="Diameter" v:prompt="" v:val="VT0(0.03592453150124):1"/>
				<v:ud v:nameU="SetOnDrop" v:prompt="" v:val="VT0(0):26"/>
				<v:ud v:nameU="MWidth" v:prompt="" v:val="VT0(0.138):0"/>
				<v:ud v:nameU="Sizing" v:prompt="" v:val="VT0(0):26"/>
			</v:userDefs>
			<title> Posidriv   top 2</title>
			<g id="shape56-21" v:mID="56" v:groupContext="shape">
				<title>Sheet.56</title>
				<v:userDefs>
					<v:ud v:nameU="End" v:val="VT0(1):26"/>
				</v:userDefs>
				<path d="M-1.54 227.58 A3.08377 2.58657 0 0 1 4.63 227.58 A3.08377 2.58657 0 0 1 -1.54 227.58 Z" class="st4"/>
				<path d="M-0.54 227.32 L0.69 227.26 a0.403192 0.403192 -180 0 0 0.323796 -0.116395 a0.32091 0.32091 -180 0 0 0.13877
							 -0.271589 L1.23 225.84 a0.46899 0.46899 0 0 1 0.616753 0 L1.93 226.87 a0.32091 0.32091 -180 0 0 0.13877
							 0.271589 a0.403192 0.403192 -180 0 0 0.323796 0.116395 L3.62 227.32 a0.347091 0.347091 0 0 1 0 0.517313
							 L2.39 227.91 a0.403192 0.403192 -180 0 0 -0.323796 0.116395 a0.32091 0.32091 -180 0 0 -0.13877 0.271589
							 L1.85 229.33 a0.46899 0.46899 0 0 1 -0.616753 0 L1.16 228.29 a0.32091 0.32091 -180 0 0 -0.13877 -0.271589
							 a0.403192 0.403192 -180 0 0 -0.323796 -0.116395 L-0.54 227.84 a0.347091 0.347091 0 0 1 3.66374E-015
							 -0.517313" class="st5"/>
				<path d="M-1.54 227.58 A3.08377 2.58657 0 0 1 4.63 227.58 A3.08377 2.58657 0 0 1 -1.54 227.58" class="st5"/>
			</g>
			<g id="shape57-25" v:mID="57" v:groupContext="shape">
				<title>Sheet.57</title>
				<v:userDefs>
					<v:ud v:nameU="Detail" v:val="VT0(0):26"/>
				</v:userDefs>
				<path d="M0 227.58 A1.54188 1.29328 0 0 1 3.08 227.58 A1.54188 1.29328 0 1 1 0 227.58" class="st6"/>
				<path d="M0.46 227.58 a1.07932 0.905298 0 0 1 2.15864 0 a1.07932 0.905298 0 1 1 -2.15864 0" class="st6"/>
			</g>
		</g>
		<g id="shape58-29" v:mID="58" v:groupContext="shape" transform="translate(92.5205,-51.186)">
			<title>Sheet.58</title>
			<path d="M0 228.88 L333.78 228.88" class="st3"/>
		</g>
		<g id="shape64-32" v:mID="64" v:groupContext="shape" transform="translate(92.5205,-155.398)">
			<title>Sheet.64</title>
			<path d="M0 228.88 L333.69 228.88" class="st3"/>
		</g>
		<g id="group65-35" transform="translate(381.586,-17.7687) scale(-1,1)" v:mID="65" v:groupContext="group">
			<v:custProps>
				<v:cp v:nameU="Thread" v:lbl="Thread Diameter" v:prompt="Select nominal size thread diameter." v:type="1"
						v:format="0000;000;00;0;1;2;3;4;5;6;8;10;12;1/4;5/16;3/8;7/16;1/2;9/16;5/8;3/4" v:invis="false"
						v:langID="1033" v:val="VT4(10)"/>
				<v:cp v:nameU="Diameter" v:lbl="Diameter" v:prompt="Input thread diameter." v:type="2" v:invis="true"
						v:langID="1033" v:val="VT0(0.19):0"/>
				<v:cp v:nameU="Thread" v:lbl="" v:prompt="" v:type="0" v:format="" v:sortKey="" v:invis="true" v:ask="false"
						v:langID="0" v:cal="0" v:val="VT4(6)"/>
				<v:cp v:nameU="Diameter" v:lbl="" v:prompt="" v:type="0" v:format="" v:sortKey="" v:invis="false" v:ask="false"
						v:langID="0" v:cal="0" v:val="VT0(0.03592453150124):1"/>
			</v:custProps>
			<v:userDefs>
				<v:ud v:nameU="Detail" v:val="VT0(0):26"/>
				<v:ud v:nameU="MThread" v:val="VT0(0.19):0"/>
				<v:ud v:nameU="Diameter" v:val="VT0(0.19):0"/>
				<v:ud v:nameU="Min" v:val="VT0(0):5"/>
				<v:ud v:nameU="SetOnDrop" v:val="VT0(1):26"/>
				<v:ud v:nameU="MWidth" v:val="VT0(0.19):0"/>
				<v:ud v:nameU="End" v:val="VT0(1):26"/>
				<v:ud v:nameU="Sizing" v:val="VT0(2):26"/>
				<v:ud v:nameU="AntiScale" v:val="VT0(1):26"/>
				<v:ud v:nameU="HasText" v:val="VT0(0):5"/>
				<v:ud v:nameU="visVersion" v:val="VT0(10):26"/>
				<v:ud v:nameU="MThread" v:prompt="" v:val="VT0(0.138):0"/>
				<v:ud v:nameU="Diameter" v:prompt="" v:val="VT0(0.03592453150124):1"/>
				<v:ud v:nameU="SetOnDrop" v:prompt="" v:val="VT0(0):26"/>
				<v:ud v:nameU="MWidth" v:prompt="" v:val="VT0(0.138):0"/>
				<v:ud v:nameU="Sizing" v:prompt="" v:val="VT0(0):26"/>
			</v:userDefs>
			<title> Posidriv   top 2.71</title>
			<g id="shape66-36" v:mID="66" v:groupContext="shape">
				<title>Sheet.66</title>
				<v:userDefs>
					<v:ud v:nameU="End" v:val="VT0(1):26"/>
				</v:userDefs>
				<path d="M-1.54 227.58 A3.08377 2.58657 0 0 1 4.63 227.58 A3.08377 2.58657 0 0 1 -1.54 227.58 Z" class="st4"/>
				<path d="M-0.54 227.32 L0.69 227.26 a0.403192 0.403192 -180 0 0 0.323796 -0.116395 a0.32091 0.32091 -180 0 0 0.13877
							 -0.271589 L1.23 225.84 a0.46899 0.46899 0 0 1 0.616753 0 L1.93 226.87 a0.32091 0.32091 -180 0 0 0.13877
							 0.271589 a0.403192 0.403192 -180 0 0 0.323796 0.116395 L3.62 227.32 a0.347091 0.347091 0 0 1 0 0.517313
							 L2.39 227.91 a0.403192 0.403192 -180 0 0 -0.323796 0.116395 a0.32091 0.32091 -180 0 0 -0.13877 0.271589
							 L1.85 229.33 a0.46899 0.46899 0 0 1 -0.616753 0 L1.16 228.29 a0.32091 0.32091 -180 0 0 -0.13877 -0.271589
							 a0.403192 0.403192 -180 0 0 -0.323796 -0.116395 L-0.54 227.84 a0.347091 0.347091 0 0 1 3.66374E-015
							 -0.517313" class="st5"/>
				<path d="M-1.54 227.58 A3.08377 2.58657 0 0 1 4.63 227.58 A3.08377 2.58657 0 0 1 -1.54 227.58" class="st5"/>
			</g>
			<g id="shape67-40" v:mID="67" v:groupContext="shape">
				<title>Sheet.67</title>
				<v:userDefs>
					<v:ud v:nameU="Detail" v:val="VT0(0):26"/>
				</v:userDefs>
				<path d="M0 227.58 A1.54188 1.29328 0 0 1 3.08 227.58 A1.54188 1.29328 0 1 1 0 227.58" class="st6"/>
				<path d="M0.46 227.58 a1.07932 0.905298 0 0 1 2.15864 0 a1.07932 0.905298 0 1 1 -2.15864 0" class="st6"/>
			</g>
		</g>
		<g id="shape68-44" v:mID="68" v:groupContext="shape" transform="translate(321.397,48.9685) rotate(90)">
			<title>Sheet.68</title>
			<path d="M0 228.88 L153.19 228.88" class="st3"/>
		</g>
		<g id="group69-47" transform="translate(196.027,-186.876) scale(-1,1)" v:mID="69" v:groupContext="group">
			<v:custProps>
				<v:cp v:nameU="Thread" v:lbl="Thread Diameter" v:prompt="Select nominal size thread diameter." v:type="1"
						v:format="0000;000;00;0;1;2;3;4;5;6;8;10;12;1/4;5/16;3/8;7/16;1/2;9/16;5/8;3/4" v:invis="false"
						v:langID="1033" v:val="VT4(10)"/>
				<v:cp v:nameU="Diameter" v:lbl="Diameter" v:prompt="Input thread diameter." v:type="2" v:invis="true"
						v:langID="1033" v:val="VT0(0.19):0"/>
				<v:cp v:nameU="Thread" v:lbl="" v:prompt="" v:type="0" v:format="" v:sortKey="" v:invis="true" v:ask="false"
						v:langID="0" v:cal="0" v:val="VT4(6)"/>
				<v:cp v:nameU="Diameter" v:lbl="" v:prompt="" v:type="0" v:format="" v:sortKey="" v:invis="false" v:ask="false"
						v:langID="0" v:cal="0" v:val="VT0(0.033400580901278):1"/>
			</v:custProps>
			<v:userDefs>
				<v:ud v:nameU="Detail" v:val="VT0(0):26"/>
				<v:ud v:nameU="MThread" v:val="VT0(0.19):0"/>
				<v:ud v:nameU="Diameter" v:val="VT0(0.19):0"/>
				<v:ud v:nameU="Min" v:val="VT0(0):5"/>
				<v:ud v:nameU="SetOnDrop" v:val="VT0(1):26"/>
				<v:ud v:nameU="MWidth" v:val="VT0(0.19):0"/>
				<v:ud v:nameU="End" v:val="VT0(1):26"/>
				<v:ud v:nameU="Sizing" v:val="VT0(2):26"/>
				<v:ud v:nameU="AntiScale" v:val="VT0(1):26"/>
				<v:ud v:nameU="HasText" v:val="VT0(0):5"/>
				<v:ud v:nameU="visVersion" v:val="VT0(10):26"/>
				<v:ud v:nameU="MThread" v:prompt="" v:val="VT0(0.138):0"/>
				<v:ud v:nameU="Diameter" v:prompt="" v:val="VT0(0.033400580901278):1"/>
				<v:ud v:nameU="SetOnDrop" v:prompt="" v:val="VT0(0):26"/>
				<v:ud v:nameU="MWidth" v:prompt="" v:val="VT0(0.138):0"/>
				<v:ud v:nameU="Sizing" v:prompt="" v:val="VT0(0):26"/>
			</v:userDefs>
			<title> Posidriv   top 2.98</title>
			<g id="shape70-48" v:mID="70" v:groupContext="shape">
				<title>Sheet.70</title>
				<v:userDefs>
					<v:ud v:nameU="End" v:val="VT0(1):26"/>
				</v:userDefs>
				<path d="M-1.43 227.67 A2.86711 2.40484 0 0 1 4.3 227.67 A2.86711 2.40484 0 1 1 -1.43 227.67 Z" class="st4"/>
				<path d="M-0.5 227.43 L0.65 227.37 a0.374865 0.374865 -180 0 0 0.301047 -0.108218 a0.298364 0.298364 -180 0 0 0.12902
							 -0.252508 L1.15 226.05 a0.43604 0.43604 0 0 1 0.573422 0 L1.79 227.01 a0.298364 0.298364 -180 0 0 0.12902
							 0.252508 a0.374865 0.374865 -180 0 0 0.301047 0.108218 L3.37 227.43 a0.322706 0.322706 0 0 1 0 0.480968
							 L2.22 227.97 a0.374865 0.374865 -180 0 0 -0.301047 0.108218 a0.298364 0.298364 -180 0 0 -0.12902 0.252508
							 L1.72 229.3 a0.43604 0.43604 0 0 1 -0.573422 0 L1.08 228.34 a0.298364 0.298364 -180 0 0 -0.12902 -0.252508
							 a0.374865 0.374865 -180 0 0 -0.301047 -0.108218 L-0.5 227.91 a0.322706 0.322706 0 0 1 3.44169E-015 -0.480968"
						class="st5"/>
				<path d="M-1.43 227.67 A2.86711 2.40484 0 0 1 4.3 227.67 A2.86711 2.40484 0 1 1 -1.43 227.67" class="st5"/>
			</g>
			<g id="shape71-52" v:mID="71" v:groupContext="shape">
				<title>Sheet.71</title>
				<v:userDefs>
					<v:ud v:nameU="Detail" v:val="VT0(0):26"/>
				</v:userDefs>
				<path d="M0 227.67 A1.43356 1.20242 0 0 1 2.87 227.67 A1.43356 1.20242 0 1 1 0 227.67" class="st6"/>
				<path d="M0.43 227.67 a1.00349 0.841695 0 0 1 2.00698 0 a1.00349 0.841695 0 1 1 -2.00698 0" class="st6"/>
			</g>
		</g>
		<g id="group75-56" transform="translate(434.759,-16.8383) scale(-1,1)" v:mID="75" v:groupContext="group">
			<v:custProps>
				<v:cp v:nameU="Thread" v:lbl="Thread Diameter" v:prompt="Select nominal size thread diameter." v:type="1"
						v:format="0000;000;00;0;1;2;3;4;5;6;8;10;12;1/4;5/16;3/8;7/16;1/2;9/16;5/8;3/4" v:invis="false"
						v:langID="1033" v:val="VT4(10)"/>
				<v:cp v:nameU="Diameter" v:lbl="Diameter" v:prompt="Input thread diameter." v:type="2" v:invis="true"
						v:langID="1033" v:val="VT0(0.19):0"/>
				<v:cp v:nameU="Thread" v:lbl="" v:prompt="" v:type="0" v:format="" v:sortKey="" v:invis="true" v:ask="false"
						v:langID="0" v:cal="0" v:val="VT4(6)"/>
				<v:cp v:nameU="Diameter" v:lbl="" v:prompt="" v:type="0" v:format="" v:sortKey="" v:invis="false" v:ask="false"
						v:langID="0" v:cal="0" v:val="VT0(0.033400580901278):1"/>
			</v:custProps>
			<v:userDefs>
				<v:ud v:nameU="Detail" v:val="VT0(0):26"/>
				<v:ud v:nameU="MThread" v:val="VT0(0.19):0"/>
				<v:ud v:nameU="Diameter" v:val="VT0(0.19):0"/>
				<v:ud v:nameU="Min" v:val="VT0(0):5"/>
				<v:ud v:nameU="SetOnDrop" v:val="VT0(1):26"/>
				<v:ud v:nameU="MWidth" v:val="VT0(0.19):0"/>
				<v:ud v:nameU="End" v:val="VT0(1):26"/>
				<v:ud v:nameU="Sizing" v:val="VT0(2):26"/>
				<v:ud v:nameU="AntiScale" v:val="VT0(1):26"/>
				<v:ud v:nameU="HasText" v:val="VT0(0):5"/>
				<v:ud v:nameU="visVersion" v:val="VT0(10):26"/>
				<v:ud v:nameU="MThread" v:prompt="" v:val="VT0(0.138):0"/>
				<v:ud v:nameU="Diameter" v:prompt="" v:val="VT0(0.033400580901278):1"/>
				<v:ud v:nameU="SetOnDrop" v:prompt="" v:val="VT0(0):26"/>
				<v:ud v:nameU="MWidth" v:prompt="" v:val="VT0(0.138):0"/>
				<v:ud v:nameU="Sizing" v:prompt="" v:val="VT0(0):26"/>
			</v:userDefs>
			<title> Posidriv   top 2.27</title>
			<g id="shape76-57" v:mID="76" v:groupContext="shape">
				<title>Sheet.76</title>
				<v:userDefs>
					<v:ud v:nameU="End" v:val="VT0(1):26"/>
				</v:userDefs>
				<path d="M-1.43 227.67 A2.86711 2.40484 0 0 1 4.3 227.67 A2.86711 2.40484 0 1 1 -1.43 227.67 Z" class="st4"/>
				<path d="M-0.5 227.43 L0.65 227.37 a0.374865 0.374865 -180 0 0 0.301047 -0.108218 a0.298364 0.298364 -180 0 0 0.12902
							 -0.252508 L1.15 226.05 a0.43604 0.43604 0 0 1 0.573422 0 L1.79 227.01 a0.298364 0.298364 -180 0 0 0.12902
							 0.252508 a0.374865 0.374865 -180 0 0 0.301047 0.108218 L3.37 227.43 a0.322706 0.322706 0 0 1 0 0.480968
							 L2.22 227.97 a0.374865 0.374865 -180 0 0 -0.301047 0.108218 a0.298364 0.298364 -180 0 0 -0.12902 0.252508
							 L1.72 229.3 a0.43604 0.43604 0 0 1 -0.573422 0 L1.08 228.34 a0.298364 0.298364 -180 0 0 -0.12902 -0.252508
							 a0.374865 0.374865 -180 0 0 -0.301047 -0.108218 L-0.5 227.91 a0.322706 0.322706 0 0 1 3.44169E-015 -0.480968"
						class="st5"/>
				<path d="M-1.43 227.67 A2.86711 2.40484 0 0 1 4.3 227.67 A2.86711 2.40484 0 1 1 -1.43 227.67" class="st5"/>
			</g>
			<g id="shape77-61" v:mID="77" v:groupContext="shape">
				<title>Sheet.77</title>
				<v:userDefs>
					<v:ud v:nameU="Detail" v:val="VT0(0):26"/>
				</v:userDefs>
				<path d="M0 227.67 A1.43356 1.20242 0 0 1 2.87 227.67 A1.43356 1.20242 0 1 1 0 227.67" class="st6"/>
				<path d="M0.43 227.67 a1.00349 0.841695 0 0 1 2.00698 0 a1.00349 0.841695 0 1 1 -2.00698 0" class="st6"/>
			</g>
		</g>
		<g id="group78-65" transform="translate(525.502,-17.3489) scale(-1,1)" v:mID="78" v:groupContext="group">
			<v:custProps>
				<v:cp v:nameU="Thread" v:lbl="Thread Diameter" v:prompt="Select nominal size thread diameter." v:type="1"
						v:format="0000;000;00;0;1;2;3;4;5;6;8;10;12;1/4;5/16;3/8;7/16;1/2;9/16;5/8;3/4" v:invis="false"
						v:langID="1033" v:val="VT4(10)"/>
				<v:cp v:nameU="Diameter" v:lbl="Diameter" v:prompt="Input thread diameter." v:type="2" v:invis="true"
						v:langID="1033" v:val="VT0(0.19):0"/>
				<v:cp v:nameU="Thread" v:lbl="" v:prompt="" v:type="0" v:format="" v:sortKey="" v:invis="true" v:ask="false"
						v:langID="0" v:cal="0" v:val="VT4(6)"/>
				<v:cp v:nameU="Diameter" v:lbl="" v:prompt="" v:type="0" v:format="" v:sortKey="" v:invis="false" v:ask="false"
						v:langID="0" v:cal="0" v:val="VT0(0.033400580901278):1"/>
			</v:custProps>
			<v:userDefs>
				<v:ud v:nameU="Detail" v:val="VT0(0):26"/>
				<v:ud v:nameU="MThread" v:val="VT0(0.19):0"/>
				<v:ud v:nameU="Diameter" v:val="VT0(0.19):0"/>
				<v:ud v:nameU="Min" v:val="VT0(0):5"/>
				<v:ud v:nameU="SetOnDrop" v:val="VT0(1):26"/>
				<v:ud v:nameU="MWidth" v:val="VT0(0.19):0"/>
				<v:ud v:nameU="End" v:val="VT0(1):26"/>
				<v:ud v:nameU="Sizing" v:val="VT0(2):26"/>
				<v:ud v:nameU="AntiScale" v:val="VT0(1):26"/>
				<v:ud v:nameU="HasText" v:val="VT0(0):5"/>
				<v:ud v:nameU="visVersion" v:val="VT0(10):26"/>
				<v:ud v:nameU="MThread" v:prompt="" v:val="VT0(0.138):0"/>
				<v:ud v:nameU="Diameter" v:prompt="" v:val="VT0(0.033400580901278):1"/>
				<v:ud v:nameU="SetOnDrop" v:prompt="" v:val="VT0(0):26"/>
				<v:ud v:nameU="MWidth" v:prompt="" v:val="VT0(0.138):0"/>
				<v:ud v:nameU="Sizing" v:prompt="" v:val="VT0(0):26"/>
			</v:userDefs>
			<title> Posidriv   top 2.35</title>
			<g id="shape79-66" v:mID="79" v:groupContext="shape">
				<title>Sheet.79</title>
				<v:userDefs>
					<v:ud v:nameU="End" v:val="VT0(1):26"/>
				</v:userDefs>
				<path d="M-1.43 227.67 A2.86711 2.40484 0 0 1 4.3 227.67 A2.86711 2.40484 0 1 1 -1.43 227.67 Z" class="st4"/>
				<path d="M-0.5 227.43 L0.65 227.37 a0.374865 0.374865 -180 0 0 0.301047 -0.108218 a0.298364 0.298364 -180 0 0 0.12902
							 -0.252508 L1.15 226.05 a0.43604 0.43604 0 0 1 0.573422 0 L1.79 227.01 a0.298364 0.298364 -180 0 0 0.12902
							 0.252508 a0.374865 0.374865 -180 0 0 0.301047 0.108218 L3.37 227.43 a0.322706 0.322706 0 0 1 0 0.480968
							 L2.22 227.97 a0.374865 0.374865 -180 0 0 -0.301047 0.108218 a0.298364 0.298364 -180 0 0 -0.12902 0.252508
							 L1.72 229.3 a0.43604 0.43604 0 0 1 -0.573422 0 L1.08 228.34 a0.298364 0.298364 -180 0 0 -0.12902 -0.252508
							 a0.374865 0.374865 -180 0 0 -0.301047 -0.108218 L-0.5 227.91 a0.322706 0.322706 0 0 1 3.44169E-015 -0.480968"
						class="st5"/>
				<path d="M-1.43 227.67 A2.86711 2.40484 0 0 1 4.3 227.67 A2.86711 2.40484 0 1 1 -1.43 227.67" class="st5"/>
			</g>
			<g id="shape80-70" v:mID="80" v:groupContext="shape">
				<title>Sheet.80</title>
				<v:userDefs>
					<v:ud v:nameU="Detail" v:val="VT0(0):26"/>
				</v:userDefs>
				<path d="M0 227.67 A1.43356 1.20242 0 0 1 2.87 227.67 A1.43356 1.20242 0 1 1 0 227.67" class="st6"/>
				<path d="M0.43 227.67 a1.00349 0.841695 0 0 1 2.00698 0 a1.00349 0.841695 0 1 1 -2.00698 0" class="st6"/>
			</g>
		</g>
		<g id="group81-74" transform="translate(527.342,-133.771) scale(-1,1)" v:mID="81" v:groupContext="group">
			<v:custProps>
				<v:cp v:nameU="Thread" v:lbl="Thread Diameter" v:prompt="Select nominal size thread diameter." v:type="1"
						v:format="0000;000;00;0;1;2;3;4;5;6;8;10;12;1/4;5/16;3/8;7/16;1/2;9/16;5/8;3/4" v:invis="false"
						v:langID="1033" v:val="VT4(10)"/>
				<v:cp v:nameU="Diameter" v:lbl="Diameter" v:prompt="Input thread diameter." v:type="2" v:invis="true"
						v:langID="1033" v:val="VT0(0.19):0"/>
				<v:cp v:nameU="Thread" v:lbl="" v:prompt="" v:type="0" v:format="" v:sortKey="" v:invis="true" v:ask="false"
						v:langID="0" v:cal="0" v:val="VT4(6)"/>
				<v:cp v:nameU="Diameter" v:lbl="" v:prompt="" v:type="0" v:format="" v:sortKey="" v:invis="false" v:ask="false"
						v:langID="0" v:cal="0" v:val="VT0(0.033400580901278):1"/>
			</v:custProps>
			<v:userDefs>
				<v:ud v:nameU="Detail" v:val="VT0(0):26"/>
				<v:ud v:nameU="MThread" v:val="VT0(0.19):0"/>
				<v:ud v:nameU="Diameter" v:val="VT0(0.19):0"/>
				<v:ud v:nameU="Min" v:val="VT0(0):5"/>
				<v:ud v:nameU="SetOnDrop" v:val="VT0(1):26"/>
				<v:ud v:nameU="MWidth" v:val="VT0(0.19):0"/>
				<v:ud v:nameU="End" v:val="VT0(1):26"/>
				<v:ud v:nameU="Sizing" v:val="VT0(2):26"/>
				<v:ud v:nameU="AntiScale" v:val="VT0(1):26"/>
				<v:ud v:nameU="HasText" v:val="VT0(0):5"/>
				<v:ud v:nameU="visVersion" v:val="VT0(10):26"/>
				<v:ud v:nameU="MThread" v:prompt="" v:val="VT0(0.138):0"/>
				<v:ud v:nameU="Diameter" v:prompt="" v:val="VT0(0.033400580901278):1"/>
				<v:ud v:nameU="SetOnDrop" v:prompt="" v:val="VT0(0):26"/>
				<v:ud v:nameU="MWidth" v:prompt="" v:val="VT0(0.138):0"/>
				<v:ud v:nameU="Sizing" v:prompt="" v:val="VT0(0):26"/>
			</v:userDefs>
			<title> Posidriv   top 2.73</title>
			<g id="shape82-75" v:mID="82" v:groupContext="shape">
				<title>Sheet.82</title>
				<v:userDefs>
					<v:ud v:nameU="End" v:val="VT0(1):26"/>
				</v:userDefs>
				<path d="M-1.43 227.67 A2.86711 2.40484 0 0 1 4.3 227.67 A2.86711 2.40484 0 1 1 -1.43 227.67 Z" class="st4"/>
				<path d="M-0.5 227.43 L0.65 227.37 a0.374865 0.374865 -180 0 0 0.301047 -0.108218 a0.298364 0.298364 -180 0 0 0.12902
							 -0.252508 L1.15 226.05 a0.43604 0.43604 0 0 1 0.573422 0 L1.79 227.01 a0.298364 0.298364 -180 0 0 0.12902
							 0.252508 a0.374865 0.374865 -180 0 0 0.301047 0.108218 L3.37 227.43 a0.322706 0.322706 0 0 1 0 0.480968
							 L2.22 227.97 a0.374865 0.374865 -180 0 0 -0.301047 0.108218 a0.298364 0.298364 -180 0 0 -0.12902 0.252508
							 L1.72 229.3 a0.43604 0.43604 0 0 1 -0.573422 0 L1.08 228.34 a0.298364 0.298364 -180 0 0 -0.12902 -0.252508
							 a0.374865 0.374865 -180 0 0 -0.301047 -0.108218 L-0.5 227.91 a0.322706 0.322706 0 0 1 3.44169E-015 -0.480968"
						class="st5"/>
				<path d="M-1.43 227.67 A2.86711 2.40484 0 0 1 4.3 227.67 A2.86711 2.40484 0 1 1 -1.43 227.67" class="st5"/>
			</g>
			<g id="shape83-79" v:mID="83" v:groupContext="shape">
				<title>Sheet.83</title>
				<v:userDefs>
					<v:ud v:nameU="Detail" v:val="VT0(0):26"/>
				</v:userDefs>
				<path d="M0 227.67 A1.43356 1.20242 0 0 1 2.87 227.67 A1.43356 1.20242 0 1 1 0 227.67" class="st6"/>
				<path d="M0.43 227.67 a1.00349 0.841695 0 0 1 2.00698 0 a1.00349 0.841695 0 1 1 -2.00698 0" class="st6"/>
			</g>
		</g>
		<g id="shape84-83" v:mID="84" v:groupContext="shape" transform="translate(91.2016,-26.7213)">
			<title>Sheet.84</title>
			<path d="M0 228.88 L336.98 228.88" class="st3"/>
		</g>
		<g id="shape85-86" v:mID="85" v:groupContext="shape" transform="translate(29.889,-26.7213)">
			<title>Sheet.85</title>
			<rect x="0" y="55.2648" width="61.3126" height="173.612" class="st7"/>
		</g>
		<g id="shape86-88" v:mID="86" v:groupContext="shape" transform="translate(452.946,-139.058)">
			<title>Sheet.86</title>
			<rect x="0" y="163.517" width="56.7243" height="65.3598" class="st2"/>
		</g>
		<g id="group87-90" transform="translate(443.956,-133.771) scale(-1,1)" v:mID="87" v:groupContext="group">
			<v:custProps>
				<v:cp v:nameU="Thread" v:lbl="Thread Diameter" v:prompt="Select nominal size thread diameter." v:type="1"
						v:format="0000;000;00;0;1;2;3;4;5;6;8;10;12;1/4;5/16;3/8;7/16;1/2;9/16;5/8;3/4" v:invis="false"
						v:langID="1033" v:val="VT4(10)"/>
				<v:cp v:nameU="Diameter" v:lbl="Diameter" v:prompt="Input thread diameter." v:type="2" v:invis="true"
						v:langID="1033" v:val="VT0(0.19):0"/>
				<v:cp v:nameU="Thread" v:lbl="" v:prompt="" v:type="0" v:format="" v:sortKey="" v:invis="true" v:ask="false"
						v:langID="0" v:cal="0" v:val="VT4(6)"/>
				<v:cp v:nameU="Diameter" v:lbl="" v:prompt="" v:type="0" v:format="" v:sortKey="" v:invis="false" v:ask="false"
						v:langID="0" v:cal="0" v:val="VT0(0.033400580901278):1"/>
			</v:custProps>
			<v:userDefs>
				<v:ud v:nameU="Detail" v:val="VT0(0):26"/>
				<v:ud v:nameU="MThread" v:val="VT0(0.19):0"/>
				<v:ud v:nameU="Diameter" v:val="VT0(0.19):0"/>
				<v:ud v:nameU="Min" v:val="VT0(0):5"/>
				<v:ud v:nameU="SetOnDrop" v:val="VT0(1):26"/>
				<v:ud v:nameU="MWidth" v:val="VT0(0.19):0"/>
				<v:ud v:nameU="End" v:val="VT0(1):26"/>
				<v:ud v:nameU="Sizing" v:val="VT0(2):26"/>
				<v:ud v:nameU="AntiScale" v:val="VT0(1):26"/>
				<v:ud v:nameU="HasText" v:val="VT0(0):5"/>
				<v:ud v:nameU="visVersion" v:val="VT0(10):26"/>
				<v:ud v:nameU="MThread" v:prompt="" v:val="VT0(0.138):0"/>
				<v:ud v:nameU="Diameter" v:prompt="" v:val="VT0(0.033400580901278):1"/>
				<v:ud v:nameU="SetOnDrop" v:prompt="" v:val="VT0(0):26"/>
				<v:ud v:nameU="MWidth" v:prompt="" v:val="VT0(0.138):0"/>
				<v:ud v:nameU="Sizing" v:prompt="" v:val="VT0(0):26"/>
			</v:userDefs>
			<title> Posidriv   top 2.25</title>
			<g id="shape88-91" v:mID="88" v:groupContext="shape">
				<title>Sheet.88</title>
				<v:userDefs>
					<v:ud v:nameU="End" v:val="VT0(1):26"/>
				</v:userDefs>
				<path d="M-1.43 227.67 A2.86711 2.40484 0 0 1 4.3 227.67 A2.86711 2.40484 0 1 1 -1.43 227.67 Z" class="st4"/>
				<path d="M-0.5 227.43 L0.65 227.37 a0.374865 0.374865 -180 0 0 0.301047 -0.108218 a0.298364 0.298364 -180 0 0 0.12902
							 -0.252508 L1.15 226.05 a0.43604 0.43604 0 0 1 0.573422 0 L1.79 227.01 a0.298364 0.298364 -180 0 0 0.12902
							 0.252508 a0.374865 0.374865 -180 0 0 0.301047 0.108218 L3.37 227.43 a0.322706 0.322706 0 0 1 0 0.480968
							 L2.22 227.97 a0.374865 0.374865 -180 0 0 -0.301047 0.108218 a0.298364 0.298364 -180 0 0 -0.12902 0.252508
							 L1.72 229.3 a0.43604 0.43604 0 0 1 -0.573422 0 L1.08 228.34 a0.298364 0.298364 -180 0 0 -0.12902 -0.252508
							 a0.374865 0.374865 -180 0 0 -0.301047 -0.108218 L-0.5 227.91 a0.322706 0.322706 0 0 1 3.44169E-015 -0.480968"
						class="st5"/>
				<path d="M-1.43 227.67 A2.86711 2.40484 0 0 1 4.3 227.67 A2.86711 2.40484 0 1 1 -1.43 227.67" class="st5"/>
			</g>
			<g id="shape89-95" v:mID="89" v:groupContext="shape">
				<title>Sheet.89</title>
				<v:userDefs>
					<v:ud v:nameU="Detail" v:val="VT0(0):26"/>
				</v:userDefs>
				<path d="M0 227.67 A1.43356 1.20242 0 0 1 2.87 227.67 A1.43356 1.20242 0 1 1 0 227.67" class="st6"/>
				<path d="M0.43 227.67 a1.00349 0.841695 0 0 1 2.00698 0 a1.00349 0.841695 0 1 1 -2.00698 0" class="st6"/>
			</g>
		</g>
		<g id="group90-99" transform="translate(444.57,-205.769) scale(-1,1)" v:mID="90" v:groupContext="group">
			<v:custProps>
				<v:cp v:nameU="Thread" v:lbl="Thread Diameter" v:prompt="Select nominal size thread diameter." v:type="1"
						v:format="0000;000;00;0;1;2;3;4;5;6;8;10;12;1/4;5/16;3/8;7/16;1/2;9/16;5/8;3/4" v:invis="false"
						v:langID="1033" v:val="VT4(10)"/>
				<v:cp v:nameU="Diameter" v:lbl="Diameter" v:prompt="Input thread diameter." v:type="2" v:invis="true"
						v:langID="1033" v:val="VT0(0.19):0"/>
				<v:cp v:nameU="Thread" v:lbl="" v:prompt="" v:type="0" v:format="" v:sortKey="" v:invis="true" v:ask="false"
						v:langID="0" v:cal="0" v:val="VT4(6)"/>
				<v:cp v:nameU="Diameter" v:lbl="" v:prompt="" v:type="0" v:format="" v:sortKey="" v:invis="false" v:ask="false"
						v:langID="0" v:cal="0" v:val="VT0(0.033400580901278):1"/>
			</v:custProps>
			<v:userDefs>
				<v:ud v:nameU="Detail" v:val="VT0(0):26"/>
				<v:ud v:nameU="MThread" v:val="VT0(0.19):0"/>
				<v:ud v:nameU="Diameter" v:val="VT0(0.19):0"/>
				<v:ud v:nameU="Min" v:val="VT0(0):5"/>
				<v:ud v:nameU="SetOnDrop" v:val="VT0(1):26"/>
				<v:ud v:nameU="MWidth" v:val="VT0(0.19):0"/>
				<v:ud v:nameU="End" v:val="VT0(1):26"/>
				<v:ud v:nameU="Sizing" v:val="VT0(2):26"/>
				<v:ud v:nameU="AntiScale" v:val="VT0(1):26"/>
				<v:ud v:nameU="HasText" v:val="VT0(0):5"/>
				<v:ud v:nameU="visVersion" v:val="VT0(10):26"/>
				<v:ud v:nameU="MThread" v:prompt="" v:val="VT0(0.138):0"/>
				<v:ud v:nameU="Diameter" v:prompt="" v:val="VT0(0.033400580901278):1"/>
				<v:ud v:nameU="SetOnDrop" v:prompt="" v:val="VT0(0):26"/>
				<v:ud v:nameU="MWidth" v:prompt="" v:val="VT0(0.138):0"/>
				<v:ud v:nameU="Sizing" v:prompt="" v:val="VT0(0):26"/>
			</v:userDefs>
			<title> Posidriv   top 2.90</title>
			<g id="shape91-100" v:mID="91" v:groupContext="shape">
				<title>Sheet.91</title>
				<v:userDefs>
					<v:ud v:nameU="End" v:val="VT0(1):26"/>
				</v:userDefs>
				<path d="M-1.43 227.67 A2.86711 2.40484 0 0 1 4.3 227.67 A2.86711 2.40484 0 1 1 -1.43 227.67 Z" class="st4"/>
				<path d="M-0.5 227.43 L0.65 227.37 a0.374865 0.374865 -180 0 0 0.301047 -0.108218 a0.298364 0.298364 -180 0 0 0.12902
							 -0.252508 L1.15 226.05 a0.43604 0.43604 0 0 1 0.573422 0 L1.79 227.01 a0.298364 0.298364 -180 0 0 0.12902
							 0.252508 a0.374865 0.374865 -180 0 0 0.301047 0.108218 L3.37 227.43 a0.322706 0.322706 0 0 1 0 0.480968
							 L2.22 227.97 a0.374865 0.374865 -180 0 0 -0.301047 0.108218 a0.298364 0.298364 -180 0 0 -0.12902 0.252508
							 L1.72 229.3 a0.43604 0.43604 0 0 1 -0.573422 0 L1.08 228.34 a0.298364 0.298364 -180 0 0 -0.12902 -0.252508
							 a0.374865 0.374865 -180 0 0 -0.301047 -0.108218 L-0.5 227.91 a0.322706 0.322706 0 0 1 3.44169E-015 -0.480968"
						class="st5"/>
				<path d="M-1.43 227.67 A2.86711 2.40484 0 0 1 4.3 227.67 A2.86711 2.40484 0 1 1 -1.43 227.67" class="st5"/>
			</g>
			<g id="shape92-104" v:mID="92" v:groupContext="shape">
				<title>Sheet.92</title>
				<v:userDefs>
					<v:ud v:nameU="Detail" v:val="VT0(0):26"/>
				</v:userDefs>
				<path d="M0 227.67 A1.43356 1.20242 0 0 1 2.87 227.67 A1.43356 1.20242 0 1 1 0 227.67" class="st6"/>
				<path d="M0.43 227.67 a1.00349 0.841695 0 0 1 2.00698 0 a1.00349 0.841695 0 1 1 -2.00698 0" class="st6"/>
			</g>
		</g>
		<g id="group93-108" transform="translate(14.7681,-16.8383) scale(-1,1)" v:mID="93" v:groupContext="group">
			<v:custProps>
				<v:cp v:nameU="Thread" v:lbl="Thread Diameter" v:prompt="Select nominal size thread diameter." v:type="1"
						v:format="0000;000;00;0;1;2;3;4;5;6;8;10;12;1/4;5/16;3/8;7/16;1/2;9/16;5/8;3/4" v:invis="false"
						v:langID="1033" v:val="VT4(10)"/>
				<v:cp v:nameU="Diameter" v:lbl="Diameter" v:prompt="Input thread diameter." v:type="2" v:invis="true"
						v:langID="1033" v:val="VT0(0.19):0"/>
				<v:cp v:nameU="Thread" v:lbl="" v:prompt="" v:type="0" v:format="" v:sortKey="" v:invis="true" v:ask="false"
						v:langID="0" v:cal="0" v:val="VT4(6)"/>
				<v:cp v:nameU="Diameter" v:lbl="" v:prompt="" v:type="0" v:format="" v:sortKey="" v:invis="false" v:ask="false"
						v:langID="0" v:cal="0" v:val="VT0(0.033400580901278):1"/>
			</v:custProps>
			<v:userDefs>
				<v:ud v:nameU="Detail" v:val="VT0(0):26"/>
				<v:ud v:nameU="MThread" v:val="VT0(0.19):0"/>
				<v:ud v:nameU="Diameter" v:val="VT0(0.19):0"/>
				<v:ud v:nameU="Min" v:val="VT0(0):5"/>
				<v:ud v:nameU="SetOnDrop" v:val="VT0(1):26"/>
				<v:ud v:nameU="MWidth" v:val="VT0(0.19):0"/>
				<v:ud v:nameU="End" v:val="VT0(1):26"/>
				<v:ud v:nameU="Sizing" v:val="VT0(2):26"/>
				<v:ud v:nameU="AntiScale" v:val="VT0(1):26"/>
				<v:ud v:nameU="HasText" v:val="VT0(0):5"/>
				<v:ud v:nameU="visVersion" v:val="VT0(10):26"/>
				<v:ud v:nameU="MThread" v:prompt="" v:val="VT0(0.138):0"/>
				<v:ud v:nameU="Diameter" v:prompt="" v:val="VT0(0.033400580901278):1"/>
				<v:ud v:nameU="SetOnDrop" v:prompt="" v:val="VT0(0):26"/>
				<v:ud v:nameU="MWidth" v:prompt="" v:val="VT0(0.138):0"/>
				<v:ud v:nameU="Sizing" v:prompt="" v:val="VT0(0):26"/>
			</v:userDefs>
			<title> Posidriv   top 2.26</title>
			<g id="shape94-109" v:mID="94" v:groupContext="shape">
				<title>Sheet.94</title>
				<v:userDefs>
					<v:ud v:nameU="End" v:val="VT0(1):26"/>
				</v:userDefs>
				<path d="M-1.43 227.67 A2.86711 2.40484 0 0 1 4.3 227.67 A2.86711 2.40484 0 1 1 -1.43 227.67 Z" class="st4"/>
				<path d="M-0.5 227.43 L0.65 227.37 a0.374865 0.374865 -180 0 0 0.301047 -0.108218 a0.298364 0.298364 -180 0 0 0.12902
							 -0.252508 L1.15 226.05 a0.43604 0.43604 0 0 1 0.573422 0 L1.79 227.01 a0.298364 0.298364 -180 0 0 0.12902
							 0.252508 a0.374865 0.374865 -180 0 0 0.301047 0.108218 L3.37 227.43 a0.322706 0.322706 0 0 1 0 0.480968
							 L2.22 227.97 a0.374865 0.374865 -180 0 0 -0.301047 0.108218 a0.298364 0.298364 -180 0 0 -0.12902 0.252508
							 L1.72 229.3 a0.43604 0.43604 0 0 1 -0.573422 0 L1.08 228.34 a0.298364 0.298364 -180 0 0 -0.12902 -0.252508
							 a0.374865 0.374865 -180 0 0 -0.301047 -0.108218 L-0.5 227.91 a0.322706 0.322706 0 0 1 3.44169E-015 -0.480968"
						class="st5"/>
				<path d="M-1.43 227.67 A2.86711 2.40484 0 0 1 4.3 227.67 A2.86711 2.40484 0 1 1 -1.43 227.67" class="st5"/>
			</g>
			<g id="shape95-113" v:mID="95" v:groupContext="shape">
				<title>Sheet.95</title>
				<v:userDefs>
					<v:ud v:nameU="Detail" v:val="VT0(0):26"/>
				</v:userDefs>
				<path d="M0 227.67 A1.43356 1.20242 0 0 1 2.87 227.67 A1.43356 1.20242 0 1 1 0 227.67" class="st6"/>
				<path d="M0.43 227.67 a1.00349 0.841695 0 0 1 2.00698 0 a1.00349 0.841695 0 1 1 -2.00698 0" class="st6"/>
			</g>
		</g>
		<g id="group96-117" transform="translate(247.716,-16.7474) scale(-1,1)" v:mID="96" v:groupContext="group">
			<v:custProps>
				<v:cp v:nameU="Thread" v:lbl="Thread Diameter" v:prompt="Select nominal size thread diameter." v:type="1"
						v:format="0000;000;00;0;1;2;3;4;5;6;8;10;12;1/4;5/16;3/8;7/16;1/2;9/16;5/8;3/4" v:invis="false"
						v:langID="1033" v:val="VT4(10)"/>
				<v:cp v:nameU="Diameter" v:lbl="Diameter" v:prompt="Input thread diameter." v:type="2" v:invis="true"
						v:langID="1033" v:val="VT0(0.19):0"/>
				<v:cp v:nameU="Thread" v:lbl="" v:prompt="" v:type="0" v:format="" v:sortKey="" v:invis="true" v:ask="false"
						v:langID="0" v:cal="0" v:val="VT4(6)"/>
				<v:cp v:nameU="Diameter" v:lbl="" v:prompt="" v:type="0" v:format="" v:sortKey="" v:invis="false" v:ask="false"
						v:langID="0" v:cal="0" v:val="VT0(0.03592453150124):1"/>
			</v:custProps>
			<v:userDefs>
				<v:ud v:nameU="Detail" v:val="VT0(0):26"/>
				<v:ud v:nameU="MThread" v:val="VT0(0.19):0"/>
				<v:ud v:nameU="Diameter" v:val="VT0(0.19):0"/>
				<v:ud v:nameU="Min" v:val="VT0(0):5"/>
				<v:ud v:nameU="SetOnDrop" v:val="VT0(1):26"/>
				<v:ud v:nameU="MWidth" v:val="VT0(0.19):0"/>
				<v:ud v:nameU="End" v:val="VT0(1):26"/>
				<v:ud v:nameU="Sizing" v:val="VT0(2):26"/>
				<v:ud v:nameU="AntiScale" v:val="VT0(1):26"/>
				<v:ud v:nameU="HasText" v:val="VT0(0):5"/>
				<v:ud v:nameU="visVersion" v:val="VT0(10):26"/>
				<v:ud v:nameU="MThread" v:prompt="" v:val="VT0(0.138):0"/>
				<v:ud v:nameU="Diameter" v:prompt="" v:val="VT0(0.03592453150124):1"/>
				<v:ud v:nameU="SetOnDrop" v:prompt="" v:val="VT0(0):26"/>
				<v:ud v:nameU="MWidth" v:prompt="" v:val="VT0(0.138):0"/>
				<v:ud v:nameU="Sizing" v:prompt="" v:val="VT0(0):26"/>
			</v:userDefs>
			<title> Posidriv   top 2.88</title>
			<g id="shape97-118" v:mID="97" v:groupContext="shape">
				<title>Sheet.97</title>
				<v:userDefs>
					<v:ud v:nameU="End" v:val="VT0(1):26"/>
				</v:userDefs>
				<path d="M-1.54 227.58 A3.08377 2.58657 0 0 1 4.63 227.58 A3.08377 2.58657 0 0 1 -1.54 227.58 Z" class="st4"/>
				<path d="M-0.54 227.32 L0.69 227.26 a0.403192 0.403192 -180 0 0 0.323796 -0.116395 a0.32091 0.32091 -180 0 0 0.13877
							 -0.271589 L1.23 225.84 a0.46899 0.46899 0 0 1 0.616753 0 L1.93 226.87 a0.32091 0.32091 -180 0 0 0.13877
							 0.271589 a0.403192 0.403192 -180 0 0 0.323796 0.116395 L3.62 227.32 a0.347091 0.347091 0 0 1 0 0.517313
							 L2.39 227.91 a0.403192 0.403192 -180 0 0 -0.323796 0.116395 a0.32091 0.32091 -180 0 0 -0.13877 0.271589
							 L1.85 229.33 a0.46899 0.46899 0 0 1 -0.616753 0 L1.16 228.29 a0.32091 0.32091 -180 0 0 -0.13877 -0.271589
							 a0.403192 0.403192 -180 0 0 -0.323796 -0.116395 L-0.54 227.84 a0.347091 0.347091 0 0 1 3.66374E-015
							 -0.517313" class="st5"/>
				<path d="M-1.54 227.58 A3.08377 2.58657 0 0 1 4.63 227.58 A3.08377 2.58657 0 0 1 -1.54 227.58" class="st5"/>
			</g>
			<g id="shape98-122" v:mID="98" v:groupContext="shape">
				<title>Sheet.98</title>
				<v:userDefs>
					<v:ud v:nameU="Detail" v:val="VT0(0):26"/>
				</v:userDefs>
				<path d="M0 227.58 A1.54188 1.29328 0 0 1 3.08 227.58 A1.54188 1.29328 0 1 1 0 227.58" class="st6"/>
				<path d="M0.46 227.58 a1.07932 0.905298 0 0 1 2.15864 0 a1.07932 0.905298 0 1 1 -2.15864 0" class="st6"/>
			</g>
		</g>
		<g id="group99-126" transform="translate(103.058,-185.344) scale(-1,1)" v:mID="99" v:groupContext="group">
			<v:custProps>
				<v:cp v:nameU="Thread" v:lbl="Thread Diameter" v:prompt="Select nominal size thread diameter." v:type="1"
						v:format="0000;000;00;0;1;2;3;4;5;6;8;10;12;1/4;5/16;3/8;7/16;1/2;9/16;5/8;3/4" v:invis="false"
						v:langID="1033" v:val="VT4(10)"/>
				<v:cp v:nameU="Diameter" v:lbl="Diameter" v:prompt="Input thread diameter." v:type="2" v:invis="true"
						v:langID="1033" v:val="VT0(0.19):0"/>
				<v:cp v:nameU="Thread" v:lbl="" v:prompt="" v:type="0" v:format="" v:sortKey="" v:invis="true" v:ask="false"
						v:langID="0" v:cal="0" v:val="VT4(6)"/>
				<v:cp v:nameU="Diameter" v:lbl="" v:prompt="" v:type="0" v:format="" v:sortKey="" v:invis="false" v:ask="false"
						v:langID="0" v:cal="0" v:val="VT0(0.033400580901278):1"/>
			</v:custProps>
			<v:userDefs>
				<v:ud v:nameU="Detail" v:val="VT0(0):26"/>
				<v:ud v:nameU="MThread" v:val="VT0(0.19):0"/>
				<v:ud v:nameU="Diameter" v:val="VT0(0.19):0"/>
				<v:ud v:nameU="Min" v:val="VT0(0):5"/>
				<v:ud v:nameU="SetOnDrop" v:val="VT0(1):26"/>
				<v:ud v:nameU="MWidth" v:val="VT0(0.19):0"/>
				<v:ud v:nameU="End" v:val="VT0(1):26"/>
				<v:ud v:nameU="Sizing" v:val="VT0(2):26"/>
				<v:ud v:nameU="AntiScale" v:val="VT0(1):26"/>
				<v:ud v:nameU="HasText" v:val="VT0(0):5"/>
				<v:ud v:nameU="visVersion" v:val="VT0(10):26"/>
				<v:ud v:nameU="MThread" v:prompt="" v:val="VT0(0.138):0"/>
				<v:ud v:nameU="Diameter" v:prompt="" v:val="VT0(0.033400580901278):1"/>
				<v:ud v:nameU="SetOnDrop" v:prompt="" v:val="VT0(0):26"/>
				<v:ud v:nameU="MWidth" v:prompt="" v:val="VT0(0.138):0"/>
				<v:ud v:nameU="Sizing" v:prompt="" v:val="VT0(0):26"/>
			</v:userDefs>
			<title> Posidriv   top 2.108</title>
			<g id="shape100-127" v:mID="100" v:groupContext="shape">
				<title>Sheet.100</title>
				<v:userDefs>
					<v:ud v:nameU="End" v:val="VT0(1):26"/>
				</v:userDefs>
				<path d="M-1.43 227.67 A2.86711 2.40484 0 0 1 4.3 227.67 A2.86711 2.40484 0 1 1 -1.43 227.67 Z" class="st4"/>
				<path d="M-0.5 227.43 L0.65 227.37 a0.374865 0.374865 -180 0 0 0.301047 -0.108218 a0.298364 0.298364 -180 0 0 0.12902
							 -0.252508 L1.15 226.05 a0.43604 0.43604 0 0 1 0.573422 0 L1.79 227.01 a0.298364 0.298364 -180 0 0 0.12902
							 0.252508 a0.374865 0.374865 -180 0 0 0.301047 0.108218 L3.37 227.43 a0.322706 0.322706 0 0 1 0 0.480968
							 L2.22 227.97 a0.374865 0.374865 -180 0 0 -0.301047 0.108218 a0.298364 0.298364 -180 0 0 -0.12902 0.252508
							 L1.72 229.3 a0.43604 0.43604 0 0 1 -0.573422 0 L1.08 228.34 a0.298364 0.298364 -180 0 0 -0.12902 -0.252508
							 a0.374865 0.374865 -180 0 0 -0.301047 -0.108218 L-0.5 227.91 a0.322706 0.322706 0 0 1 3.44169E-015 -0.480968"
						class="st5"/>
				<path d="M-1.43 227.67 A2.86711 2.40484 0 0 1 4.3 227.67 A2.86711 2.40484 0 1 1 -1.43 227.67" class="st5"/>
			</g>
			<g id="shape101-131" v:mID="101" v:groupContext="shape">
				<title>Sheet.101</title>
				<v:userDefs>
					<v:ud v:nameU="Detail" v:val="VT0(0):26"/>
				</v:userDefs>
				<path d="M0 227.67 A1.43356 1.20242 0 0 1 2.87 227.67 A1.43356 1.20242 0 1 1 0 227.67" class="st6"/>
				<path d="M0.43 227.67 a1.00349 0.841695 0 0 1 2.00698 0 a1.00349 0.841695 0 1 1 -2.00698 0" class="st6"/>
			</g>
		</g>
		<g id="group102-135" transform="translate(16.7069,-108.687) scale(-1,1)" v:mID="102" v:groupContext="group">
			<v:custProps>
				<v:cp v:nameU="Thread" v:lbl="Thread Diameter" v:prompt="Select nominal size thread diameter." v:type="1"
						v:format="0000;000;00;0;1;2;3;4;5;6;8;10;12;1/4;5/16;3/8;7/16;1/2;9/16;5/8;3/4" v:invis="false"
						v:langID="1033" v:val="VT4(10)"/>
				<v:cp v:nameU="Diameter" v:lbl="Diameter" v:prompt="Input thread diameter." v:type="2" v:invis="true"
						v:langID="1033" v:val="VT0(0.19):0"/>
				<v:cp v:nameU="Thread" v:lbl="" v:prompt="" v:type="0" v:format="" v:sortKey="" v:invis="true" v:ask="false"
						v:langID="0" v:cal="0" v:val="VT4(6)"/>
				<v:cp v:nameU="Diameter" v:lbl="" v:prompt="" v:type="0" v:format="" v:sortKey="" v:invis="false" v:ask="false"
						v:langID="0" v:cal="0" v:val="VT0(0.033400580901278):1"/>
			</v:custProps>
			<v:userDefs>
				<v:ud v:nameU="Detail" v:val="VT0(0):26"/>
				<v:ud v:nameU="MThread" v:val="VT0(0.19):0"/>
				<v:ud v:nameU="Diameter" v:val="VT0(0.19):0"/>
				<v:ud v:nameU="Min" v:val="VT0(0):5"/>
				<v:ud v:nameU="SetOnDrop" v:val="VT0(1):26"/>
				<v:ud v:nameU="MWidth" v:val="VT0(0.19):0"/>
				<v:ud v:nameU="End" v:val="VT0(1):26"/>
				<v:ud v:nameU="Sizing" v:val="VT0(2):26"/>
				<v:ud v:nameU="AntiScale" v:val="VT0(1):26"/>
				<v:ud v:nameU="HasText" v:val="VT0(0):5"/>
				<v:ud v:nameU="visVersion" v:val="VT0(10):26"/>
				<v:ud v:nameU="MThread" v:prompt="" v:val="VT0(0.138):0"/>
				<v:ud v:nameU="Diameter" v:prompt="" v:val="VT0(0.033400580901278):1"/>
				<v:ud v:nameU="SetOnDrop" v:prompt="" v:val="VT0(0):26"/>
				<v:ud v:nameU="MWidth" v:prompt="" v:val="VT0(0.138):0"/>
				<v:ud v:nameU="Sizing" v:prompt="" v:val="VT0(0):26"/>
			</v:userDefs>
			<title> Posidriv   top 2.40</title>
			<g id="shape103-136" v:mID="103" v:groupContext="shape">
				<title>Sheet.103</title>
				<v:userDefs>
					<v:ud v:nameU="End" v:val="VT0(1):26"/>
				</v:userDefs>
				<path d="M-1.43 227.67 A2.86711 2.40484 0 0 1 4.3 227.67 A2.86711 2.40484 0 1 1 -1.43 227.67 Z" class="st4"/>
				<path d="M-0.5 227.43 L0.65 227.37 a0.374865 0.374865 -180 0 0 0.301047 -0.108218 a0.298364 0.298364 -180 0 0 0.12902
							 -0.252508 L1.15 226.05 a0.43604 0.43604 0 0 1 0.573422 0 L1.79 227.01 a0.298364 0.298364 -180 0 0 0.12902
							 0.252508 a0.374865 0.374865 -180 0 0 0.301047 0.108218 L3.37 227.43 a0.322706 0.322706 0 0 1 0 0.480968
							 L2.22 227.97 a0.374865 0.374865 -180 0 0 -0.301047 0.108218 a0.298364 0.298364 -180 0 0 -0.12902 0.252508
							 L1.72 229.3 a0.43604 0.43604 0 0 1 -0.573422 0 L1.08 228.34 a0.298364 0.298364 -180 0 0 -0.12902 -0.252508
							 a0.374865 0.374865 -180 0 0 -0.301047 -0.108218 L-0.5 227.91 a0.322706 0.322706 0 0 1 3.44169E-015 -0.480968"
						class="st5"/>
				<path d="M-1.43 227.67 A2.86711 2.40484 0 0 1 4.3 227.67 A2.86711 2.40484 0 1 1 -1.43 227.67" class="st5"/>
			</g>
			<g id="shape104-140" v:mID="104" v:groupContext="shape">
				<title>Sheet.104</title>
				<v:userDefs>
					<v:ud v:nameU="Detail" v:val="VT0(0):26"/>
				</v:userDefs>
				<path d="M0 227.67 A1.43356 1.20242 0 0 1 2.87 227.67 A1.43356 1.20242 0 1 1 0 227.67" class="st6"/>
				<path d="M0.43 227.67 a1.00349 0.841695 0 0 1 2.00698 0 a1.00349 0.841695 0 1 1 -2.00698 0" class="st6"/>
			</g>
		</g>
		<g id="group105-144" transform="translate(14.7681,-219.589) scale(-1,1)" v:mID="105" v:groupContext="group">
			<v:custProps>
				<v:cp v:nameU="Thread" v:lbl="Thread Diameter" v:prompt="Select nominal size thread diameter." v:type="1"
						v:format="0000;000;00;0;1;2;3;4;5;6;8;10;12;1/4;5/16;3/8;7/16;1/2;9/16;5/8;3/4" v:invis="false"
						v:langID="1033" v:val="VT4(10)"/>
				<v:cp v:nameU="Diameter" v:lbl="Diameter" v:prompt="Input thread diameter." v:type="2" v:invis="true"
						v:langID="1033" v:val="VT0(0.19):0"/>
				<v:cp v:nameU="Thread" v:lbl="" v:prompt="" v:type="0" v:format="" v:sortKey="" v:invis="true" v:ask="false"
						v:langID="0" v:cal="0" v:val="VT4(6)"/>
				<v:cp v:nameU="Diameter" v:lbl="" v:prompt="" v:type="0" v:format="" v:sortKey="" v:invis="false" v:ask="false"
						v:langID="0" v:cal="0" v:val="VT0(0.033400580901278):1"/>
			</v:custProps>
			<v:userDefs>
				<v:ud v:nameU="Detail" v:val="VT0(0):26"/>
				<v:ud v:nameU="MThread" v:val="VT0(0.19):0"/>
				<v:ud v:nameU="Diameter" v:val="VT0(0.19):0"/>
				<v:ud v:nameU="Min" v:val="VT0(0):5"/>
				<v:ud v:nameU="SetOnDrop" v:val="VT0(1):26"/>
				<v:ud v:nameU="MWidth" v:val="VT0(0.19):0"/>
				<v:ud v:nameU="End" v:val="VT0(1):26"/>
				<v:ud v:nameU="Sizing" v:val="VT0(2):26"/>
				<v:ud v:nameU="AntiScale" v:val="VT0(1):26"/>
				<v:ud v:nameU="HasText" v:val="VT0(0):5"/>
				<v:ud v:nameU="visVersion" v:val="VT0(10):26"/>
				<v:ud v:nameU="MThread" v:prompt="" v:val="VT0(0.138):0"/>
				<v:ud v:nameU="Diameter" v:prompt="" v:val="VT0(0.033400580901278):1"/>
				<v:ud v:nameU="SetOnDrop" v:prompt="" v:val="VT0(0):26"/>
				<v:ud v:nameU="MWidth" v:prompt="" v:val="VT0(0.138):0"/>
				<v:ud v:nameU="Sizing" v:prompt="" v:val="VT0(0):26"/>
			</v:userDefs>
			<title> Posidriv   top 2.85</title>
			<g id="shape106-145" v:mID="106" v:groupContext="shape">
				<title>Sheet.106</title>
				<v:userDefs>
					<v:ud v:nameU="End" v:val="VT0(1):26"/>
				</v:userDefs>
				<path d="M-1.43 227.67 A2.86711 2.40484 0 0 1 4.3 227.67 A2.86711 2.40484 0 1 1 -1.43 227.67 Z" class="st4"/>
				<path d="M-0.5 227.43 L0.65 227.37 a0.374865 0.374865 -180 0 0 0.301047 -0.108218 a0.298364 0.298364 -180 0 0 0.12902
							 -0.252508 L1.15 226.05 a0.43604 0.43604 0 0 1 0.573422 0 L1.79 227.01 a0.298364 0.298364 -180 0 0 0.12902
							 0.252508 a0.374865 0.374865 -180 0 0 0.301047 0.108218 L3.37 227.43 a0.322706 0.322706 0 0 1 0 0.480968
							 L2.22 227.97 a0.374865 0.374865 -180 0 0 -0.301047 0.108218 a0.298364 0.298364 -180 0 0 -0.12902 0.252508
							 L1.72 229.3 a0.43604 0.43604 0 0 1 -0.573422 0 L1.08 228.34 a0.298364 0.298364 -180 0 0 -0.12902 -0.252508
							 a0.374865 0.374865 -180 0 0 -0.301047 -0.108218 L-0.5 227.91 a0.322706 0.322706 0 0 1 3.44169E-015 -0.480968"
						class="st5"/>
				<path d="M-1.43 227.67 A2.86711 2.40484 0 0 1 4.3 227.67 A2.86711 2.40484 0 1 1 -1.43 227.67" class="st5"/>
			</g>
			<g id="shape107-149" v:mID="107" v:groupContext="shape">
				<title>Sheet.107</title>
				<v:userDefs>
					<v:ud v:nameU="Detail" v:val="VT0(0):26"/>
				</v:userDefs>
				<path d="M0 227.67 A1.43356 1.20242 0 0 1 2.87 227.67 A1.43356 1.20242 0 1 1 0 227.67" class="st6"/>
				<path d="M0.43 227.67 a1.00349 0.841695 0 0 1 2.00698 0 a1.00349 0.841695 0 1 1 -2.00698 0" class="st6"/>
			</g>
		</g>
		<g id="group108-153" transform="translate(55.6403,-188.078)" v:mID="108" v:groupContext="group">
			<title>Sheet.108</title>
			<g id="shape109-154" v:mID="109" v:groupContext="shape">
				<title>Sheet.109</title>
				<ellipse cx="4.90501" cy="224.792" rx="4.90501" ry="4.08499" class="st2"/>
			</g>
			<g id="group110-156" transform="translate(6.74439,-2.55312) scale(-1,1)" v:mID="110" v:groupContext="group">
				<v:custProps>
					<v:cp v:nameU="Thread" v:lbl="Thread Diameter" v:prompt="Select nominal size thread diameter." v:type="1"
							v:format="0000;000;00;0;1;2;3;4;5;6;8;10;12;1/4;5/16;3/8;7/16;1/2;9/16;5/8;3/4" v:invis="false"
							v:langID="1033" v:val="VT4(10)"/>
					<v:cp v:nameU="Diameter" v:lbl="Diameter" v:prompt="Input thread diameter." v:type="2" v:invis="true"
							v:langID="1033" v:val="VT0(0.19):0"/>
					<v:cp v:nameU="Thread" v:lbl="" v:prompt="" v:type="0" v:format="" v:sortKey="" v:invis="true" v:ask="false"
							v:langID="0" v:cal="0" v:val="VT4(6)"/>
					<v:cp v:nameU="Diameter" v:lbl="" v:prompt="" v:type="0" v:format="" v:sortKey="" v:invis="false" v:ask="false"
							v:langID="0" v:cal="0" v:val="VT0(0.04255194331931):1"/>
				</v:custProps>
				<v:userDefs>
					<v:ud v:nameU="Detail" v:val="VT0(0):26"/>
					<v:ud v:nameU="MThread" v:val="VT0(0.19):0"/>
					<v:ud v:nameU="Diameter" v:val="VT0(0.19):0"/>
					<v:ud v:nameU="Min" v:val="VT0(0):5"/>
					<v:ud v:nameU="SetOnDrop" v:val="VT0(1):26"/>
					<v:ud v:nameU="MWidth" v:val="VT0(0.19):0"/>
					<v:ud v:nameU="End" v:val="VT0(1):26"/>
					<v:ud v:nameU="Sizing" v:val="VT0(2):26"/>
					<v:ud v:nameU="AntiScale" v:val="VT0(1):26"/>
					<v:ud v:nameU="HasText" v:val="VT0(0):5"/>
					<v:ud v:nameU="visVersion" v:val="VT0(10):26"/>
					<v:ud v:nameU="MThread" v:prompt="" v:val="VT0(0.138):0"/>
					<v:ud v:nameU="Diameter" v:prompt="" v:val="VT0(0.04255194331931):1"/>
					<v:ud v:nameU="SetOnDrop" v:prompt="" v:val="VT0(0):26"/>
					<v:ud v:nameU="MWidth" v:prompt="" v:val="VT0(0.138):0"/>
					<v:ud v:nameU="Sizing" v:prompt="" v:val="VT0(0):26"/>
				</v:userDefs>
				<title> Posidriv   top 2.62</title>
				<g id="shape111-157" v:mID="111" v:groupContext="shape">
					<title>Sheet.111</title>
					<v:userDefs>
						<v:ud v:nameU="End" v:val="VT0(1):26"/>
					</v:userDefs>
					<path d="M-1.84 227.34 A3.67876 3.06374 0 1 1 5.52 227.34 A3.67876 3.06374 0 1 1 -1.84 227.34 Z" class="st4"/>
					<path d="M-0.64 227.04 L0.83 226.96 a0.480244 0.480244 -180 0 0 0.386269 -0.137868 a0.378795 0.378795 -180 0
								 0 0.165544 -0.321693 L1.47 225.28 a0.559478 0.559478 0 0 1 0.735751 0 L2.3 226.5 a0.378795 0.378795
								 -180 0 0 0.165544 0.321693 a0.480244 0.480244 -180 0 0 0.386269 0.137868 L4.32 227.04 a0.409182
								 0.409182 0 0 1 0 0.612748 L2.85 227.73 a0.480244 0.480244 -180 0 0 -0.386269 0.137868 a0.378795
								 0.378795 -180 0 0 -0.165544 0.321693 L2.21 229.41 a0.559478 0.559478 0 0 1 -0.735751 0 L1.38 228.19
								 a0.378795 0.378795 -180 0 0 -0.165544 -0.321693 a0.480244 0.480244 -180 0 0 -0.386269 -0.137868
								 L-0.64 227.65 a0.409182 0.409182 0 0 1 4.44089E-015 -0.612748" class="st5"/>
					<path d="M-1.84 227.34 A3.67876 3.06374 0 1 1 5.52 227.34 A3.67876 3.06374 0 1 1 -1.84 227.34" class="st5"/>
				</g>
				<g id="shape112-161" v:mID="112" v:groupContext="shape">
					<title>Sheet.112</title>
					<v:userDefs>
						<v:ud v:nameU="Detail" v:val="VT0(0):26"/>
					</v:userDefs>
					<path d="M0 227.34 A1.83938 1.53187 0 0 1 3.68 227.34 A1.83938 1.53187 0 1 1 -0 227.34" class="st6"/>
					<path d="M0.55 227.34 A1.28756 1.07231 0 0 1 3.13 227.34 A1.28756 1.07231 0 1 1 0.55 227.34" class="st6"/>
				</g>
			</g>
		</g>
		<g id="group113-165" transform="translate(490.58,-186.546)" v:mID="113" v:groupContext="group">
			<title>Sheet.113</title>
			<g id="shape114-166" v:mID="114" v:groupContext="shape" transform="translate(2.48207,0)">
				<title>Sheet.114</title>
				<rect x="0" y="217.643" width="11.9994" height="11.2337" class="st2"/>
			</g>
			<g id="shape115-168" v:mID="115" v:groupContext="shape" transform="translate(4.66378,-4.59561)">
				<title>Sheet.115</title>
				<rect x="0" y="226.834" width="7.63597" height="2.04249" class="st2"/>
			</g>
		</g>
		<g id="shape116-170" v:mID="116" v:groupContext="shape" transform="translate(455.128,-145.845)">
			<title>Sheet.116</title>
			<rect x="0" y="208.452" width="13.0902" height="20.4249" class="st2"/>
		</g>
		<g id="shape117-172" v:mID="117" v:groupContext="shape" transform="translate(455.128,-181.589)">
			<title>Sheet.117</title>
			<rect x="0" y="224.792" width="13.0902" height="4.08499" class="st2"/>
		</g>
		<g id="shape118-174" v:mID="118" v:groupContext="shape" transform="translate(455.128,-188.738)">
			<title>Sheet.118</title>
			<rect x="0" y="224.792" width="13.0902" height="4.08499" class="st2"/>
		</g>
		<g id="shape119-176" v:mID="119" v:groupContext="shape" transform="translate(455.128,-173.419)">
			<title>Sheet.119</title>
			<rect x="0" y="224.792" width="13.0902" height="4.08499" class="st2"/>
		</g>
		<g id="shape120-178" v:mID="120" v:groupContext="shape" transform="translate(391.94,-196.248)">
			<title>Sheet.120</title>
			<ellipse cx="4.90501" cy="224.248" rx="4.90501" ry="4.6289" class="st2"/>
		</g>
		<g id="shape121-180" v:mID="121" v:groupContext="shape" transform="translate(330.321,-196.248)">
			<title>Sheet.121</title>
			<ellipse cx="4.90501" cy="224.248" rx="4.90501" ry="4.6289" class="st2"/>
		</g>
		<g id="shape122-182" v:mID="122" v:groupContext="shape" transform="translate(312.041,-187.979)">
			<title>Sheet.122</title>
			<desc>FAN FAIL</desc>
			<v:textBlock v:margins="rect(0,0,0,0)" v:verticalAlign="0"/>
			<v:textRect cx="21.0114" cy="226.153" width="42.03" height="5.44665"/>
			<rect x="0" y="223.43" width="42.0227" height="5.44665" class="st8"/>
			<text x="0" y="228.83" class="st9" v:langID="1033"><v:paragraph/><v:tabList/>FAN FAIL</text>		</g>
		<g id="shape123-185" v:mID="123" v:groupContext="shape" transform="translate(374.985,-188.078)">
			<title>Sheet.123</title>
			<desc>VOLTAGE FAIL</desc>
			<v:textBlock v:margins="rect(0,0,0,0)" v:verticalAlign="0"/>
			<v:textRect cx="37.1431" cy="226.153" width="74.29" height="5.44665"/>
			<rect x="0" y="223.43" width="74.2861" height="5.44665" class="st8"/>
			<text x="0" y="228.83" class="st9" v:langID="1033"><v:paragraph/><v:tabList/>VOLTAGE FAIL</text>		</g>
		<g id="shape124-188" v:mID="124" v:groupContext="shape" transform="translate(492.01,-179.227)">
			<title>Sheet.124</title>
			<desc>RESET</desc>
			<v:textBlock v:margins="rect(0,0,0,0)" v:verticalAlign="0"/>
			<v:textRect cx="9.35962" cy="226.153" width="18.72" height="5.44665"/>
			<rect x="0" y="223.43" width="18.7192" height="5.44665" class="st8"/>
			<text x="0" y="227.93" class="st10" v:langID="1033"><v:paragraph/><v:tabList/>RESET</text>		</g>
		<g id="shape125-191" v:mID="125" v:groupContext="shape" transform="translate(455.128,-198.95)">
			<title>Sheet.125</title>
			<rect x="0" y="224.792" width="13.0902" height="4.08499" class="st2"/>
		</g>
		<g id="group126-193" transform="translate(529.794,-31.1357) scale(-1,1)" v:mID="126" v:groupContext="group">
			<v:custProps>
				<v:cp v:nameU="Thread" v:lbl="Thread Diameter" v:prompt="Select nominal size thread diameter." v:type="1"
						v:format="0000;000;00;0;1;2;3;4;5;6;8;10;12;1/4;5/16;3/8;7/16;1/2;9/16;5/8;3/4" v:invis="false"
						v:langID="1033" v:val="VT4(10)"/>
				<v:cp v:nameU="Diameter" v:lbl="Diameter" v:prompt="Input thread diameter." v:type="2" v:invis="true"
						v:langID="1033" v:val="VT0(0.19):0"/>
				<v:cp v:nameU="Thread" v:lbl="" v:prompt="" v:type="0" v:format="" v:sortKey="" v:invis="true" v:ask="false"
						v:langID="0" v:cal="0" v:val="VT4(6)"/>
				<v:cp v:nameU="Diameter" v:lbl="" v:prompt="" v:type="0" v:format="" v:sortKey="" v:invis="false" v:ask="false"
						v:langID="0" v:cal="0" v:val="VT0(0.033400580901278):1"/>
			</v:custProps>
			<v:userDefs>
				<v:ud v:nameU="Detail" v:val="VT0(0):26"/>
				<v:ud v:nameU="MThread" v:val="VT0(0.19):0"/>
				<v:ud v:nameU="Diameter" v:val="VT0(0.19):0"/>
				<v:ud v:nameU="Min" v:val="VT0(0):5"/>
				<v:ud v:nameU="SetOnDrop" v:val="VT0(1):26"/>
				<v:ud v:nameU="MWidth" v:val="VT0(0.19):0"/>
				<v:ud v:nameU="End" v:val="VT0(1):26"/>
				<v:ud v:nameU="Sizing" v:val="VT0(2):26"/>
				<v:ud v:nameU="AntiScale" v:val="VT0(1):26"/>
				<v:ud v:nameU="HasText" v:val="VT0(0):5"/>
				<v:ud v:nameU="visVersion" v:val="VT0(10):26"/>
				<v:ud v:nameU="MThread" v:prompt="" v:val="VT0(0.138):0"/>
				<v:ud v:nameU="Diameter" v:prompt="" v:val="VT0(0.033400580901278):1"/>
				<v:ud v:nameU="SetOnDrop" v:prompt="" v:val="VT0(0):26"/>
				<v:ud v:nameU="MWidth" v:prompt="" v:val="VT0(0.138):0"/>
				<v:ud v:nameU="Sizing" v:prompt="" v:val="VT0(0):26"/>
			</v:userDefs>
			<title> Posidriv   top 2.24</title>
			<g id="shape127-194" v:mID="127" v:groupContext="shape">
				<title>Sheet.127</title>
				<v:userDefs>
					<v:ud v:nameU="End" v:val="VT0(1):26"/>
				</v:userDefs>
				<path d="M-1.43 227.67 A2.86711 2.40484 0 0 1 4.3 227.67 A2.86711 2.40484 0 1 1 -1.43 227.67 Z" class="st4"/>
				<path d="M-0.5 227.43 L0.65 227.37 a0.374865 0.374865 -180 0 0 0.301047 -0.108218 a0.298364 0.298364 -180 0 0 0.12902
							 -0.252508 L1.15 226.05 a0.43604 0.43604 0 0 1 0.573422 0 L1.79 227.01 a0.298364 0.298364 -180 0 0 0.12902
							 0.252508 a0.374865 0.374865 -180 0 0 0.301047 0.108218 L3.37 227.43 a0.322706 0.322706 0 0 1 0 0.480968
							 L2.22 227.97 a0.374865 0.374865 -180 0 0 -0.301047 0.108218 a0.298364 0.298364 -180 0 0 -0.12902 0.252508
							 L1.72 229.3 a0.43604 0.43604 0 0 1 -0.573422 0 L1.08 228.34 a0.298364 0.298364 -180 0 0 -0.12902 -0.252508
							 a0.374865 0.374865 -180 0 0 -0.301047 -0.108218 L-0.5 227.91 a0.322706 0.322706 0 0 1 3.44169E-015 -0.480968"
						class="st5"/>
				<path d="M-1.43 227.67 A2.86711 2.40484 0 0 1 4.3 227.67 A2.86711 2.40484 0 1 1 -1.43 227.67" class="st5"/>
			</g>
			<g id="shape128-198" v:mID="128" v:groupContext="shape">
				<title>Sheet.128</title>
				<v:userDefs>
					<v:ud v:nameU="Detail" v:val="VT0(0):26"/>
				</v:userDefs>
				<path d="M0 227.67 A1.43356 1.20242 0 0 1 2.87 227.67 A1.43356 1.20242 0 1 1 0 227.67" class="st6"/>
				<path d="M0.43 227.67 a1.00349 0.841695 0 0 1 2.00698 0 a1.00349 0.841695 0 1 1 -2.00698 0" class="st6"/>
			</g>
		</g>
		<g id="shape129-202" v:mID="129" v:groupContext="shape" transform="translate(469.847,-199.743)">
			<title>Sheet.129</title>
			<desc>+3.3 VDC</desc>
			<v:textBlock v:margins="rect(0,0,0,0)" v:verticalAlign="0"/>
			<v:textRect cx="11.1457" cy="226.834" width="22.3" height="4.08499"/>
			<rect x="0" y="224.792" width="22.2913" height="4.08499" class="st8"/>
			<text x="0" y="229.29" class="st10" v:langID="1033"><v:paragraph/><v:tabList/>+3.3 VDC</text>		</g>
		<g id="shape130-205" v:mID="130" v:groupContext="shape" transform="translate(469.309,-189.631)">
			<title>Sheet.130</title>
			<desc>+5 VDC</desc>
			<v:textBlock v:margins="rect(0,0,0,0)" v:verticalAlign="0"/>
			<v:textRect cx="11.4907" cy="226.834" width="22.99" height="4.08499"/>
			<rect x="0" y="224.792" width="22.9813" height="4.08499" class="st8"/>
			<text x="0" y="229.29" class="st10" v:langID="1033"><v:paragraph/><v:tabList/>+5 VDC</text>		</g>
		<g id="shape131-208" v:mID="131" v:groupContext="shape" transform="translate(469.309,-181.589)">
			<title>Sheet.131</title>
			<desc>+12 VDC</desc>
			<v:textBlock v:margins="rect(0,0,0,0)" v:verticalAlign="0"/>
			<v:textRect cx="12.7546" cy="226.834" width="25.51" height="4.08499"/>
			<rect x="0" y="224.792" width="25.5092" height="4.08499" class="st8"/>
			<text x="0" y="229.29" class="st10" v:langID="1033"><v:paragraph/><v:tabList/>+12 VDC</text>		</g>
		<g id="shape132-211" v:mID="132" v:groupContext="shape" transform="translate(469.854,-173.419)">
			<title>Sheet.132</title>
			<desc>-12 VDC</desc>
			<v:textBlock v:margins="rect(0,0,0,0)" v:verticalAlign="0"/>
			<v:textRect cx="9.95403" cy="226.834" width="19.91" height="4.08499"/>
			<rect x="0" y="224.792" width="19.9081" height="4.08499" class="st8"/>
			<text x="0" y="229.29" class="st10" v:langID="1033"><v:paragraph/><v:tabList/>-12 VDC</text>		</g>
		<g id="shape133-214" v:mID="133" v:groupContext="shape" transform="translate(457.309,-155.398)">
			<title>Sheet.133</title>
			<path d="M0 228.88 L8.73 228.88" class="st3"/>
		</g>
		<g id="shape134-217" v:mID="134" v:groupContext="shape" transform="translate(469.54,-161.015)">
			<title>Sheet.134</title>
			<desc>DC ON</desc>
			<v:textBlock v:margins="rect(0,0,0,0)" v:verticalAlign="0"/>
			<v:textRect cx="9.27225" cy="226.834" width="18.55" height="4.08499"/>
			<rect x="0" y="224.792" width="18.5445" height="4.08499" class="st8"/>
			<text x="0" y="229.29" class="st10" v:langID="1033"><v:paragraph/><v:tabList/>DC ON</text>		</g>
		<g id="shape135-220" v:mID="135" v:groupContext="shape" transform="translate(469.309,-147.228)">
			<title>Sheet.135</title>
			<desc>DC OFF</desc>
			<v:textBlock v:margins="rect(0,0,0,0)" v:verticalAlign="0"/>
			<v:textRect cx="9.27225" cy="226.834" width="18.55" height="4.08499"/>
			<rect x="0" y="224.792" width="18.5445" height="4.08499" class="st8"/>
			<text x="0" y="229.29" class="st10" v:langID="1033"><v:paragraph/><v:tabList/>DC <tspan x="0" dy="1.2em" class="st11">OFF</tspan></text>		</g>
		<g id="shape136-224" v:mID="136" v:groupContext="shape" transform="translate(92.5205,-179.908)">
			<title>Sheet.136</title>
			<path d="M0 228.88 L335.66 228.88" class="st3"/>
		</g>
		<g id="group139-227" transform="translate(271.055,-188.046) scale(-1,1)" v:mID="139" v:groupContext="group">
			<v:custProps>
				<v:cp v:nameU="Thread" v:lbl="Thread Diameter" v:prompt="Select nominal size thread diameter." v:type="1"
						v:format="0000;000;00;0;1;2;3;4;5;6;8;10;12;1/4;5/16;3/8;7/16;1/2;9/16;5/8;3/4" v:invis="false"
						v:langID="1033" v:val="VT4(10)"/>
				<v:cp v:nameU="Diameter" v:lbl="Diameter" v:prompt="Input thread diameter." v:type="2" v:invis="true"
						v:langID="1033" v:val="VT0(0.19):0"/>
				<v:cp v:nameU="Thread" v:lbl="" v:prompt="" v:type="0" v:format="" v:sortKey="" v:invis="true" v:ask="false"
						v:langID="0" v:cal="0" v:val="VT4(6)"/>
				<v:cp v:nameU="Diameter" v:lbl="" v:prompt="" v:type="0" v:format="" v:sortKey="" v:invis="false" v:ask="false"
						v:langID="0" v:cal="0" v:val="VT0(0.033400580901278):1"/>
			</v:custProps>
			<v:userDefs>
				<v:ud v:nameU="Detail" v:val="VT0(0):26"/>
				<v:ud v:nameU="MThread" v:val="VT0(0.19):0"/>
				<v:ud v:nameU="Diameter" v:val="VT0(0.19):0"/>
				<v:ud v:nameU="Min" v:val="VT0(0):5"/>
				<v:ud v:nameU="SetOnDrop" v:val="VT0(1):26"/>
				<v:ud v:nameU="MWidth" v:val="VT0(0.19):0"/>
				<v:ud v:nameU="End" v:val="VT0(1):26"/>
				<v:ud v:nameU="Sizing" v:val="VT0(2):26"/>
				<v:ud v:nameU="AntiScale" v:val="VT0(1):26"/>
				<v:ud v:nameU="HasText" v:val="VT0(0):5"/>
				<v:ud v:nameU="visVersion" v:val="VT0(10):26"/>
				<v:ud v:nameU="MThread" v:prompt="" v:val="VT0(0.138):0"/>
				<v:ud v:nameU="Diameter" v:prompt="" v:val="VT0(0.033400580901278):1"/>
				<v:ud v:nameU="SetOnDrop" v:prompt="" v:val="VT0(0):26"/>
				<v:ud v:nameU="MWidth" v:prompt="" v:val="VT0(0.138):0"/>
				<v:ud v:nameU="Sizing" v:prompt="" v:val="VT0(0):26"/>
			</v:userDefs>
			<title> Posidriv   top 2.131</title>
			<g id="shape140-228" v:mID="140" v:groupContext="shape">
				<title>Sheet.140</title>
				<v:userDefs>
					<v:ud v:nameU="End" v:val="VT0(1):26"/>
				</v:userDefs>
				<path d="M-1.43 227.67 A2.86711 2.40484 0 0 1 4.3 227.67 A2.86711 2.40484 0 1 1 -1.43 227.67 Z" class="st4"/>
				<path d="M-0.5 227.43 L0.65 227.37 a0.374865 0.374865 -180 0 0 0.301047 -0.108218 a0.298364 0.298364 -180 0 0 0.12902
							 -0.252508 L1.15 226.05 a0.43604 0.43604 0 0 1 0.573422 0 L1.79 227.01 a0.298364 0.298364 -180 0 0 0.12902
							 0.252508 a0.374865 0.374865 -180 0 0 0.301047 0.108218 L3.37 227.43 a0.322706 0.322706 0 0 1 0 0.480968
							 L2.22 227.97 a0.374865 0.374865 -180 0 0 -0.301047 0.108218 a0.298364 0.298364 -180 0 0 -0.12902 0.252508
							 L1.72 229.3 a0.43604 0.43604 0 0 1 -0.573422 0 L1.08 228.34 a0.298364 0.298364 -180 0 0 -0.12902 -0.252508
							 a0.374865 0.374865 -180 0 0 -0.301047 -0.108218 L-0.5 227.91 a0.322706 0.322706 0 0 1 3.44169E-015 -0.480968"
						class="st5"/>
				<path d="M-1.43 227.67 A2.86711 2.40484 0 0 1 4.3 227.67 A2.86711 2.40484 0 1 1 -1.43 227.67" class="st5"/>
			</g>
			<g id="shape141-232" v:mID="141" v:groupContext="shape">
				<title>Sheet.141</title>
				<v:userDefs>
					<v:ud v:nameU="Detail" v:val="VT0(0):26"/>
				</v:userDefs>
				<path d="M0 227.67 A1.43356 1.20242 0 0 1 2.87 227.67 A1.43356 1.20242 0 1 1 0 227.67" class="st6"/>
				<path d="M0.43 227.67 a1.00349 0.841695 0 0 1 2.00698 0 a1.00349 0.841695 0 1 1 -2.00698 0" class="st6"/>
			</g>
		</g>
		<g id="group142-236" transform="translate(363.024,-188.408) scale(-1,1)" v:mID="142" v:groupContext="group">
			<v:custProps>
				<v:cp v:nameU="Thread" v:lbl="Thread Diameter" v:prompt="Select nominal size thread diameter." v:type="1"
						v:format="0000;000;00;0;1;2;3;4;5;6;8;10;12;1/4;5/16;3/8;7/16;1/2;9/16;5/8;3/4" v:invis="false"
						v:langID="1033" v:val="VT4(10)"/>
				<v:cp v:nameU="Diameter" v:lbl="Diameter" v:prompt="Input thread diameter." v:type="2" v:invis="true"
						v:langID="1033" v:val="VT0(0.19):0"/>
				<v:cp v:nameU="Thread" v:lbl="" v:prompt="" v:type="0" v:format="" v:sortKey="" v:invis="true" v:ask="false"
						v:langID="0" v:cal="0" v:val="VT4(6)"/>
				<v:cp v:nameU="Diameter" v:lbl="" v:prompt="" v:type="0" v:format="" v:sortKey="" v:invis="false" v:ask="false"
						v:langID="0" v:cal="0" v:val="VT0(0.033400580901278):1"/>
			</v:custProps>
			<v:userDefs>
				<v:ud v:nameU="Detail" v:val="VT0(0):26"/>
				<v:ud v:nameU="MThread" v:val="VT0(0.19):0"/>
				<v:ud v:nameU="Diameter" v:val="VT0(0.19):0"/>
				<v:ud v:nameU="Min" v:val="VT0(0):5"/>
				<v:ud v:nameU="SetOnDrop" v:val="VT0(1):26"/>
				<v:ud v:nameU="MWidth" v:val="VT0(0.19):0"/>
				<v:ud v:nameU="End" v:val="VT0(1):26"/>
				<v:ud v:nameU="Sizing" v:val="VT0(2):26"/>
				<v:ud v:nameU="AntiScale" v:val="VT0(1):26"/>
				<v:ud v:nameU="HasText" v:val="VT0(0):5"/>
				<v:ud v:nameU="visVersion" v:val="VT0(10):26"/>
				<v:ud v:nameU="MThread" v:prompt="" v:val="VT0(0.138):0"/>
				<v:ud v:nameU="Diameter" v:prompt="" v:val="VT0(0.033400580901278):1"/>
				<v:ud v:nameU="SetOnDrop" v:prompt="" v:val="VT0(0):26"/>
				<v:ud v:nameU="MWidth" v:prompt="" v:val="VT0(0.138):0"/>
				<v:ud v:nameU="Sizing" v:prompt="" v:val="VT0(0):26"/>
			</v:userDefs>
			<title> Posidriv   top 2.134</title>
			<g id="shape143-237" v:mID="143" v:groupContext="shape">
				<title>Sheet.143</title>
				<v:userDefs>
					<v:ud v:nameU="End" v:val="VT0(1):26"/>
				</v:userDefs>
				<path d="M-1.43 227.67 A2.86711 2.40484 0 0 1 4.3 227.67 A2.86711 2.40484 0 1 1 -1.43 227.67 Z" class="st4"/>
				<path d="M-0.5 227.43 L0.65 227.37 a0.374865 0.374865 -180 0 0 0.301047 -0.108218 a0.298364 0.298364 -180 0 0 0.12902
							 -0.252508 L1.15 226.05 a0.43604 0.43604 0 0 1 0.573422 0 L1.79 227.01 a0.298364 0.298364 -180 0 0 0.12902
							 0.252508 a0.374865 0.374865 -180 0 0 0.301047 0.108218 L3.37 227.43 a0.322706 0.322706 0 0 1 0 0.480968
							 L2.22 227.97 a0.374865 0.374865 -180 0 0 -0.301047 0.108218 a0.298364 0.298364 -180 0 0 -0.12902 0.252508
							 L1.72 229.3 a0.43604 0.43604 0 0 1 -0.573422 0 L1.08 228.34 a0.298364 0.298364 -180 0 0 -0.12902 -0.252508
							 a0.374865 0.374865 -180 0 0 -0.301047 -0.108218 L-0.5 227.91 a0.322706 0.322706 0 0 1 3.44169E-015 -0.480968"
						class="st5"/>
				<path d="M-1.43 227.67 A2.86711 2.40484 0 0 1 4.3 227.67 A2.86711 2.40484 0 1 1 -1.43 227.67" class="st5"/>
			</g>
			<g id="shape144-241" v:mID="144" v:groupContext="shape">
				<title>Sheet.144</title>
				<v:userDefs>
					<v:ud v:nameU="Detail" v:val="VT0(0):26"/>
				</v:userDefs>
				<path d="M0 227.67 A1.43356 1.20242 0 0 1 2.87 227.67 A1.43356 1.20242 0 1 1 0 227.67" class="st6"/>
				<path d="M0.43 227.67 a1.00349 0.841695 0 0 1 2.00698 0 a1.00349 0.841695 0 1 1 -2.00698 0" class="st6"/>
			</g>
		</g>
		<g id="shape158-245" v:mID="158" v:groupContext="shape" transform="translate(148.201,-111.393)">
			<title>Sheet.158</title>
			<path d="M0 228.88 L72.68 228.88" class="st12"/>
		</g>
		<g id="shape164-248" v:mID="164" v:groupContext="shape" transform="translate(327.677,48.9613) rotate(90)">
			<title>Sheet.164</title>
			<rect x="0" y="221.797" width="23.4677" height="7.0796" class="st13"/>
		</g>
		<g id="shape165-250" v:mID="165" v:groupContext="shape" transform="translate(323.722,48.9613) rotate(90)">
			<title>Sheet.165</title>
			<rect x="0" y="221.797" width="23.4677" height="7.0796" class="st13"/>
		</g>
		<g id="shape166-252" v:mID="166" v:groupContext="shape" transform="translate(323.717,54.0621) rotate(90)">
			<title>Sheet.166</title>
			<rect x="0" y="225.877" width="13.5335" height="3.00019" class="st13"/>
		</g>
		<g id="shape167-254" v:mID="167" v:groupContext="shape" transform="translate(327.677,73.7238) rotate(90)">
			<title>Sheet.167</title>
			<rect x="0" y="221.797" width="23.4677" height="7.0796" class="st13"/>
		</g>
		<g id="shape168-256" v:mID="168" v:groupContext="shape" transform="translate(323.722,73.7238) rotate(90)">
			<title>Sheet.168</title>
			<rect x="0" y="221.797" width="23.4677" height="7.0796" class="st13"/>
		</g>
		<g id="shape169-258" v:mID="169" v:groupContext="shape" transform="translate(323.717,78.8246) rotate(90)">
			<title>Sheet.169</title>
			<rect x="0" y="225.877" width="13.5335" height="3.00019" class="st13"/>
		</g>
		<g id="shape170-260" v:mID="170" v:groupContext="shape" transform="translate(327.677,98.3438) rotate(90)">
			<title>Sheet.170</title>
			<rect x="0" y="221.797" width="23.4677" height="7.0796" class="st13"/>
		</g>
		<g id="shape171-262" v:mID="171" v:groupContext="shape" transform="translate(323.722,98.3438) rotate(90)">
			<title>Sheet.171</title>
			<rect x="0" y="221.797" width="23.4677" height="7.0796" class="st13"/>
		</g>
		<g id="shape172-264" v:mID="172" v:groupContext="shape" transform="translate(323.717,103.445) rotate(90)">
			<title>Sheet.172</title>
			<rect x="0" y="225.877" width="13.5335" height="3.00019" class="st13"/>
		</g>
		<g id="shape173-266" v:mID="173" v:groupContext="shape" transform="translate(327.677,123.543) rotate(90)">
			<title>Sheet.173</title>
			<rect x="0" y="221.797" width="25.9671" height="7.0796" class="st13"/>
		</g>
		<g id="shape174-268" v:mID="174" v:groupContext="shape" transform="translate(323.722,123.543) rotate(90)">
			<title>Sheet.174</title>
			<rect x="0" y="221.797" width="25.9671" height="7.0796" class="st13"/>
		</g>
		<g id="shape175-270" v:mID="175" v:groupContext="shape" transform="translate(323.717,129.187) rotate(90)">
			<title>Sheet.175</title>
			<rect x="0" y="225.877" width="14.9748" height="3.00019" class="st13"/>
		</g>
		<g id="shape176-272" v:mID="176" v:groupContext="shape" transform="translate(327.677,151.241) rotate(90)">
			<title>Sheet.176</title>
			<rect x="0" y="221.797" width="25.9671" height="7.0796" class="st13"/>
		</g>
		<g id="shape177-274" v:mID="177" v:groupContext="shape" transform="translate(323.722,151.241) rotate(90)">
			<title>Sheet.177</title>
			<rect x="0" y="221.797" width="25.9671" height="7.0796" class="st13"/>
		</g>
		<g id="shape178-276" v:mID="178" v:groupContext="shape" transform="translate(323.717,156.885) rotate(90)">
			<title>Sheet.178</title>
			<rect x="0" y="225.877" width="14.9748" height="3.00019" class="st13"/>
		</g>
		<g id="shape179-278" v:mID="179" v:groupContext="shape" transform="translate(327.677,178.473) rotate(90)">
			<title>Sheet.179</title>
			<rect x="0" y="221.797" width="22.9707" height="7.0796" class="st13"/>
		</g>
		<g id="shape180-280" v:mID="180" v:groupContext="shape" transform="translate(323.722,178.473) rotate(90)">
			<title>Sheet.180</title>
			<rect x="0" y="221.797" width="22.9707" height="7.0796" class="st13"/>
		</g>
		<g id="shape181-282" v:mID="181" v:groupContext="shape" transform="translate(323.717,183.466) rotate(90)">
			<title>Sheet.181</title>
			<rect x="0" y="225.877" width="13.2469" height="3.00019" class="st13"/>
		</g>
		<g id="shape182-284" v:mID="182" v:groupContext="shape" transform="translate(193.211,49.0325) rotate(-90) scale(-1,1)">
			<title>Sheet.182</title>
			<rect x="0" y="221.797" width="23.4677" height="7.0796" class="st13"/>
		</g>
		<g id="shape183-286" v:mID="183" v:groupContext="shape" transform="translate(197.166,49.0325) rotate(-90) scale(-1,1)">
			<title>Sheet.183</title>
			<rect x="0" y="221.797" width="23.4677" height="7.0796" class="st13"/>
		</g>
		<g id="shape184-288" v:mID="184" v:groupContext="shape" transform="translate(197.171,54.1334) rotate(-90) scale(-1,1)">
			<title>Sheet.184</title>
			<rect x="0" y="225.877" width="13.5335" height="3.00019" class="st13"/>
		</g>
		<g id="shape185-290" v:mID="185" v:groupContext="shape" transform="translate(193.211,73.795) rotate(-90) scale(-1,1)">
			<title>Sheet.185</title>
			<rect x="0" y="221.797" width="23.4677" height="7.0796" class="st13"/>
		</g>
		<g id="shape186-292" v:mID="186" v:groupContext="shape" transform="translate(197.166,73.795) rotate(-90) scale(-1,1)">
			<title>Sheet.186</title>
			<rect x="0" y="221.797" width="23.4677" height="7.0796" class="st13"/>
		</g>
		<g id="shape187-294" v:mID="187" v:groupContext="shape" transform="translate(197.171,78.8959) rotate(-90) scale(-1,1)">
			<title>Sheet.187</title>
			<rect x="0" y="225.877" width="13.5335" height="3.00019" class="st13"/>
		</g>
		<g id="shape188-296" v:mID="188" v:groupContext="shape" transform="translate(193.211,98.415) rotate(-90) scale(-1,1)">
			<title>Sheet.188</title>
			<rect x="0" y="221.797" width="23.4677" height="7.0796" class="st13"/>
		</g>
		<g id="shape189-298" v:mID="189" v:groupContext="shape" transform="translate(197.166,98.415) rotate(-90) scale(-1,1)">
			<title>Sheet.189</title>
			<rect x="0" y="221.797" width="23.4677" height="7.0796" class="st13"/>
		</g>
		<g id="shape190-300" v:mID="190" v:groupContext="shape" transform="translate(197.171,103.516) rotate(-90) scale(-1,1)">
			<title>Sheet.190</title>
			<rect x="0" y="225.877" width="13.5335" height="3.00019" class="st13"/>
		</g>
		<g id="shape191-302" v:mID="191" v:groupContext="shape" transform="translate(193.211,123.614) rotate(-90) scale(-1,1)">
			<title>Sheet.191</title>
			<rect x="0" y="221.797" width="25.9671" height="7.0796" class="st13"/>
		</g>
		<g id="shape192-304" v:mID="192" v:groupContext="shape" transform="translate(197.166,123.614) rotate(-90) scale(-1,1)">
			<title>Sheet.192</title>
			<rect x="0" y="221.797" width="25.9671" height="7.0796" class="st13"/>
		</g>
		<g id="shape193-306" v:mID="193" v:groupContext="shape" transform="translate(197.171,129.258) rotate(-90) scale(-1,1)">
			<title>Sheet.193</title>
			<rect x="0" y="225.877" width="14.9748" height="3.00019" class="st13"/>
		</g>
		<g id="shape194-308" v:mID="194" v:groupContext="shape" transform="translate(193.211,151.312) rotate(-90) scale(-1,1)">
			<title>Sheet.194</title>
			<rect x="0" y="221.797" width="25.9671" height="7.0796" class="st13"/>
		</g>
		<g id="shape195-310" v:mID="195" v:groupContext="shape" transform="translate(197.166,151.312) rotate(-90) scale(-1,1)">
			<title>Sheet.195</title>
			<rect x="0" y="221.797" width="25.9671" height="7.0796" class="st13"/>
		</g>
		<g id="shape196-312" v:mID="196" v:groupContext="shape" transform="translate(197.171,156.956) rotate(-90) scale(-1,1)">
			<title>Sheet.196</title>
			<rect x="0" y="225.877" width="14.9748" height="3.00019" class="st13"/>
		</g>
		<g id="shape197-314" v:mID="197" v:groupContext="shape" transform="translate(193.211,178.544) rotate(-90) scale(-1,1)">
			<title>Sheet.197</title>
			<rect x="0" y="221.797" width="22.9707" height="7.0796" class="st13"/>
		</g>
		<g id="shape198-316" v:mID="198" v:groupContext="shape" transform="translate(197.166,178.544) rotate(-90) scale(-1,1)">
			<title>Sheet.198</title>
			<rect x="0" y="221.797" width="22.9707" height="7.0796" class="st13"/>
		</g>
		<g id="shape199-318" v:mID="199" v:groupContext="shape" transform="translate(197.171,183.537) rotate(-90) scale(-1,1)">
			<title>Sheet.199</title>
			<rect x="0" y="225.877" width="13.2469" height="3.00019" class="st13"/>
		</g>
		<g id="shape262-320" v:mID="262" v:groupContext="shape" transform="translate(269.285,-56.9711)">
			<title>Sheet.262</title>
			<rect x="0" y="214.31" width="87.2419" height="14.5669" rx="4.5" ry="4.5" class="st2"/>
		</g>
		<g id="shape314-322" v:mID="314" v:groupContext="shape" transform="translate(269.758,-31.3023)">
			<title>Sheet.314</title>
			<rect x="0" y="214.31" width="87.2419" height="14.5669" rx="4.5" ry="4.5" class="st2"/>
		</g>
		<g id="group410-324" transform="translate(25.6353,301.061) scale(1,-1)" v:mID="410" v:groupContext="group">
			<title>Sheet.410</title>
			<g id="shape411-325" v:mID="411" v:groupContext="shape" transform="translate(170.508,0)">
				<title>Sheet.411</title>
				<path d="M0 228.88 L28.9 228.88" class="st12"/>
			</g>
		</g>
		<g id="shape415-328" v:mID="415" v:groupContext="shape" transform="translate(436.454,-37.628)">
			<title>Sheet.415</title>
			<desc>1</desc>
			<v:textBlock v:margins="rect(0,0,0,0)" v:verticalAlign="0"/>
			<v:textRect cx="2.23073" cy="226.935" width="4.47" height="3.88351"/>
			<rect x="0" y="224.993" width="4.46146" height="3.88351" class="st8"/>
			<text x="0" y="233.09" class="st14" v:langID="1033"><v:paragraph/><v:tabList/>1</text>		</g>
		<g id="shape416-331" v:mID="416" v:groupContext="shape" transform="translate(436.454,-66.878)">
			<title>Sheet.416</title>
			<desc>2</desc>
			<v:textBlock v:margins="rect(0,0,0,0)" v:verticalAlign="0"/>
			<v:textRect cx="2.23073" cy="226.935" width="4.47" height="3.88351"/>
			<rect x="0" y="224.993" width="4.46146" height="3.88351" class="st8"/>
			<text x="0" y="233.09" class="st14" v:langID="1033"><v:paragraph/><v:tabList/>2</text>		</g>
		<g id="shape417-334" v:mID="417" v:groupContext="shape" transform="translate(436.415,-94.4945)">
			<title>Sheet.417</title>
			<desc>3</desc>
			<v:textBlock v:margins="rect(0,0,0,0)" v:verticalAlign="0"/>
			<v:textRect cx="2.23073" cy="226.935" width="4.47" height="3.88351"/>
			<rect x="0" y="224.993" width="4.46146" height="3.88351" class="st8"/>
			<text x="0" y="233.09" class="st14" v:langID="1033"><v:paragraph/><v:tabList/>3</text>		</g>
		<g id="shape418-337" v:mID="418" v:groupContext="shape" transform="translate(121.415,-135.657)">
			<title>Sheet.418</title>
			<desc>FP</desc>
			<v:textBlock v:margins="rect(0,0,0,0)" v:verticalAlign="0"/>
			<v:textRect cx="9" cy="223.406" width="18" height="10.9418"/>
			<rect x="0" y="217.935" width="18" height="10.9418" class="st8"/>
			<text x="3.25" y="226.03" class="st14" v:langID="1033"><v:paragraph v:horizAlign="1"/><v:tabList/>FP</text>		</g>
		<g id="shape419-340" v:mID="419" v:groupContext="shape" transform="translate(436.434,-170.686)">
			<title>Sheet.419</title>
			<desc>6</desc>
			<v:textBlock v:margins="rect(0,0,0,0)" v:verticalAlign="0"/>
			<v:textRect cx="2.23073" cy="226.935" width="4.47" height="3.88351"/>
			<rect x="0" y="224.993" width="4.46146" height="3.88351" class="st8"/>
			<text x="0" y="233.09" class="st14" v:langID="1033"><v:paragraph/><v:tabList/>6</text>		</g>
		<g id="shape420-343" v:mID="420" v:groupContext="shape" transform="translate(436.434,-148.186)">
			<title>Sheet.420</title>
			<desc>5</desc>
			<v:textBlock v:margins="rect(0,0,0,0)" v:verticalAlign="0"/>
			<v:textRect cx="2.23073" cy="226.935" width="4.47" height="3.88351"/>
			<rect x="0" y="224.993" width="4.46146" height="3.88351" class="st8"/>
			<text x="0" y="233.09" class="st14" v:langID="1033"><v:paragraph/><v:tabList/>5</text>		</g>
		<g id="group421-346" transform="translate(210.414,-110.599)" v:mID="421" v:groupContext="group">
			<title>Sheet.421</title>
			<g id="shape422-347" v:mID="422" v:groupContext="shape">
				<title>Sheet.422</title>
				<rect x="0" y="213.297" width="92.0023" height="15.5802" rx="4.5" ry="4.5" class="st2"/>
			</g>
		</g>
		<g id="group433-349" transform="translate(212.805,-158.019)" v:mID="433" v:groupContext="group">
			<title>Sheet.433</title>
			<g id="group434-350" v:mID="434" v:groupContext="group">
				<title>Sheet.434</title>
				<g id="shape435-351" v:mID="435" v:groupContext="shape">
					<title>Sheet.435</title>
					<rect x="0" y="213.297" width="96.2213" height="15.5802" rx="4.5" ry="4.5" class="st2"/>
				</g>
			</g>
		</g>
		<g id="group458-353" transform="translate(126.047,279.617) scale(1,-1)" v:mID="458" v:groupContext="group">
			<title>Sheet.458</title>
		</g>
		<g id="group469-354" transform="translate(163.632,-53.5643)" v:mID="469" v:groupContext="group">
			<title>Sheet.469</title>
		</g>
		<g id="group487-355" transform="translate(164.224,-30.793)" v:mID="487" v:groupContext="group">
			<title>Sheet.487</title>
			<g id="group488-356" v:mID="488" v:groupContext="group">
				<title>Sheet.488</title>
				<g id="shape489-357" v:mID="489" v:groupContext="shape" transform="translate(295.734,220.252) rotate(90)">
					<title>Sheet.489</title>
					<path d="M0 228.88 L2 228.88" class="st12"/>
				</g>
				<g id="shape490-360" v:mID="490" v:groupContext="shape" transform="translate(5.07963,0)">
					<title>Sheet.490</title>
					<rect x="0" y="214.31" width="87.2419" height="14.5669" rx="4.5" ry="4.5" class="st2"/>
				</g>
			</g>
		</g>
		<g id="shape577-362" v:mID="577" v:groupContext="shape" transform="translate(436.415,-117.657)">
			<title>Sheet.577</title>
			<desc>4</desc>
			<v:textBlock v:margins="rect(0,0,0,0)" v:verticalAlign="0"/>
			<v:textRect cx="2.23073" cy="226.935" width="4.47" height="3.88351"/>
			<rect x="0" y="224.993" width="4.46146" height="3.88351" class="st8"/>
			<text x="0" y="233.09" class="st14" v:langID="1033"><v:paragraph/><v:tabList/>4</text>		</g>
		<g id="shape578-365" v:mID="578" v:groupContext="shape" transform="translate(167.959,-57.0803)">
			<title>Sheet.578</title>
			<rect x="0" y="214.31" width="87.2419" height="14.5669" rx="4.5" ry="4.5" class="st2"/>
		</g>
		<g id="shape589-367" v:mID="589" v:groupContext="shape" transform="translate(222.701,-154.543)">
			<title>Sheet.589</title>
			<desc>820- 646641</desc>
			<v:textBlock v:margins="rect(4,4,4,4)"/>
			<v:textRect cx="39.6907" cy="217.675" width="79.39" height="22.4037"/>
			<rect x="0" y="206.473" width="79.3814" height="22.4037" class="st8"/>
			<text x="15.67" y="220.37" class="st14" v:langID="1033"><v:paragraph v:horizAlign="1"/><v:tabList/>820- 646641</text>		</g>
		<g id="shape590-370" v:mID="590" v:groupContext="shape" transform="translate(271.885,-80.293)">
			<title>Sheet.590</title>
			<desc>820- 646002</desc>
			<v:textBlock v:margins="rect(4,4,4,4)"/>
			<v:textRect cx="39.6907" cy="217.675" width="79.39" height="22.4037"/>
			<rect x="0" y="206.473" width="79.3814" height="22.4037" class="st8"/>
			<text x="15.67" y="220.37" class="st14" v:langID="1033"><v:paragraph v:horizAlign="1"/><v:tabList/>820- 646002</text>		</g>
		<g id="shape591-373" v:mID="591" v:groupContext="shape" transform="translate(271.076,-52.2643)">
			<title>Sheet.591</title>
			<desc>820- 646002</desc>
			<v:textBlock v:margins="rect(4,4,4,4)"/>
			<v:textRect cx="39.6907" cy="217.675" width="79.39" height="22.4037"/>
			<rect x="0" y="206.473" width="79.3814" height="22.4037" class="st8"/>
			<text x="15.67" y="220.37" class="st14" v:langID="1033"><v:paragraph v:horizAlign="1"/><v:tabList/>820- 646002</text>		</g>
		<g id="shape592-376" v:mID="592" v:groupContext="shape" transform="translate(270.267,-26.293)">
			<title>Sheet.592</title>
			<desc>820- 646002</desc>
			<v:textBlock v:margins="rect(4,4,4,4)"/>
			<v:textRect cx="39.6907" cy="217.675" width="79.39" height="22.4037"/>
			<rect x="0" y="206.473" width="79.3814" height="22.4037" class="st8"/>
			<text x="15.67" y="220.37" class="st14" v:langID="1033"><v:paragraph v:horizAlign="1"/><v:tabList/>820- 646002</text>		</g>
		<g id="shape593-379" v:mID="593" v:groupContext="shape" transform="translate(216.267,-106.216)">
			<title>Sheet.593</title>
			<desc>820- 646612</desc>
			<v:textBlock v:margins="rect(4,4,4,4)"/>
			<v:textRect cx="39.6907" cy="217.675" width="79.39" height="22.4037"/>
			<rect x="0" y="206.473" width="79.3814" height="22.4037" class="st8"/>
			<text x="15.67" y="220.37" class="st14" v:langID="1033"><v:paragraph v:horizAlign="1"/><v:tabList/>820- 646612</text>		</g>
		<g id="shape594-382" v:mID="594" v:groupContext="shape" transform="translate(172.885,-52.168)">
			<title>Sheet.594</title>
			<desc>820- 646521</desc>
			<v:textBlock v:margins="rect(4,4,4,4)"/>
			<v:textRect cx="39.6907" cy="217.675" width="79.39" height="22.4037"/>
			<rect x="0" y="206.473" width="79.3814" height="22.4037" class="st8"/>
			<text x="15.67" y="220.37" class="st14" v:langID="1033"><v:paragraph v:horizAlign="1"/><v:tabList/>820- 646521</text>		</g>
		<g id="shape595-385" v:mID="595" v:groupContext="shape" transform="translate(172.076,-26.3893)">
			<title>Sheet.595</title>
			<desc>820- 646521</desc>
			<v:textBlock v:margins="rect(4,4,4,4)"/>
			<v:textRect cx="39.6907" cy="217.675" width="79.39" height="22.4037"/>
			<rect x="0" y="206.473" width="79.3814" height="22.4037" class="st8"/>
			<text x="15.67" y="220.37" class="st14" v:langID="1033"><v:paragraph v:horizAlign="1"/><v:tabList/>820- 646521</text>		</g>
		<g id="shape597-388" v:mID="597" v:groupContext="shape" transform="translate(165.025,-85.2053)">
			<title>Sheet.597</title>
			<rect x="0" y="214.31" width="87.2419" height="14.5669" rx="4.5" ry="4.5" class="st2"/>
		</g>
		<g id="shape598-390" v:mID="598" v:groupContext="shape" transform="translate(169.951,-80.293)">
			<title>Sheet.598</title>
			<desc>820- 646521</desc>
			<v:textBlock v:margins="rect(4,4,4,4)"/>
			<v:textRect cx="39.6907" cy="217.675" width="79.39" height="22.4037"/>
			<rect x="0" y="206.473" width="79.3814" height="22.4037" class="st8"/>
			<text x="15.67" y="220.37" class="st14" v:langID="1033"><v:paragraph v:horizAlign="1"/><v:tabList/>820- 646521</text>		</g>
	</g>
</svg>
