<?xml version="1.0" encoding="UTF-8" standalone="no"?>
<!DOCTYPE svg PUBLIC "-//W3C//DTD SVG 1.1//EN" "http://www.w3.org/Graphics/SVG/1.1/DTD/svg11.dtd">
<!-- Generated by Microsoft Visio, SVG Export NetOccupy_Occupancy-Clear_Alarm.svg Page-1 -->
<svg xmlns="http://www.w3.org/2000/svg" xmlns:xlink="http://www.w3.org/1999/xlink" xmlns:ev="http://www.w3.org/2001/xml-events"
		xmlns:v="http://schemas.microsoft.com/visio/2003/SVGExtensions/" width="7.01042in" height="4.63542in"
		viewBox="0 0 504.75 333.75" xml:space="preserve" color-interpolation-filters="sRGB" class="st18">
	<v:documentProperties v:langID="1033" v:viewMarkup="false">
		<v:userDefs>
			<v:ud v:nameU="DisableSpdActionTags" v:prompt="" v:val="VT0(0):26"/>
		</v:userDefs>
	</v:documentProperties>

	<style type="text/css">
	<![CDATA[
		.st1 {fill:#5555ff;visibility:hidden}
		.st2 {stroke:none;stroke-linecap:round;stroke-linejoin:round;stroke-width:0.75}
		.st3 {fill:#000080;font-family:Arial;font-size:0.916672em;font-weight:bold}
		.st4 {font-size:1em;font-weight:normal}
		.st5 {marker-end:url(#mrkr4-22);stroke:#000080;stroke-linecap:round;stroke-linejoin:round;stroke-width:0.75}
		.st6 {fill:#000080;fill-opacity:1;stroke:#000080;stroke-opacity:1;stroke-width:0.22935779816514}
		.st7 {fill:#000080;font-family:Calibri;font-size:1.00001em}
		.st8 {stroke:#000080;stroke-linecap:round;stroke-linejoin:round;stroke-width:0.75}
		.st9 {fill:#ffffff;stroke:none;stroke-linecap:butt;stroke-width:7.2}
		.st10 {fill:#ea700d;stroke:none;stroke-linecap:round;stroke-linejoin:round;stroke-width:0.75}
		.st11 {fill:#bf4040;stroke:none;stroke-linecap:round;stroke-linejoin:round;stroke-width:0.75}
		.st12 {fill:#ffffff;stroke:none;stroke-linecap:round;stroke-linejoin:round;stroke-width:0.75}
		.st13 {fill:#ff5555;stroke:none;stroke-linecap:round;stroke-linejoin:round;stroke-width:0.75;visibility:hidden}
		.st14 {fill:#000000;visibility:hidden}
		.st15 {fill:#000080;font-family:Calibri;font-size:0.833336em}
		.st16 {fill:#000080;font-family:Calibri;font-size:1.5em}
		.st17 {fill:#000000;font-family:Calibri;font-size:1.00001em}
		.st18 {fill:none;fill-rule:evenodd;font-size:12px;overflow:visible;stroke-linecap:square;stroke-miterlimit:3}
	]]>
	</style>

	<defs id="Markers">
		<g id="lend4">
			<path d="M 2 1 L 0 0 L 2 -1 L 2 1 " style="stroke:none"/>
		</g>
		<marker id="mrkr4-22" class="st6" v:arrowType="4" v:arrowSize="2" v:setback="8.72" refX="-8.72" orient="auto"
				markerUnits="strokeWidth" overflow="visible">
			<use xlink:href="#lend4" transform="scale(-4.36,-4.36) "/>
		</marker>
	</defs>
	<g v:mID="0" v:index="1" v:groupContext="foregroundPage">
		<title>Page-1</title>
		<v:pageProperties v:drawingScale="1" v:pageScale="1" v:drawingUnits="19" v:shadowOffsetX="9" v:shadowOffsetY="-9"/>
		<g id="group41-1" transform="translate(0.375,-0.375)" v:mID="41" v:groupContext="group">
			<title>Sheet.41</title>
			<g id="shape17-2" v:mID="17" v:groupContext="shape">
				<title>Text block 10pt.61</title>
				<desc>Alarm Clear – Clear on alarm condition end or automatically w...</desc>
				<v:userDefs>
					<v:ud v:nameU="visVersion" v:val="VT0(15):26"/>
				</v:userDefs>
				<v:textBlock v:margins="rect(0,0,0,0)"/>
				<v:textRect cx="252" cy="293.25" width="487.95" height="39.6038"/>
				<rect x="0" y="252.75" width="504" height="81" class="st1"/>
				<rect x="0" y="252.75" width="504" height="81" class="st2"/>
				<text x="8.03" y="283.35" class="st3" v:langID="1033"><v:paragraph/><v:tabList/>Alarm Clear<tspan class="st4"> </tspan><tspan
							class="st4">–</tspan><tspan class="st4"> </tspan><tspan class="st4">Clear on alarm condition end or automatically when all alarm conditions have ended <v:lf/></tspan><tspan
							x="8.03" dy="1.2em" class="st4">and no further alarm conditions have occurred for yyy intervals </tspan><tspan
							class="st4">(</tspan><tspan class="st4">2</tspan><tspan class="st4">-</tspan><tspan class="st4">240</tspan><tspan
							class="st4">).</tspan><v:newlineChar/></text>			</g>
			<g id="group2-16" transform="translate(67.5,-103.5)" v:mID="2" v:groupContext="group">
				<v:userDefs>
					<v:ud v:nameU="visVersion" v:val="VT0(15):26"/>
				</v:userDefs>
				<title>X axis</title>
				<g id="shape3-17" v:mID="3" v:groupContext="shape">
					<title>Sheet.3</title>
					<path d="M0 333.75 L299.46 333.75" class="st5"/>
				</g>
				<g id="shape4-23" v:mID="4" v:groupContext="shape" transform="translate(0,18)">
					<title>Sheet.4</title>
					<desc>Intervals</desc>
					<v:textBlock v:margins="rect(4,4,4,4)" v:verticalAlign="0"/>
					<v:textRect cx="144" cy="324.75" width="288" height="18"/>
					<rect x="0" y="315.75" width="288" height="18" class="st1"/>
					<rect x="0" y="315.75" width="288" height="18" class="st2"/>
					<text x="122.94" y="330.55" class="st7" v:langID="1033"><v:paragraph v:horizAlign="1"/><v:tabList/>Intervals</text>				</g>
			</g>
			<g id="group5-27" transform="translate(-266.25,230.25) rotate(-90)" v:mID="5" v:groupContext="group">
				<v:userDefs>
					<v:ud v:nameU="visVersion" v:val="VT0(15):26"/>
				</v:userDefs>
				<title>Y axis</title>
				<g id="shape6-28" v:mID="6" v:groupContext="shape">
					<title>Sheet.6</title>
					<path d="M0 333.75 L141.96 333.75" class="st5"/>
				</g>
				<g id="shape7-33" v:mID="7" v:groupContext="shape" transform="translate(4.5,-4.5)">
					<title>Sheet.7</title>
					<desc>Alarm Clear</desc>
					<v:textBlock v:margins="rect(0,0,0,0)"/>
					<v:textRect cx="65.25" cy="324.75" width="130.5" height="18"/>
					<rect x="0" y="315.75" width="130.5" height="18" class="st1"/>
					<rect x="0" y="315.75" width="130.5" height="18" class="st2"/>
					<text x="36.76" y="321.15" class="st7" v:langID="1033"><v:paragraph v:horizAlign="1"/><v:tabList/>Alarm Clear<v:newlineChar/></text>				</g>
			</g>
			<g id="shape9-37" v:mID="9" v:groupContext="shape" transform="translate(67.5,-103.5)">
				<title>Graph  scale.35</title>
				<desc>32</desc>
				<v:custProps>
					<v:cp v:nameU="Divisions" v:lbl="Number of Divisions" v:type="1" v:format="2;4;5" v:langID="1033"
							v:val="VT4(5)"/>
					<v:cp v:nameU="Divisions" v:lbl="" v:prompt="" v:type="0" v:format="" v:sortKey="" v:invis="false"
							v:ask="false" v:langID="0" v:cal="0" v:val="VT4(5)"/>
				</v:custProps>
				<v:userDefs>
					<v:ud v:nameU="Div2" v:val="VT0(0):26"/>
					<v:ud v:nameU="Div4" v:val="VT0(0):26"/>
					<v:ud v:nameU="Div5" v:val="VT0(0):26"/>
					<v:ud v:nameU="visVersion" v:val="VT0(15):26"/>
					<v:ud v:nameU="Scale" v:val="VT0(1):26"/>
					<v:ud v:nameU="AntiScale" v:val="VT0(1):26"/>
				</v:userDefs>
				<v:textBlock v:margins="rect(2,2,2,2)"/>
				<v:textRect cx="45" cy="306.31" width="18.89" height="18.8805" transform="rotate(90)"/>
				<path d="M0 333.75 L45 333.75 L45 315.75" class="st8"/>
				<path d="M9 320.25 L9 333.75" class="st8"/>
				<path d="M18 320.25 L18 333.75" class="st8"/>
				<path d="M27 320.25 L27 333.75" class="st8"/>
				<path d="M36 320.25 L36 333.75" class="st8"/>
				<rect v:rectContext="textBkgnd" x="301.586" y="-52.2001" width="12.1641" height="14.4001" transform="rotate(90)"
						class="st9"/>
				<text x="301.59" y="-41.4" transform="rotate(90)" class="st7" v:langID="1033"><v:paragraph v:horizAlign="2"/><v:tabList/>32</text>			</g>
			<g id="shape10-46" v:mID="10" v:groupContext="shape" transform="translate(112.5,-103.5)">
				<title>Graph  scale.43</title>
				<desc>64</desc>
				<v:custProps>
					<v:cp v:nameU="Divisions" v:lbl="Number of Divisions" v:type="1" v:format="2;4;5" v:langID="1033"
							v:val="VT4(5)"/>
					<v:cp v:nameU="Divisions" v:lbl="" v:prompt="" v:type="0" v:format="" v:sortKey="" v:invis="false"
							v:ask="false" v:langID="0" v:cal="0" v:val="VT4(5)"/>
				</v:custProps>
				<v:userDefs>
					<v:ud v:nameU="Div2" v:val="VT0(0):26"/>
					<v:ud v:nameU="Div4" v:val="VT0(0):26"/>
					<v:ud v:nameU="Div5" v:val="VT0(0):26"/>
					<v:ud v:nameU="visVersion" v:val="VT0(15):26"/>
					<v:ud v:nameU="Scale" v:val="VT0(1):26"/>
					<v:ud v:nameU="AntiScale" v:val="VT0(1):26"/>
				</v:userDefs>
				<v:textBlock v:margins="rect(2,2,2,2)"/>
				<v:textRect cx="45" cy="306.31" width="18.89" height="18.8805" transform="rotate(90)"/>
				<path d="M0 333.75 L45 333.75 L45 315.75" class="st8"/>
				<path d="M9 320.25 L9 333.75" class="st8"/>
				<path d="M18 320.25 L18 333.75" class="st8"/>
				<path d="M27 320.25 L27 333.75" class="st8"/>
				<path d="M36 320.25 L36 333.75" class="st8"/>
				<rect v:rectContext="textBkgnd" x="301.586" y="-52.2001" width="12.1641" height="14.4001" transform="rotate(90)"
						class="st9"/>
				<text x="301.59" y="-41.4" transform="rotate(90)" class="st7" v:langID="1033"><v:paragraph v:horizAlign="2"/><v:tabList/>64</text>			</g>
			<g id="shape11-55" v:mID="11" v:groupContext="shape" transform="translate(157.5,-103.5)">
				<title>Graph  scale.44</title>
				<desc>96</desc>
				<v:custProps>
					<v:cp v:nameU="Divisions" v:lbl="Number of Divisions" v:type="1" v:format="2;4;5" v:langID="1033"
							v:val="VT4(5)"/>
					<v:cp v:nameU="Divisions" v:lbl="" v:prompt="" v:type="0" v:format="" v:sortKey="" v:invis="false"
							v:ask="false" v:langID="0" v:cal="0" v:val="VT4(5)"/>
				</v:custProps>
				<v:userDefs>
					<v:ud v:nameU="Div2" v:val="VT0(0):26"/>
					<v:ud v:nameU="Div4" v:val="VT0(0):26"/>
					<v:ud v:nameU="Div5" v:val="VT0(0):26"/>
					<v:ud v:nameU="visVersion" v:val="VT0(15):26"/>
					<v:ud v:nameU="Scale" v:val="VT0(1):26"/>
					<v:ud v:nameU="AntiScale" v:val="VT0(1):26"/>
				</v:userDefs>
				<v:textBlock v:margins="rect(2,2,2,2)"/>
				<v:textRect cx="45" cy="306.31" width="18.89" height="18.8805" transform="rotate(90)"/>
				<path d="M0 333.75 L45 333.75 L45 315.75" class="st8"/>
				<path d="M9 320.25 L9 333.75" class="st8"/>
				<path d="M18 320.25 L18 333.75" class="st8"/>
				<path d="M27 320.25 L27 333.75" class="st8"/>
				<path d="M36 320.25 L36 333.75" class="st8"/>
				<rect v:rectContext="textBkgnd" x="301.586" y="-52.2001" width="12.1641" height="14.4001" transform="rotate(90)"
						class="st9"/>
				<text x="301.59" y="-41.4" transform="rotate(90)" class="st7" v:langID="1033"><v:paragraph v:horizAlign="2"/><v:tabList/>96</text>			</g>
			<g id="shape12-64" v:mID="12" v:groupContext="shape" transform="translate(202.5,-103.5)">
				<title>Graph  scale.45</title>
				<desc>128</desc>
				<v:custProps>
					<v:cp v:nameU="Divisions" v:lbl="Number of Divisions" v:type="1" v:format="2;4;5" v:langID="1033"
							v:val="VT4(5)"/>
					<v:cp v:nameU="Divisions" v:lbl="" v:prompt="" v:type="0" v:format="" v:sortKey="" v:invis="false"
							v:ask="false" v:langID="0" v:cal="0" v:val="VT4(5)"/>
				</v:custProps>
				<v:userDefs>
					<v:ud v:nameU="Div2" v:val="VT0(0):26"/>
					<v:ud v:nameU="Div4" v:val="VT0(0):26"/>
					<v:ud v:nameU="Div5" v:val="VT0(0):26"/>
					<v:ud v:nameU="visVersion" v:val="VT0(15):26"/>
					<v:ud v:nameU="Scale" v:val="VT0(1):26"/>
					<v:ud v:nameU="AntiScale" v:val="VT0(1):26"/>
				</v:userDefs>
				<v:textBlock v:margins="rect(2,2,2,2)"/>
				<v:textRect cx="45" cy="303.269" width="24.97" height="24.9625" transform="rotate(90)"/>
				<path d="M0 333.75 L45 333.75 L45 315.75" class="st8"/>
				<path d="M9 320.25 L9 333.75" class="st8"/>
				<path d="M18 320.25 L18 333.75" class="st8"/>
				<path d="M27 320.25 L27 333.75" class="st8"/>
				<path d="M36 320.25 L36 333.75" class="st8"/>
				<rect v:rectContext="textBkgnd" x="295.504" y="-52.2001" width="18.2461" height="14.4001" transform="rotate(90)"
						class="st9"/>
				<text x="295.5" y="-41.4" transform="rotate(90)" class="st7" v:langID="1033"><v:paragraph v:horizAlign="2"/><v:tabList/>128</text>			</g>
			<g id="shape13-73" v:mID="13" v:groupContext="shape" transform="translate(247.5,-103.5)">
				<title>Graph  scale.46</title>
				<desc>160</desc>
				<v:custProps>
					<v:cp v:nameU="Divisions" v:lbl="Number of Divisions" v:type="1" v:format="2;4;5" v:langID="1033"
							v:val="VT4(5)"/>
					<v:cp v:nameU="Divisions" v:lbl="" v:prompt="" v:type="0" v:format="" v:sortKey="" v:invis="false"
							v:ask="false" v:langID="0" v:cal="0" v:val="VT4(5)"/>
				</v:custProps>
				<v:userDefs>
					<v:ud v:nameU="Div2" v:val="VT0(0):26"/>
					<v:ud v:nameU="Div4" v:val="VT0(0):26"/>
					<v:ud v:nameU="Div5" v:val="VT0(0):26"/>
					<v:ud v:nameU="visVersion" v:val="VT0(15):26"/>
					<v:ud v:nameU="Scale" v:val="VT0(1):26"/>
					<v:ud v:nameU="AntiScale" v:val="VT0(1):26"/>
				</v:userDefs>
				<v:textBlock v:margins="rect(2,2,2,2)"/>
				<v:textRect cx="45" cy="303.269" width="24.97" height="24.9625" transform="rotate(90)"/>
				<path d="M0 333.75 L45 333.75 L45 315.75" class="st8"/>
				<path d="M9 320.25 L9 333.75" class="st8"/>
				<path d="M18 320.25 L18 333.75" class="st8"/>
				<path d="M27 320.25 L27 333.75" class="st8"/>
				<path d="M36 320.25 L36 333.75" class="st8"/>
				<rect v:rectContext="textBkgnd" x="295.504" y="-52.2001" width="18.2461" height="14.4001" transform="rotate(90)"
						class="st9"/>
				<text x="295.5" y="-41.4" transform="rotate(90)" class="st7" v:langID="1033"><v:paragraph v:horizAlign="2"/><v:tabList/>160</text>			</g>
			<g id="shape14-82" v:mID="14" v:groupContext="shape" transform="translate(292.5,-103.5)">
				<title>Graph  scale.47</title>
				<desc>192</desc>
				<v:custProps>
					<v:cp v:nameU="Divisions" v:lbl="Number of Divisions" v:type="1" v:format="2;4;5" v:langID="1033"
							v:val="VT4(5)"/>
					<v:cp v:nameU="Divisions" v:lbl="" v:prompt="" v:type="0" v:format="" v:sortKey="" v:invis="false"
							v:ask="false" v:langID="0" v:cal="0" v:val="VT4(5)"/>
				</v:custProps>
				<v:userDefs>
					<v:ud v:nameU="Div2" v:val="VT0(0):26"/>
					<v:ud v:nameU="Div4" v:val="VT0(0):26"/>
					<v:ud v:nameU="Div5" v:val="VT0(0):26"/>
					<v:ud v:nameU="visVersion" v:val="VT0(15):26"/>
					<v:ud v:nameU="Scale" v:val="VT0(1):26"/>
					<v:ud v:nameU="AntiScale" v:val="VT0(1):26"/>
				</v:userDefs>
				<v:textBlock v:margins="rect(2,2,2,2)"/>
				<v:textRect cx="45" cy="303.269" width="24.97" height="24.9625" transform="rotate(90)"/>
				<path d="M0 333.75 L45 333.75 L45 315.75" class="st8"/>
				<path d="M9 320.25 L9 333.75" class="st8"/>
				<path d="M18 320.25 L18 333.75" class="st8"/>
				<path d="M27 320.25 L27 333.75" class="st8"/>
				<path d="M36 320.25 L36 333.75" class="st8"/>
				<rect v:rectContext="textBkgnd" x="295.504" y="-52.2001" width="18.2461" height="14.4001" transform="rotate(90)"
						class="st9"/>
				<text x="295.5" y="-41.4" transform="rotate(90)" class="st7" v:langID="1033"><v:paragraph v:horizAlign="2"/><v:tabList/>192</text>			</g>
			<g id="shape15-91" v:mID="15" v:groupContext="shape" transform="translate(337.5,-103.5)">
				<title>Graph  scale.48</title>
				<desc>240</desc>
				<v:custProps>
					<v:cp v:nameU="Divisions" v:lbl="Number of Divisions" v:type="1" v:format="2;4;5" v:langID="1033"
							v:val="VT4(5)"/>
					<v:cp v:nameU="Divisions" v:lbl="" v:prompt="" v:type="0" v:format="" v:sortKey="" v:invis="false"
							v:ask="false" v:langID="0" v:cal="0" v:val="VT4(4)"/>
				</v:custProps>
				<v:userDefs>
					<v:ud v:nameU="Div2" v:val="VT0(0):26"/>
					<v:ud v:nameU="Div4" v:val="VT0(0):26"/>
					<v:ud v:nameU="Div5" v:val="VT0(0):26"/>
					<v:ud v:nameU="visVersion" v:val="VT0(15):26"/>
					<v:ud v:nameU="Scale" v:val="VT0(1):26"/>
					<v:ud v:nameU="AntiScale" v:val="VT0(1):26"/>
				</v:userDefs>
				<v:textBlock v:margins="rect(2,2,2,2)"/>
				<v:textRect cx="36" cy="303.269" width="24.97" height="24.9625" transform="rotate(90)"/>
				<path d="M0 333.75 L36 333.75 L36 315.75" class="st8"/>
				<path d="M9 320.25 L9 333.75" class="st8"/>
				<path d="M18 320.25 L18 333.75" class="st8"/>
				<path d="M27 320.25 L27 333.75" class="st8"/>
				<rect v:rectContext="textBkgnd" x="295.504" y="-43.2001" width="18.2461" height="14.4001" transform="rotate(90)"
						class="st9"/>
				<text x="295.5" y="-32.4" transform="rotate(90)" class="st7" v:langID="1033"><v:paragraph v:horizAlign="2"/><v:tabList/>240</text>			</g>
			<g id="shape16-99" v:mID="16" v:groupContext="shape" transform="translate(67.5,-218.7)">
				<title>Graph line.55</title>
				<v:userDefs>
					<v:ud v:nameU="visVersion" v:val="VT0(15):26"/>
				</v:userDefs>
				<path d="M0 333.75 L22.5 333.75 A1.8 1.8 -180 0 0 22.5 330.15 L0 330.15 A1.8 1.8 -180 1 0 0 333.75 Z" class="st10"/>
			</g>
			<g id="shape18-101" v:mID="18" v:groupContext="shape" transform="translate(-241.95,194.25) rotate(-90)">
				<title>Graph line</title>
				<v:userDefs>
					<v:ud v:nameU="visVersion" v:val="VT0(15):26"/>
				</v:userDefs>
				<path d="M0 333.75 L81 333.75 A1.8 1.8 -180 0 0 81 330.15 L0 330.15 A1.8 1.8 -180 1 0 0 333.75 Z" class="st10"/>
			</g>
			<g id="group19-103" transform="translate(81,-211.5)" v:mID="19" v:groupContext="group">
				<v:userDefs>
					<v:ud v:nameU="visVersion" v:val="VT0(15):26"/>
				</v:userDefs>
				<title>Data point</title>
				<g id="shape20-104" v:mID="20" v:groupContext="shape">
					<title>Sheet.20</title>
					<path d="M0 324.75 A9 9 0 0 1 18 324.75 A9 9 0 1 1 0 324.75 Z" class="st11"/>
				</g>
				<g id="shape21-106" v:mID="21" v:groupContext="shape" transform="translate(2.7,-2.7)">
					<title>Sheet.21</title>
					<path d="M0 327.45 A6.3 6.3 0 0 1 12.6 327.45 A6.3 6.3 0 1 1 -0 327.45 Z" class="st12"/>
				</g>
				<g id="shape22-108" v:mID="22" v:groupContext="shape" transform="translate(18,0)">
					<title>Sheet.22</title>
					<rect x="0" y="315.75" width="20.88" height="18" class="st13"/>
				</g>
			</g>
			<g id="shape23-110" v:mID="23" v:groupContext="shape" transform="translate(105.75,-211.5)">
				<title>Text block 10pt.68</title>
				<desc>Clear after 16 Intervals</desc>
				<v:userDefs>
					<v:ud v:nameU="visVersion" v:val="VT0(15):26"/>
				</v:userDefs>
				<v:textBlock v:margins="rect(0,0,0,0)"/>
				<v:textRect cx="51.75" cy="324.75" width="108" height="36"/>
				<rect x="0" y="315.75" width="103.5" height="18" class="st14"/>
				<rect x="0" y="315.75" width="103.5" height="18" class="st2"/>
				<text x="5.48" y="327.75" class="st15" v:langID="1033"><v:paragraph v:horizAlign="1"/><v:tabList/>Clear after 16 Intervals</text>			</g>
			<g id="group31-114" transform="translate(58.0909,-252)" v:mID="31" v:groupContext="group">
				<v:userDefs>
					<v:ud v:nameU="visVersion" v:val="VT0(15):26"/>
				</v:userDefs>
				<title>Data point.76</title>
				<g id="shape32-115" v:mID="32" v:groupContext="shape">
					<title>Sheet.32</title>
					<path d="M0 324.75 A9 9 0 0 1 18 324.75 A9 9 0 1 1 0 324.75 Z" class="st11"/>
				</g>
				<g id="shape33-117" v:mID="33" v:groupContext="shape" transform="translate(2.7,-2.7)">
					<title>Sheet.33</title>
					<path d="M0 327.45 A6.3 6.3 0 0 1 12.6 327.45 A6.3 6.3 0 1 1 -0 327.45 Z" class="st12"/>
				</g>
				<g id="shape34-119" v:mID="34" v:groupContext="shape" transform="translate(18,0)">
					<title>Sheet.34</title>
					<rect x="0" y="315.75" width="20.88" height="18" class="st13"/>
				</g>
			</g>
			<g id="shape35-121" v:mID="35" v:groupContext="shape" transform="translate(70.1944,-252)">
				<title>Text block 10pt.80</title>
				<desc>Clear on Alarm End</desc>
				<v:userDefs>
					<v:ud v:nameU="visVersion" v:val="VT0(15):26"/>
				</v:userDefs>
				<v:textBlock v:margins="rect(0,0,0,0)"/>
				<v:textRect cx="45" cy="324.75" width="108" height="36"/>
				<rect x="0" y="315.75" width="90" height="18" class="st14"/>
				<rect x="0" y="315.75" width="90" height="18" class="st2"/>
				<text x="6.04" y="327.75" class="st15" v:langID="1033"><v:paragraph v:horizAlign="1"/><v:tabList/>Clear on Alarm End</text>			</g>
			<g id="shape36-125" v:mID="36" v:groupContext="shape" transform="translate(162,-297)">
				<title>Text block 12pt</title>
				<desc>Alarm Clear</desc>
				<v:userDefs>
					<v:ud v:nameU="visVersion" v:val="VT0(15):26"/>
				</v:userDefs>
				<v:textBlock v:margins="rect(0,0,0,0)"/>
				<v:textRect cx="54" cy="315.75" width="108" height="36"/>
				<rect x="0" y="297.75" width="108" height="36" class="st1"/>
				<rect x="0" y="297.75" width="108" height="36" class="st2"/>
				<text x="11.26" y="321.15" class="st16" v:langID="1033"><v:paragraph v:horizAlign="1"/><v:tabList/>Alarm Clear</text>			</g>
			<g id="shape39-129" v:mID="39" v:groupContext="shape" transform="translate(157.5,-281.298)">
				<title>Sheet.39</title>
				<desc>1 Interval = 15 Seconds</desc>
				<v:textBlock v:margins="rect(4,4,4,4)"/>
				<v:textRect cx="61.7021" cy="322.548" width="123.41" height="22.4037"/>
				<rect x="0" y="311.346" width="123.404" height="22.4037" class="st12"/>
				<text x="5.36" y="326.15" class="st17" v:langID="1033"><v:paragraph v:horizAlign="1"/><v:tabList/>1 Interval = 15 Seconds</text>			</g>
		</g>
	</g>
</svg>
