<?xml version="1.0" encoding="utf-8"?>
<!-- Generated by Microsoft Visio, SVG Export NetOccupy_Hierarchy_1.svg Page-1 -->
<svg xmlns="http://www.w3.org/2000/svg" xmlns:xlink="http://www.w3.org/1999/xlink" xmlns:ev="http://www.w3.org/2001/xml-events" xmlns:v="http://schemas.microsoft.com/visio/2003/SVGExtensions/" width="8.01in" height="8.01in" viewBox="0 0 576.72 576.72" xml:space="preserve" color-interpolation-filters="sRGB" class="st10">
	<v:documentProperties v:langID="1033" v:viewMarkup="false">
		<v:userDefs>
			<v:ud v:nameU="msvConvertTheme" />
			<v:ud v:nameU="DocShowPicture" v:prompt="" v:val="VT0(1):26" />
		</v:userDefs>
	</v:documentProperties>

	<style type="text/css">
	<![CDATA[
		.st1 {fill:#ffffff}
		.st2 {stroke:#000000;stroke-linecap:round;stroke-linejoin:round;stroke-width:0.72}
		.st3 {fill:#000000;font-family:Arial;font-size:1.00001em}
		.st4 {font-size:1em}
		.st5 {fill:#b5cb85}
		.st6 {fill:none;stroke:none;stroke-linecap:round;stroke-linejoin:round;stroke-width:0.72}
		.st7 {marker-end:url(#mrkr5-167);stroke:#000000;stroke-linecap:round;stroke-linejoin:round;stroke-width:0.72}
		.st8 {fill:#000000;fill-opacity:1;stroke:#000000;stroke-opacity:1;stroke-width:0.22222222222222}
		.st9 {fill:#ccc2d9}
		.st10 {fill:none;fill-rule:evenodd;font-size:12px;overflow:visible;stroke-linecap:square;stroke-miterlimit:3}
	]]>
	</style>

	<defs id="Markers">
		<g id="lend5">
			<path d="M 2 1 L 0 0 L 1.98117 -0.993387 C 1.67173 -0.364515 1.67301 0.372641 1.98465 1.00043 " style="stroke:none" />
		</g>
		<marker id="mrkr5-167" class="st8" v:arrowType="5" v:arrowSize="2" v:setback="7.875" refX="-7.875" orient="auto" markerUnits="strokeWidth" overflow="visible">
			<use xlink:href="#lend5" transform="scale(-4.5,-4.5) " />
		</marker>
	</defs>
	<g v:mID="0" v:index="1" v:groupContext="foregroundPage">
		<title>Page-1</title>
		<v:pageProperties v:drawingScale="1" v:pageScale="1" v:drawingUnits="0" v:shadowOffsetX="9" v:shadowOffsetY="-9" />
		<v:layer v:name="Connector" v:index="0" />
		<g id="group1-1" transform="translate(81.36,-522.36)" v:mID="1" v:groupContext="group">
			<v:custProps>
				<v:cp v:nameU="Department" v:lbl="Department" v:type="0" v:invis="false" v:ask="false" v:langID="1033" v:cal="0" v:val="VT4(Department)" />
				<v:cp v:nameU="Telephone" v:lbl="Telephone" v:type="0" v:invis="false" v:ask="false" v:langID="1033" v:cal="0" v:val="VT4(Telephone)" />
				<v:cp v:nameU="Name" v:lbl="Name" v:type="0" v:invis="false" v:ask="false" v:langID="1033" v:cal="0" v:val="VT4(Name)" />
				<v:cp v:nameU="Title" v:lbl="Title" v:type="0" v:invis="false" v:ask="false" v:langID="1033" v:cal="0" v:val="VT4(Title)" />
				<v:cp v:nameU="Email" v:lbl="E-mail" v:type="0" v:invis="false" v:ask="false" v:langID="1033" v:cal="0" v:val="VT4(E-mail)" />
				<v:cp v:nameU="Name" v:lbl="" v:prompt="" v:type="0" v:format="" v:sortKey="" v:invis="false" v:ask="false" v:langID="0" v:cal="0" v:val="VT4(ROOT)" />
			</v:custProps>
			<v:userDefs>
				<v:ud v:nameU="Solsh" v:prompt="" v:val="VT15({0BF98B35-200C-41D5-8A23-20EF77CBC94A}):41" />
				<v:ud v:nameU="ShapeType" v:prompt="" v:val="VT0(0):26" />
				<v:ud v:nameU="ShowPicture" v:prompt="" v:val="VT0(0):26" />
				<v:ud v:nameU="ShowSubordinates" v:prompt="" v:val="VT0(1):26" />
				<v:ud v:nameU="DocShowPicture" v:prompt="" v:val="VT0(1):26" />
				<v:ud v:nameU="Margin" v:prompt="" v:val="VT0(0.025):0" />
				<v:ud v:nameU="HasSubordinates" v:prompt="" v:val="VT0(0):26" />
				<v:ud v:nameU="IsHidingSubs" v:prompt="" v:val="VT0(0):5" />
				<v:ud v:nameU="ShowDivider" v:prompt="" v:val="VT0(0):26" />
				<v:ud v:nameU="ThisLayoutStyle" v:prompt="" v:val="VT0(0):26" />
				<v:ud v:nameU="HasPicture" v:prompt="" v:val="VT0(0):26" />
				<v:ud v:nameU="Width" v:prompt="" v:val="VT0(1.5):0" />
				<v:ud v:nameU="Height" v:prompt="" v:val="VT0(0.75):0" />
				<v:ud v:nameU="Prop" v:prompt="" />
				<v:ud v:nameU="PictureAspectRatio" v:prompt="" v:val="VT0(1):26" />
				<v:ud v:nameU="PictureID" v:prompt="" />
				<v:ud v:nameU="SetWidth" v:prompt="" />
				<v:ud v:nameU="SetHeight" v:prompt="" />
				<v:ud v:nameU="PositionID" v:prompt="" v:val="VT0(0):26" />
				<v:ud v:nameU="DeltaX" v:prompt="" v:val="VT0(0):26" />
				<v:ud v:nameU="DeltaY" v:prompt="" v:val="VT0(0):26" />
				<v:ud v:nameU="ParLocX" v:prompt="" v:val="VT0(0):26" />
				<v:ud v:nameU="ParLocY" v:prompt="" v:val="VT0(0):26" />
				<v:ud v:nameU="PageLoc" v:prompt="" v:val="VT0(0):26" />
				<v:ud v:nameU="ParLoc" v:prompt="" v:val="VT0(0):26" />
				<v:ud v:nameU="PictureAreaWidth" v:prompt="" v:val="VT0(0.43611111111111):0" />
				<v:ud v:nameU="PictureAreaHeight" v:prompt="" v:val="VT0(0.68611111111111):0" />
				<v:ud v:nameU="PictureAreaAspectRatio" v:prompt="" v:val="VT0(0.63562753036437):26" />
				<v:ud v:nameU="PictureWidth" v:prompt="" v:val="VT0(0.43611111111111):0" />
				<v:ud v:nameU="PictureHeight" v:prompt="" v:val="VT0(0.43611111111111):0" />
				<v:ud v:nameU="DividerOffset" v:prompt="" v:val="VT0(0.3750244913737):0" />
				<v:ud v:nameU="CalcTextLineHeight" v:prompt="" v:val="VT0(0.13333333333333):29" />
				<v:ud v:nameU="ExpandedForPicture" v:prompt="" v:val="VT0(0):26" />
				<v:ud v:nameU="Theme" v:prompt="" v:val="VT0(0):26" />
				<v:ud v:nameU="visVersion" v:prompt="" v:val="VT0(12):26" />
				<v:ud v:nameU="ThisLayoutStyle" v:prompt="" v:val="VT0(100):26" />
				<v:ud v:nameU="Width" v:prompt="" v:val="VT0(1.25):1" />
				<v:ud v:nameU="Height" v:prompt="" v:val="VT0(0.75):0" />
				<v:ud v:nameU="Prop" v:prompt="" v:val="VT4(Name)" />
				<v:ud v:nameU="PositionID" v:prompt="" v:val="VT4({0CB50BB2-E668-4D95-8E02-E7E2DEE865AF})" />
				<v:ud v:nameU="PictureAreaWidth" v:prompt="" v:val="VT0(0.35277777777778):0" />
				<v:ud v:nameU="PictureAreaAspectRatio" v:prompt="" v:val="VT0(0.51417004048583):26" />
				<v:ud v:nameU="PictureWidth" v:prompt="" v:val="VT0(0.35277777777778):0" />
				<v:ud v:nameU="PictureHeight" v:prompt="" v:val="VT0(0.35277777777778):0" />
				<v:ud v:nameU="DividerOffset" v:prompt="" v:val="VT0(0.27502576293945):0" />
				<v:ud v:nameU="CalcTextLineHeight" v:prompt="" v:val="VT0(0.2):29" />
			</v:userDefs>
			<title>Executive.183</title>
			<desc>ROOT</desc>
			<g id="shape1-2" v:mID="1" v:groupContext="groupContent">
				<v:textBlock v:margins="rect(0,0,0,0)" />
				<v:textRect cx="45" cy="549.72" width="85.5" height="27" />
				<path d="M0 576.72 L0 522.72 L90 522.72 L90 576.72 L0 576.72 Z" class="st1" />
				<path d="M0 576.72 L0 522.72 L90 522.72 L90 576.72 L0 576.72" class="st2" />
				<path d="M1.8 574.92 L1.8 524.52 L88.2 524.52 L88.2 574.92 L1.8 574.92" class="st2" />
				<text x="27.67" y="553.32" class="st3" v:langID="1033"><v:paragraph v:horizAlign="1" /><v:tabList />ROOT</text>			</g>
		</g>
		<g id="group6-7" transform="translate(0.36,-449.1)" v:mID="6" v:groupContext="group">
			<v:custProps>
				<v:cp v:nameU="Department" v:lbl="Department" v:type="0" v:invis="false" v:ask="false" v:langID="1033" v:cal="0" v:val="VT4(Department)" />
				<v:cp v:nameU="Telephone" v:lbl="Telephone" v:type="0" v:invis="false" v:ask="false" v:langID="1033" v:cal="0" v:val="VT4(Telephone)" />
				<v:cp v:nameU="Name" v:lbl="Name" v:type="0" v:invis="false" v:ask="false" v:langID="1033" v:cal="0" v:val="VT4(Name)" />
				<v:cp v:nameU="Title" v:lbl="Title" v:type="0" v:invis="false" v:ask="false" v:langID="1033" v:cal="0" v:val="VT4(Title)" />
				<v:cp v:nameU="Email" v:lbl="E-mail" v:type="0" v:invis="false" v:ask="false" v:langID="1033" v:cal="0" v:val="VT4(E-mail)" />
				<v:cp v:nameU="Name" v:lbl="" v:prompt="" v:type="0" v:format="" v:sortKey="" v:invis="false" v:ask="false" v:langID="0" v:cal="0" v:val="VT4(ccitt)" />
			</v:custProps>
			<v:userDefs>
				<v:ud v:nameU="Solsh" v:prompt="" v:val="VT15({0BF98B35-200C-41D5-8A23-20EF77CBC94A}):41" />
				<v:ud v:nameU="ShapeType" v:prompt="" v:val="VT0(1):26" />
				<v:ud v:nameU="ShowPicture" v:prompt="" v:val="VT0(0):26" />
				<v:ud v:nameU="ShowSubordinates" v:prompt="" v:val="VT0(1):26" />
				<v:ud v:nameU="DocShowPicture" v:prompt="" v:val="VT0(1):26" />
				<v:ud v:nameU="Margin" v:prompt="" v:val="VT0(0.025):0" />
				<v:ud v:nameU="HasSubordinates" v:prompt="" v:val="VT0(0):26" />
				<v:ud v:nameU="IsHidingSubs" v:prompt="" v:val="VT0(0):5" />
				<v:ud v:nameU="ShowDivider" v:prompt="" v:val="VT0(0):26" />
				<v:ud v:nameU="ThisLayoutStyle" v:prompt="" v:val="VT0(0):26" />
				<v:ud v:nameU="HasPicture" v:prompt="" v:val="VT0(0):26" />
				<v:ud v:nameU="Width" v:prompt="" v:val="VT0(1):0" />
				<v:ud v:nameU="Height" v:prompt="" v:val="VT0(0.5):0" />
				<v:ud v:nameU="Prop" v:prompt="" />
				<v:ud v:nameU="PictureAspectRatio" v:prompt="" v:val="VT0(1):26" />
				<v:ud v:nameU="PictureID" v:prompt="" />
				<v:ud v:nameU="SetWidth" v:prompt="" />
				<v:ud v:nameU="SetHeight" v:prompt="" />
				<v:ud v:nameU="PositionID" v:prompt="" v:val="VT0(0):26" />
				<v:ud v:nameU="DeltaX" v:prompt="" v:val="VT0(0):26" />
				<v:ud v:nameU="DeltaY" v:prompt="" v:val="VT0(0):26" />
				<v:ud v:nameU="ParLocX" v:prompt="" v:val="VT0(0):26" />
				<v:ud v:nameU="ParLocY" v:prompt="" v:val="VT0(0):26" />
				<v:ud v:nameU="PageLoc" v:prompt="" v:val="VT0(0):26" />
				<v:ud v:nameU="ParLoc" v:prompt="" v:val="VT0(0):26" />
				<v:ud v:nameU="PictureAreaWidth" v:prompt="" v:val="VT0(0.26944444444444):0" />
				<v:ud v:nameU="PictureAreaHeight" v:prompt="" v:val="VT0(0.43611111111111):0" />
				<v:ud v:nameU="PictureAreaAspectRatio" v:prompt="" v:val="VT0(0.61783439490446):26" />
				<v:ud v:nameU="PictureWidth" v:prompt="" v:val="VT0(0.26944444444444):0" />
				<v:ud v:nameU="PictureHeight" v:prompt="" v:val="VT0(0.26944444444444):0" />
				<v:ud v:nameU="DividerOffset" v:prompt="" v:val="VT0(0.2500244913737):0" />
				<v:ud v:nameU="CalcTextLineHeight" v:prompt="" v:val="VT0(0.13333333333333):29" />
				<v:ud v:nameU="ExpandedForPicture" v:prompt="" v:val="VT0(0):26" />
				<v:ud v:nameU="Theme" v:prompt="" v:val="VT0(0):26" />
				<v:ud v:nameU="visVersion" v:prompt="" v:val="VT0(12):26" />
				<v:ud v:nameU="Width" v:prompt="" v:val="VT0(1):0" />
				<v:ud v:nameU="Height" v:prompt="" v:val="VT0(0.5):0" />
				<v:ud v:nameU="Prop" v:prompt="" v:val="VT4(Name)" />
				<v:ud v:nameU="PositionID" v:prompt="" v:val="VT4({2E9F05A7-A72B-4A62-B665-D85F485C4912})" />
				<v:ud v:nameU="DividerOffset" v:prompt="" v:val="VT0(0.25002652587891):0" />
				<v:ud v:nameU="CalcTextLineHeight" v:prompt="" v:val="VT0(0.2):29" />
			</v:userDefs>
			<title>Manager.188</title>
			<desc>ccitt 0</desc>
			<g id="shape6-8" v:mID="6" v:groupContext="groupContent">
				<v:textBlock v:margins="rect(0,0,0,0)" />
				<v:textRect cx="36" cy="558.72" width="68.4" height="18" />
				<path d="M0 576.72 L0 540.72 L72 540.72 L72 576.72 L0 576.72 Z" class="st1" />
				<path d="M0 576.72 L0 540.72 L72 540.72 L72 576.72 L0 576.72" class="st2" />
				<path d="M1.8 574.92 L1.8 542.52 L70.2 542.52 L70.2 574.92 L1.8 574.92" class="st2" />
				<text x="25.33" y="555.12" class="st3" v:langID="1033"><v:paragraph v:horizAlign="1" /><v:tabList />ccitt<v:newlineChar /><tspan x="32.66" dy="1.2em" class="st4">0</tspan></text>			</g>
		</g>
		<g id="group12-14" transform="translate(90.36,-449.1)" v:mID="12" v:groupContext="group">
			<v:custProps>
				<v:cp v:nameU="Department" v:lbl="Department" v:type="0" v:invis="false" v:ask="false" v:langID="1033" v:cal="0" v:val="VT4(Department)" />
				<v:cp v:nameU="Telephone" v:lbl="Telephone" v:type="0" v:invis="false" v:ask="false" v:langID="1033" v:cal="0" v:val="VT4(Telephone)" />
				<v:cp v:nameU="Name" v:lbl="Name" v:type="0" v:invis="false" v:ask="false" v:langID="1033" v:cal="0" v:val="VT4(Name)" />
				<v:cp v:nameU="Title" v:lbl="Title" v:type="0" v:invis="false" v:ask="false" v:langID="1033" v:cal="0" v:val="VT4(Title)" />
				<v:cp v:nameU="Email" v:lbl="E-mail" v:type="0" v:invis="false" v:ask="false" v:langID="1033" v:cal="0" v:val="VT4(E-mail)" />
				<v:cp v:nameU="Name" v:lbl="" v:prompt="" v:type="0" v:format="" v:sortKey="" v:invis="false" v:ask="false" v:langID="0" v:cal="0" v:val="VT4(iso)" />
			</v:custProps>
			<v:userDefs>
				<v:ud v:nameU="Solsh" v:prompt="" v:val="VT15({0BF98B35-200C-41D5-8A23-20EF77CBC94A}):41" />
				<v:ud v:nameU="ShapeType" v:prompt="" v:val="VT0(1):26" />
				<v:ud v:nameU="ShowPicture" v:prompt="" v:val="VT0(0):26" />
				<v:ud v:nameU="ShowSubordinates" v:prompt="" v:val="VT0(1):26" />
				<v:ud v:nameU="DocShowPicture" v:prompt="" v:val="VT0(1):26" />
				<v:ud v:nameU="Margin" v:prompt="" v:val="VT0(0.025):0" />
				<v:ud v:nameU="HasSubordinates" v:prompt="" v:val="VT0(0):26" />
				<v:ud v:nameU="IsHidingSubs" v:prompt="" v:val="VT0(0):5" />
				<v:ud v:nameU="ShowDivider" v:prompt="" v:val="VT0(0):26" />
				<v:ud v:nameU="ThisLayoutStyle" v:prompt="" v:val="VT0(0):26" />
				<v:ud v:nameU="HasPicture" v:prompt="" v:val="VT0(0):26" />
				<v:ud v:nameU="Width" v:prompt="" v:val="VT0(1):0" />
				<v:ud v:nameU="Height" v:prompt="" v:val="VT0(0.5):0" />
				<v:ud v:nameU="Prop" v:prompt="" />
				<v:ud v:nameU="PictureAspectRatio" v:prompt="" v:val="VT0(1):26" />
				<v:ud v:nameU="PictureID" v:prompt="" />
				<v:ud v:nameU="SetWidth" v:prompt="" />
				<v:ud v:nameU="SetHeight" v:prompt="" />
				<v:ud v:nameU="PositionID" v:prompt="" v:val="VT0(0):26" />
				<v:ud v:nameU="DeltaX" v:prompt="" v:val="VT0(0):26" />
				<v:ud v:nameU="DeltaY" v:prompt="" v:val="VT0(0):26" />
				<v:ud v:nameU="ParLocX" v:prompt="" v:val="VT0(0):26" />
				<v:ud v:nameU="ParLocY" v:prompt="" v:val="VT0(0):26" />
				<v:ud v:nameU="PageLoc" v:prompt="" v:val="VT0(0):26" />
				<v:ud v:nameU="ParLoc" v:prompt="" v:val="VT0(0):26" />
				<v:ud v:nameU="PictureAreaWidth" v:prompt="" v:val="VT0(0.26944444444444):0" />
				<v:ud v:nameU="PictureAreaHeight" v:prompt="" v:val="VT0(0.43611111111111):0" />
				<v:ud v:nameU="PictureAreaAspectRatio" v:prompt="" v:val="VT0(0.61783439490446):26" />
				<v:ud v:nameU="PictureWidth" v:prompt="" v:val="VT0(0.26944444444444):0" />
				<v:ud v:nameU="PictureHeight" v:prompt="" v:val="VT0(0.26944444444444):0" />
				<v:ud v:nameU="DividerOffset" v:prompt="" v:val="VT0(0.2500244913737):0" />
				<v:ud v:nameU="CalcTextLineHeight" v:prompt="" v:val="VT0(0.13333333333333):29" />
				<v:ud v:nameU="ExpandedForPicture" v:prompt="" v:val="VT0(0):26" />
				<v:ud v:nameU="Theme" v:prompt="" v:val="VT0(0):26" />
				<v:ud v:nameU="visVersion" v:prompt="" v:val="VT0(12):26" />
				<v:ud v:nameU="ThisLayoutStyle" v:prompt="" v:val="VT0(100):26" />
				<v:ud v:nameU="Width" v:prompt="" v:val="VT0(1):0" />
				<v:ud v:nameU="Height" v:prompt="" v:val="VT0(0.5):0" />
				<v:ud v:nameU="Prop" v:prompt="" v:val="VT4(Name)" />
				<v:ud v:nameU="PositionID" v:prompt="" v:val="VT4({736C8AFA-A039-46F6-B4FA-1E5FD311B03B})" />
				<v:ud v:nameU="DividerOffset" v:prompt="" v:val="VT0(0.25002652587891):0" />
				<v:ud v:nameU="CalcTextLineHeight" v:prompt="" v:val="VT0(0.2):29" />
			</v:userDefs>
			<title>Manager.194</title>
			<desc>iso 1</desc>
			<g id="shape12-15" v:mID="12" v:groupContext="groupContent">
				<v:textBlock v:margins="rect(0,0,0,0)" />
				<v:textRect cx="36" cy="558.72" width="68.4" height="18" />
				<path d="M0 576.72 L0 540.72 L72 540.72 L72 576.72 L0 576.72 Z" class="st5" />
				<path d="M0 576.72 L0 540.72 L72 540.72 L72 576.72 L0 576.72" class="st2" />
				<path d="M1.8 574.92 L1.8 542.52 L70.2 542.52 L70.2 574.92 L1.8 574.92" class="st2" />
				<text x="28.33" y="555.12" class="st3" v:langID="1033"><v:paragraph v:horizAlign="1" /><v:tabList />iso<v:newlineChar /><tspan x="32.66" dy="1.2em" class="st4">1</tspan></text>			</g>
		</g>
		<g id="group18-21" transform="translate(180.36,-449.1)" v:mID="18" v:groupContext="group">
			<v:custProps>
				<v:cp v:nameU="Department" v:lbl="Department" v:type="0" v:invis="false" v:ask="false" v:langID="1033" v:cal="0" v:val="VT4(Department)" />
				<v:cp v:nameU="Telephone" v:lbl="Telephone" v:type="0" v:invis="false" v:ask="false" v:langID="1033" v:cal="0" v:val="VT4(Telephone)" />
				<v:cp v:nameU="Name" v:lbl="Name" v:type="0" v:invis="false" v:ask="false" v:langID="1033" v:cal="0" v:val="VT4(Name)" />
				<v:cp v:nameU="Title" v:lbl="Title" v:type="0" v:invis="false" v:ask="false" v:langID="1033" v:cal="0" v:val="VT4(Title)" />
				<v:cp v:nameU="Email" v:lbl="E-mail" v:type="0" v:invis="false" v:ask="false" v:langID="1033" v:cal="0" v:val="VT4(E-mail)" />
				<v:cp v:nameU="Name" v:lbl="" v:prompt="" v:type="0" v:format="" v:sortKey="" v:invis="false" v:ask="false" v:langID="0" v:cal="0" v:val="VT4(joint-iso-ccitt)" />
			</v:custProps>
			<v:userDefs>
				<v:ud v:nameU="Solsh" v:prompt="" v:val="VT15({0BF98B35-200C-41D5-8A23-20EF77CBC94A}):41" />
				<v:ud v:nameU="ShapeType" v:prompt="" v:val="VT0(1):26" />
				<v:ud v:nameU="ShowPicture" v:prompt="" v:val="VT0(0):26" />
				<v:ud v:nameU="ShowSubordinates" v:prompt="" v:val="VT0(1):26" />
				<v:ud v:nameU="DocShowPicture" v:prompt="" v:val="VT0(1):26" />
				<v:ud v:nameU="Margin" v:prompt="" v:val="VT0(0.025):0" />
				<v:ud v:nameU="HasSubordinates" v:prompt="" v:val="VT0(0):26" />
				<v:ud v:nameU="IsHidingSubs" v:prompt="" v:val="VT0(0):5" />
				<v:ud v:nameU="ShowDivider" v:prompt="" v:val="VT0(0):26" />
				<v:ud v:nameU="ThisLayoutStyle" v:prompt="" v:val="VT0(0):26" />
				<v:ud v:nameU="HasPicture" v:prompt="" v:val="VT0(0):26" />
				<v:ud v:nameU="Width" v:prompt="" v:val="VT0(1):0" />
				<v:ud v:nameU="Height" v:prompt="" v:val="VT0(0.5):0" />
				<v:ud v:nameU="Prop" v:prompt="" />
				<v:ud v:nameU="PictureAspectRatio" v:prompt="" v:val="VT0(1):26" />
				<v:ud v:nameU="PictureID" v:prompt="" />
				<v:ud v:nameU="SetWidth" v:prompt="" />
				<v:ud v:nameU="SetHeight" v:prompt="" />
				<v:ud v:nameU="PositionID" v:prompt="" v:val="VT0(0):26" />
				<v:ud v:nameU="DeltaX" v:prompt="" v:val="VT0(0):26" />
				<v:ud v:nameU="DeltaY" v:prompt="" v:val="VT0(0):26" />
				<v:ud v:nameU="ParLocX" v:prompt="" v:val="VT0(0):26" />
				<v:ud v:nameU="ParLocY" v:prompt="" v:val="VT0(0):26" />
				<v:ud v:nameU="PageLoc" v:prompt="" v:val="VT0(0):26" />
				<v:ud v:nameU="ParLoc" v:prompt="" v:val="VT0(0):26" />
				<v:ud v:nameU="PictureAreaWidth" v:prompt="" v:val="VT0(0.26944444444444):0" />
				<v:ud v:nameU="PictureAreaHeight" v:prompt="" v:val="VT0(0.43611111111111):0" />
				<v:ud v:nameU="PictureAreaAspectRatio" v:prompt="" v:val="VT0(0.61783439490446):26" />
				<v:ud v:nameU="PictureWidth" v:prompt="" v:val="VT0(0.26944444444444):0" />
				<v:ud v:nameU="PictureHeight" v:prompt="" v:val="VT0(0.26944444444444):0" />
				<v:ud v:nameU="DividerOffset" v:prompt="" v:val="VT0(0.2500244913737):0" />
				<v:ud v:nameU="CalcTextLineHeight" v:prompt="" v:val="VT0(0.13333333333333):29" />
				<v:ud v:nameU="ExpandedForPicture" v:prompt="" v:val="VT0(0):26" />
				<v:ud v:nameU="Theme" v:prompt="" v:val="VT0(0):26" />
				<v:ud v:nameU="visVersion" v:prompt="" v:val="VT0(12):26" />
				<v:ud v:nameU="Width" v:prompt="" v:val="VT0(1.0625):1" />
				<v:ud v:nameU="Height" v:prompt="" v:val="VT0(0.5):0" />
				<v:ud v:nameU="Prop" v:prompt="" v:val="VT4(Name)" />
				<v:ud v:nameU="PositionID" v:prompt="" v:val="VT4({2E15CA8B-CE4A-4BCF-850B-0EB201F1FD4A})" />
				<v:ud v:nameU="PictureAreaWidth" v:prompt="" v:val="VT0(0.29027777777778):0" />
				<v:ud v:nameU="PictureAreaAspectRatio" v:prompt="" v:val="VT0(0.6656050955414):26" />
				<v:ud v:nameU="PictureWidth" v:prompt="" v:val="VT0(0.29027777777778):0" />
				<v:ud v:nameU="PictureHeight" v:prompt="" v:val="VT0(0.29027777777778):0" />
				<v:ud v:nameU="DividerOffset" v:prompt="" v:val="VT0(0.25002652587891):0" />
				<v:ud v:nameU="CalcTextLineHeight" v:prompt="" v:val="VT0(0.2):29" />
			</v:userDefs>
			<title>Manager.200</title>
			<desc>joint-iso-ccitt 2</desc>
			<g id="shape18-22" v:mID="18" v:groupContext="groupContent">
				<v:textBlock v:margins="rect(0,0,0,0)" />
				<v:textRect cx="38.25" cy="558.72" width="72.68" height="18" />
				<path d="M0 576.72 L0 540.72 L76.5 540.72 L76.5 576.72 L0 576.72 Z" class="st1" />
				<path d="M0 576.72 L0 540.72 L76.5 540.72 L76.5 576.72 L0 576.72" class="st2" />
				<path d="M1.8 574.92 L1.8 542.52 L74.7 542.52 L74.7 574.92 L1.8 574.92" class="st2" />
				<text x="4.91" y="555.12" class="st3" v:langID="1033"><v:paragraph v:horizAlign="1" /><v:tabList />joint-iso-ccitt<v:newlineChar /><tspan x="34.91" dy="1.2em" class="st4">2</tspan></text>			</g>
		</g>
		<g id="group24-28" transform="translate(36.36,-377.1)" v:mID="24" v:groupContext="group">
			<v:custProps>
				<v:cp v:nameU="Department" v:lbl="Department" v:type="0" v:invis="false" v:ask="false" v:langID="1033" v:cal="0" v:val="VT4(Department)" />
				<v:cp v:nameU="Telephone" v:lbl="Telephone" v:type="0" v:invis="false" v:ask="false" v:langID="1033" v:cal="0" v:val="VT4(Telephone)" />
				<v:cp v:nameU="Name" v:lbl="Name" v:type="0" v:invis="false" v:ask="false" v:langID="1033" v:cal="0" v:val="VT4(Name)" />
				<v:cp v:nameU="Title" v:lbl="Title" v:type="0" v:invis="false" v:ask="false" v:langID="1033" v:cal="0" v:val="VT4(Title)" />
				<v:cp v:nameU="Email" v:lbl="E-mail" v:type="0" v:invis="false" v:ask="false" v:langID="1033" v:cal="0" v:val="VT4(E-mail)" />
				<v:cp v:nameU="Name" v:lbl="" v:prompt="" v:type="0" v:format="" v:sortKey="" v:invis="false" v:ask="false" v:langID="0" v:cal="0" v:val="VT4(standard)" />
			</v:custProps>
			<v:userDefs>
				<v:ud v:nameU="Solsh" v:prompt="" v:val="VT15({0BF98B35-200C-41D5-8A23-20EF77CBC94A}):41" />
				<v:ud v:nameU="ShapeType" v:prompt="" v:val="VT0(1):26" />
				<v:ud v:nameU="ShowPicture" v:prompt="" v:val="VT0(0):26" />
				<v:ud v:nameU="ShowSubordinates" v:prompt="" v:val="VT0(1):26" />
				<v:ud v:nameU="DocShowPicture" v:prompt="" v:val="VT0(1):26" />
				<v:ud v:nameU="Margin" v:prompt="" v:val="VT0(0.025):0" />
				<v:ud v:nameU="HasSubordinates" v:prompt="" v:val="VT0(0):26" />
				<v:ud v:nameU="IsHidingSubs" v:prompt="" v:val="VT0(0):5" />
				<v:ud v:nameU="ShowDivider" v:prompt="" v:val="VT0(0):26" />
				<v:ud v:nameU="ThisLayoutStyle" v:prompt="" v:val="VT0(0):26" />
				<v:ud v:nameU="HasPicture" v:prompt="" v:val="VT0(0):26" />
				<v:ud v:nameU="Width" v:prompt="" v:val="VT0(1):0" />
				<v:ud v:nameU="Height" v:prompt="" v:val="VT0(0.5):0" />
				<v:ud v:nameU="Prop" v:prompt="" />
				<v:ud v:nameU="PictureAspectRatio" v:prompt="" v:val="VT0(1):26" />
				<v:ud v:nameU="PictureID" v:prompt="" />
				<v:ud v:nameU="SetWidth" v:prompt="" />
				<v:ud v:nameU="SetHeight" v:prompt="" />
				<v:ud v:nameU="PositionID" v:prompt="" v:val="VT0(0):26" />
				<v:ud v:nameU="DeltaX" v:prompt="" v:val="VT0(0):26" />
				<v:ud v:nameU="DeltaY" v:prompt="" v:val="VT0(0):26" />
				<v:ud v:nameU="ParLocX" v:prompt="" v:val="VT0(0):26" />
				<v:ud v:nameU="ParLocY" v:prompt="" v:val="VT0(0):26" />
				<v:ud v:nameU="PageLoc" v:prompt="" v:val="VT0(0):26" />
				<v:ud v:nameU="ParLoc" v:prompt="" v:val="VT0(0):26" />
				<v:ud v:nameU="PictureAreaWidth" v:prompt="" v:val="VT0(0.26944444444444):0" />
				<v:ud v:nameU="PictureAreaHeight" v:prompt="" v:val="VT0(0.43611111111111):0" />
				<v:ud v:nameU="PictureAreaAspectRatio" v:prompt="" v:val="VT0(0.61783439490446):26" />
				<v:ud v:nameU="PictureWidth" v:prompt="" v:val="VT0(0.26944444444444):0" />
				<v:ud v:nameU="PictureHeight" v:prompt="" v:val="VT0(0.26944444444444):0" />
				<v:ud v:nameU="DividerOffset" v:prompt="" v:val="VT0(0.2500244913737):0" />
				<v:ud v:nameU="CalcTextLineHeight" v:prompt="" v:val="VT0(0.13333333333333):29" />
				<v:ud v:nameU="ExpandedForPicture" v:prompt="" v:val="VT0(0):26" />
				<v:ud v:nameU="Theme" v:prompt="" v:val="VT0(0):26" />
				<v:ud v:nameU="visVersion" v:prompt="" v:val="VT0(12):26" />
				<v:ud v:nameU="ThisLayoutStyle" v:prompt="" v:val="VT0(100):26" />
				<v:ud v:nameU="Width" v:prompt="" v:val="VT0(1):0" />
				<v:ud v:nameU="Height" v:prompt="" v:val="VT0(0.5):0" />
				<v:ud v:nameU="Prop" v:prompt="" v:val="VT4(Name)" />
				<v:ud v:nameU="PositionID" v:prompt="" v:val="VT4({B102D137-5B7F-49FA-B20E-A4570637829B})" />
				<v:ud v:nameU="DividerOffset" v:prompt="" v:val="VT0(0.25002652587891):0" />
				<v:ud v:nameU="CalcTextLineHeight" v:prompt="" v:val="VT0(0.2):29" />
			</v:userDefs>
			<title>Manager.206</title>
			<desc>standard 0</desc>
			<g id="shape24-29" v:mID="24" v:groupContext="groupContent">
				<v:textBlock v:margins="rect(0,0,0,0)" />
				<v:textRect cx="36" cy="558.72" width="68.4" height="18" />
				<path d="M0 576.72 L0 540.72 L72 540.72 L72 576.72 L0 576.72 Z" class="st1" />
				<path d="M0 576.72 L0 540.72 L72 540.72 L72 576.72 L0 576.72" class="st2" />
				<path d="M1.8 574.92 L1.8 542.52 L70.2 542.52 L70.2 574.92 L1.8 574.92" class="st2" />
				<text x="12.65" y="555.12" class="st3" v:langID="1033"><v:paragraph v:horizAlign="1" /><v:tabList />standard<v:newlineChar /><tspan x="32.66" dy="1.2em" class="st4">0</tspan></text>			</g>
		</g>
		<g id="group30-35" transform="translate(126.36,-377.1)" v:mID="30" v:groupContext="group">
			<v:custProps>
				<v:cp v:nameU="Department" v:lbl="Department" v:type="0" v:invis="false" v:ask="false" v:langID="1033" v:cal="0" v:val="VT4(Department)" />
				<v:cp v:nameU="Telephone" v:lbl="Telephone" v:type="0" v:invis="false" v:ask="false" v:langID="1033" v:cal="0" v:val="VT4(Telephone)" />
				<v:cp v:nameU="Name" v:lbl="Name" v:type="0" v:invis="false" v:ask="false" v:langID="1033" v:cal="0" v:val="VT4(Name)" />
				<v:cp v:nameU="Title" v:lbl="Title" v:type="0" v:invis="false" v:ask="false" v:langID="1033" v:cal="0" v:val="VT4(Title)" />
				<v:cp v:nameU="Email" v:lbl="E-mail" v:type="0" v:invis="false" v:ask="false" v:langID="1033" v:cal="0" v:val="VT4(E-mail)" />
				<v:cp v:nameU="Name" v:lbl="" v:prompt="" v:type="0" v:format="" v:sortKey="" v:invis="false" v:ask="false" v:langID="0" v:cal="0" v:val="VT4(identified organization)" />
			</v:custProps>
			<v:userDefs>
				<v:ud v:nameU="Solsh" v:prompt="" v:val="VT15({0BF98B35-200C-41D5-8A23-20EF77CBC94A}):41" />
				<v:ud v:nameU="ShapeType" v:prompt="" v:val="VT0(1):26" />
				<v:ud v:nameU="ShowPicture" v:prompt="" v:val="VT0(0):26" />
				<v:ud v:nameU="ShowSubordinates" v:prompt="" v:val="VT0(1):26" />
				<v:ud v:nameU="DocShowPicture" v:prompt="" v:val="VT0(1):26" />
				<v:ud v:nameU="Margin" v:prompt="" v:val="VT0(0.025):0" />
				<v:ud v:nameU="HasSubordinates" v:prompt="" v:val="VT0(0):26" />
				<v:ud v:nameU="IsHidingSubs" v:prompt="" v:val="VT0(0):5" />
				<v:ud v:nameU="ShowDivider" v:prompt="" v:val="VT0(0):26" />
				<v:ud v:nameU="ThisLayoutStyle" v:prompt="" v:val="VT0(0):26" />
				<v:ud v:nameU="HasPicture" v:prompt="" v:val="VT0(0):26" />
				<v:ud v:nameU="Width" v:prompt="" v:val="VT0(1):0" />
				<v:ud v:nameU="Height" v:prompt="" v:val="VT0(0.5):0" />
				<v:ud v:nameU="Prop" v:prompt="" />
				<v:ud v:nameU="PictureAspectRatio" v:prompt="" v:val="VT0(1):26" />
				<v:ud v:nameU="PictureID" v:prompt="" />
				<v:ud v:nameU="SetWidth" v:prompt="" />
				<v:ud v:nameU="SetHeight" v:prompt="" />
				<v:ud v:nameU="PositionID" v:prompt="" v:val="VT0(0):26" />
				<v:ud v:nameU="DeltaX" v:prompt="" v:val="VT0(0):26" />
				<v:ud v:nameU="DeltaY" v:prompt="" v:val="VT0(0):26" />
				<v:ud v:nameU="ParLocX" v:prompt="" v:val="VT0(0):26" />
				<v:ud v:nameU="ParLocY" v:prompt="" v:val="VT0(0):26" />
				<v:ud v:nameU="PageLoc" v:prompt="" v:val="VT0(0):26" />
				<v:ud v:nameU="ParLoc" v:prompt="" v:val="VT0(0):26" />
				<v:ud v:nameU="PictureAreaWidth" v:prompt="" v:val="VT0(0.26944444444444):0" />
				<v:ud v:nameU="PictureAreaHeight" v:prompt="" v:val="VT0(0.43611111111111):0" />
				<v:ud v:nameU="PictureAreaAspectRatio" v:prompt="" v:val="VT0(0.61783439490446):26" />
				<v:ud v:nameU="PictureWidth" v:prompt="" v:val="VT0(0.26944444444444):0" />
				<v:ud v:nameU="PictureHeight" v:prompt="" v:val="VT0(0.26944444444444):0" />
				<v:ud v:nameU="DividerOffset" v:prompt="" v:val="VT0(0.2500244913737):0" />
				<v:ud v:nameU="CalcTextLineHeight" v:prompt="" v:val="VT0(0.13333333333333):29" />
				<v:ud v:nameU="ExpandedForPicture" v:prompt="" v:val="VT0(0):26" />
				<v:ud v:nameU="Theme" v:prompt="" v:val="VT0(0):26" />
				<v:ud v:nameU="visVersion" v:prompt="" v:val="VT0(12):26" />
				<v:ud v:nameU="Width" v:prompt="" v:val="VT0(2):1" />
				<v:ud v:nameU="Height" v:prompt="" v:val="VT0(0.5):0" />
				<v:ud v:nameU="Prop" v:prompt="" v:val="VT4(Name)" />
				<v:ud v:nameU="PositionID" v:prompt="" v:val="VT4({61504D14-1AC5-4FB0-9D59-BB3F5D7536FA})" />
				<v:ud v:nameU="PictureAreaWidth" v:prompt="" v:val="VT0(0.60277777777778):0" />
				<v:ud v:nameU="PictureAreaAspectRatio" v:prompt="" v:val="VT0(1.3821656050955):26" />
				<v:ud v:nameU="PictureWidth" v:prompt="" v:val="VT0(0.43611111111111):0" />
				<v:ud v:nameU="PictureHeight" v:prompt="" v:val="VT0(0.43611111111111):0" />
				<v:ud v:nameU="DividerOffset" v:prompt="" v:val="VT0(0.25002652587891):0" />
				<v:ud v:nameU="CalcTextLineHeight" v:prompt="" v:val="VT0(0.2):29" />
			</v:userDefs>
			<title>Manager.212</title>
			<desc>identified organization 3</desc>
			<g id="shape30-36" v:mID="30" v:groupContext="groupContent">
				<v:textBlock v:margins="rect(0,0,0,0)" />
				<v:textRect cx="72" cy="558.72" width="136.8" height="18" />
				<path d="M0 576.72 L0 540.72 L144 540.72 L144 576.72 L0 576.72 Z" class="st5" />
				<path d="M0 576.72 L0 540.72 L144 540.72 L144 576.72 L0 576.72" class="st2" />
				<path d="M1.8 574.92 L1.8 542.52 L142.2 542.52 L142.2 574.92 L1.8 574.92" class="st2" />
				<text x="13.63" y="555.12" class="st3" v:langID="1033"><v:paragraph v:horizAlign="1" /><v:tabList />identified organization<v:newlineChar /><tspan x="68.66" dy="1.2em" class="st4">3</tspan></text>			</g>
		</g>
		<g id="group36-42" transform="translate(162.36,-323.235)" v:mID="36" v:groupContext="group">
			<v:custProps>
				<v:cp v:nameU="Department" v:lbl="Department" v:type="0" v:invis="false" v:ask="false" v:langID="1033" v:cal="0" v:val="VT4(Department)" />
				<v:cp v:nameU="Telephone" v:lbl="Telephone" v:type="0" v:invis="false" v:ask="false" v:langID="1033" v:cal="0" v:val="VT4(Telephone)" />
				<v:cp v:nameU="Name" v:lbl="Name" v:type="0" v:invis="false" v:ask="false" v:langID="1033" v:cal="0" v:val="VT4(Name)" />
				<v:cp v:nameU="Title" v:lbl="Title" v:type="0" v:invis="false" v:ask="false" v:langID="1033" v:cal="0" v:val="VT4(Title)" />
				<v:cp v:nameU="Email" v:lbl="E-mail" v:type="0" v:invis="false" v:ask="false" v:langID="1033" v:cal="0" v:val="VT4(E-mail)" />
				<v:cp v:nameU="Name" v:lbl="" v:prompt="" v:type="0" v:format="" v:sortKey="" v:invis="false" v:ask="false" v:langID="0" v:cal="0" v:val="VT4(dod)" />
			</v:custProps>
			<v:userDefs>
				<v:ud v:nameU="Solsh" v:prompt="" v:val="VT15({0BF98B35-200C-41D5-8A23-20EF77CBC94A}):41" />
				<v:ud v:nameU="ShapeType" v:prompt="" v:val="VT0(1):26" />
				<v:ud v:nameU="ShowPicture" v:prompt="" v:val="VT0(0):26" />
				<v:ud v:nameU="ShowSubordinates" v:prompt="" v:val="VT0(1):26" />
				<v:ud v:nameU="DocShowPicture" v:prompt="" v:val="VT0(1):26" />
				<v:ud v:nameU="Margin" v:prompt="" v:val="VT0(0.025):0" />
				<v:ud v:nameU="HasSubordinates" v:prompt="" v:val="VT0(0):26" />
				<v:ud v:nameU="IsHidingSubs" v:prompt="" v:val="VT0(0):5" />
				<v:ud v:nameU="ShowDivider" v:prompt="" v:val="VT0(0):26" />
				<v:ud v:nameU="ThisLayoutStyle" v:prompt="" v:val="VT0(0):26" />
				<v:ud v:nameU="HasPicture" v:prompt="" v:val="VT0(0):26" />
				<v:ud v:nameU="Width" v:prompt="" v:val="VT0(1):0" />
				<v:ud v:nameU="Height" v:prompt="" v:val="VT0(0.5):0" />
				<v:ud v:nameU="Prop" v:prompt="" />
				<v:ud v:nameU="PictureAspectRatio" v:prompt="" v:val="VT0(1):26" />
				<v:ud v:nameU="PictureID" v:prompt="" />
				<v:ud v:nameU="SetWidth" v:prompt="" />
				<v:ud v:nameU="SetHeight" v:prompt="" />
				<v:ud v:nameU="PositionID" v:prompt="" v:val="VT0(0):26" />
				<v:ud v:nameU="DeltaX" v:prompt="" v:val="VT0(0):26" />
				<v:ud v:nameU="DeltaY" v:prompt="" v:val="VT0(0):26" />
				<v:ud v:nameU="ParLocX" v:prompt="" v:val="VT0(0):26" />
				<v:ud v:nameU="ParLocY" v:prompt="" v:val="VT0(0):26" />
				<v:ud v:nameU="PageLoc" v:prompt="" v:val="VT0(0):26" />
				<v:ud v:nameU="ParLoc" v:prompt="" v:val="VT0(0):26" />
				<v:ud v:nameU="PictureAreaWidth" v:prompt="" v:val="VT0(0.26944444444444):0" />
				<v:ud v:nameU="PictureAreaHeight" v:prompt="" v:val="VT0(0.43611111111111):0" />
				<v:ud v:nameU="PictureAreaAspectRatio" v:prompt="" v:val="VT0(0.61783439490446):26" />
				<v:ud v:nameU="PictureWidth" v:prompt="" v:val="VT0(0.26944444444444):0" />
				<v:ud v:nameU="PictureHeight" v:prompt="" v:val="VT0(0.26944444444444):0" />
				<v:ud v:nameU="DividerOffset" v:prompt="" v:val="VT0(0.2500244913737):0" />
				<v:ud v:nameU="CalcTextLineHeight" v:prompt="" v:val="VT0(0.13333333333333):29" />
				<v:ud v:nameU="ExpandedForPicture" v:prompt="" v:val="VT0(0):26" />
				<v:ud v:nameU="Theme" v:prompt="" v:val="VT0(0):26" />
				<v:ud v:nameU="visVersion" v:prompt="" v:val="VT0(12):26" />
				<v:ud v:nameU="HasSubordinates" v:prompt="" v:val="VT0(1):26" />
				<v:ud v:nameU="ThisLayoutStyle" v:prompt="" v:val="VT0(100):26" />
				<v:ud v:nameU="Width" v:prompt="" v:val="VT0(1):0" />
				<v:ud v:nameU="Height" v:prompt="" v:val="VT0(0.5):0" />
				<v:ud v:nameU="Prop" v:prompt="" v:val="VT4(Name)" />
				<v:ud v:nameU="PositionID" v:prompt="" v:val="VT4({8E853BF9-960C-43C2-9A57-2B250DA1F575})" />
				<v:ud v:nameU="DividerOffset" v:prompt="" v:val="VT0(0.25002652587891):0" />
				<v:ud v:nameU="CalcTextLineHeight" v:prompt="" v:val="VT0(0.2):29" />
			</v:userDefs>
			<title>Manager.218</title>
			<desc>dod 6</desc>
			<g id="shape36-43" v:mID="36" v:groupContext="groupContent">
				<v:textBlock v:margins="rect(0,0,0,0)" />
				<v:textRect cx="36" cy="558.72" width="68.4" height="18" />
				<path d="M0 576.72 L0 540.72 L72 540.72 L72 576.72 L0 576.72 Z" class="st5" />
				<path d="M0 576.72 L0 540.72 L72 540.72 L72 576.72 L0 576.72" class="st2" />
				<path d="M1.8 574.92 L1.8 542.52 L70.2 542.52 L70.2 574.92 L1.8 574.92" class="st2" />
				<text x="25.99" y="555.12" class="st3" v:langID="1033"><v:paragraph v:horizAlign="1" /><v:tabList />dod<v:newlineChar /><tspan x="32.66" dy="1.2em" class="st4">6</tspan></text>			</g>
		</g>
		<g id="group42-49" transform="translate(162.36,-269.235)" v:mID="42" v:groupContext="group">
			<v:custProps>
				<v:cp v:nameU="Department" v:lbl="Department" v:type="0" v:invis="false" v:ask="false" v:langID="1033" v:cal="0" v:val="VT4(Department)" />
				<v:cp v:nameU="Telephone" v:lbl="Telephone" v:type="0" v:invis="false" v:ask="false" v:langID="1033" v:cal="0" v:val="VT4(Telephone)" />
				<v:cp v:nameU="Name" v:lbl="Name" v:type="0" v:invis="false" v:ask="false" v:langID="1033" v:cal="0" v:val="VT4(Name)" />
				<v:cp v:nameU="Title" v:lbl="Title" v:type="0" v:invis="false" v:ask="false" v:langID="1033" v:cal="0" v:val="VT4(Title)" />
				<v:cp v:nameU="Email" v:lbl="E-mail" v:type="0" v:invis="false" v:ask="false" v:langID="1033" v:cal="0" v:val="VT4(E-mail)" />
				<v:cp v:nameU="Name" v:lbl="" v:prompt="" v:type="0" v:format="" v:sortKey="" v:invis="false" v:ask="false" v:langID="0" v:cal="0" v:val="VT4(internet)" />
			</v:custProps>
			<v:userDefs>
				<v:ud v:nameU="Solsh" v:prompt="" v:val="VT15({0BF98B35-200C-41D5-8A23-20EF77CBC94A}):41" />
				<v:ud v:nameU="ShapeType" v:prompt="" v:val="VT0(1):26" />
				<v:ud v:nameU="ShowPicture" v:prompt="" v:val="VT0(0):26" />
				<v:ud v:nameU="ShowSubordinates" v:prompt="" v:val="VT0(1):26" />
				<v:ud v:nameU="DocShowPicture" v:prompt="" v:val="VT0(1):26" />
				<v:ud v:nameU="Margin" v:prompt="" v:val="VT0(0.025):0" />
				<v:ud v:nameU="HasSubordinates" v:prompt="" v:val="VT0(0):26" />
				<v:ud v:nameU="IsHidingSubs" v:prompt="" v:val="VT0(0):5" />
				<v:ud v:nameU="ShowDivider" v:prompt="" v:val="VT0(0):26" />
				<v:ud v:nameU="ThisLayoutStyle" v:prompt="" v:val="VT0(0):26" />
				<v:ud v:nameU="HasPicture" v:prompt="" v:val="VT0(0):26" />
				<v:ud v:nameU="Width" v:prompt="" v:val="VT0(1):0" />
				<v:ud v:nameU="Height" v:prompt="" v:val="VT0(0.5):0" />
				<v:ud v:nameU="Prop" v:prompt="" />
				<v:ud v:nameU="PictureAspectRatio" v:prompt="" v:val="VT0(1):26" />
				<v:ud v:nameU="PictureID" v:prompt="" />
				<v:ud v:nameU="SetWidth" v:prompt="" />
				<v:ud v:nameU="SetHeight" v:prompt="" />
				<v:ud v:nameU="PositionID" v:prompt="" v:val="VT0(0):26" />
				<v:ud v:nameU="DeltaX" v:prompt="" v:val="VT0(0):26" />
				<v:ud v:nameU="DeltaY" v:prompt="" v:val="VT0(0):26" />
				<v:ud v:nameU="ParLocX" v:prompt="" v:val="VT0(0):26" />
				<v:ud v:nameU="ParLocY" v:prompt="" v:val="VT0(0):26" />
				<v:ud v:nameU="PageLoc" v:prompt="" v:val="VT0(0):26" />
				<v:ud v:nameU="ParLoc" v:prompt="" v:val="VT0(0):26" />
				<v:ud v:nameU="PictureAreaWidth" v:prompt="" v:val="VT0(0.26944444444444):0" />
				<v:ud v:nameU="PictureAreaHeight" v:prompt="" v:val="VT0(0.43611111111111):0" />
				<v:ud v:nameU="PictureAreaAspectRatio" v:prompt="" v:val="VT0(0.61783439490446):26" />
				<v:ud v:nameU="PictureWidth" v:prompt="" v:val="VT0(0.26944444444444):0" />
				<v:ud v:nameU="PictureHeight" v:prompt="" v:val="VT0(0.26944444444444):0" />
				<v:ud v:nameU="DividerOffset" v:prompt="" v:val="VT0(0.2500244913737):0" />
				<v:ud v:nameU="CalcTextLineHeight" v:prompt="" v:val="VT0(0.13333333333333):29" />
				<v:ud v:nameU="ExpandedForPicture" v:prompt="" v:val="VT0(0):26" />
				<v:ud v:nameU="Theme" v:prompt="" v:val="VT0(0):26" />
				<v:ud v:nameU="visVersion" v:prompt="" v:val="VT0(12):26" />
				<v:ud v:nameU="ThisLayoutStyle" v:prompt="" v:val="VT0(100):26" />
				<v:ud v:nameU="Width" v:prompt="" v:val="VT0(1):0" />
				<v:ud v:nameU="Height" v:prompt="" v:val="VT0(0.5):0" />
				<v:ud v:nameU="Prop" v:prompt="" v:val="VT4(Name)" />
				<v:ud v:nameU="PositionID" v:prompt="" v:val="VT4({D21B5B60-6974-4823-B8B4-3FAF1A93062B})" />
				<v:ud v:nameU="DeltaX" v:prompt="" v:val="VT0(4.4408920985006E-016):26" />
				<v:ud v:nameU="DeltaY" v:prompt="" v:val="VT0(-0.75):26" />
				<v:ud v:nameU="ParLocX" v:prompt="" v:val="VT0(2.755):0" />
				<v:ud v:nameU="ParLocY" v:prompt="" v:val="VT0(4.739375):0" />
				<v:ud v:nameU="PageLoc" v:prompt="" v:val="VT7(PNT(2.755IN,3.989375IN)):40" />
				<v:ud v:nameU="ParLoc" v:prompt="" v:val="VT7(PNT(2.755IN,4.739375IN)):40" />
				<v:ud v:nameU="DividerOffset" v:prompt="" v:val="VT0(0.25002652587891):0" />
				<v:ud v:nameU="CalcTextLineHeight" v:prompt="" v:val="VT0(0.2):29" />
			</v:userDefs>
			<title>Manager.224</title>
			<desc>internet 1</desc>
			<g id="shape42-50" v:mID="42" v:groupContext="groupContent">
				<v:textBlock v:margins="rect(0,0,0,0)" />
				<v:textRect cx="36" cy="558.72" width="68.4" height="18" />
				<path d="M0 576.72 L0 540.72 L72 540.72 L72 576.72 L0 576.72 Z" class="st5" />
				<path d="M0 576.72 L0 540.72 L72 540.72 L72 576.72 L0 576.72" class="st2" />
				<path d="M1.8 574.92 L1.8 542.52 L70.2 542.52 L70.2 574.92 L1.8 574.92" class="st2" />
				<text x="15.99" y="555.12" class="st3" v:langID="1033"><v:paragraph v:horizAlign="1" /><v:tabList />internet<v:newlineChar /><tspan x="32.66" dy="1.2em" class="st4">1</tspan></text>			</g>
		</g>
		<g id="shape47-56" v:mID="47" v:groupContext="shape" transform="translate(191.16,-323.235)">
			<title>Dynamic connector.229</title>
			<v:userDefs>
				<v:ud v:nameU="ShapeClass" v:val="VT4({D84F7AF5-C993-11d1-B2E7-006008BD347E})" />
				<v:ud v:nameU="OwnerUniqueID" v:val="VT0(-1):26" />
				<v:ud v:nameU="visVersion" v:val="VT0(12):26" />
			</v:userDefs>
			<path d="M7.2 576.72 L7.2 594.72" class="st2" />
		</g>
		<g id="group48-59" transform="translate(54.36,-198.36)" v:mID="48" v:groupContext="group">
			<v:custProps>
				<v:cp v:nameU="Department" v:lbl="Department" v:type="0" v:invis="false" v:ask="false" v:langID="1033" v:cal="0" v:val="VT4(Department)" />
				<v:cp v:nameU="Telephone" v:lbl="Telephone" v:type="0" v:invis="false" v:ask="false" v:langID="1033" v:cal="0" v:val="VT4(Telephone)" />
				<v:cp v:nameU="Name" v:lbl="Name" v:type="0" v:invis="false" v:ask="false" v:langID="1033" v:cal="0" v:val="VT4(Name)" />
				<v:cp v:nameU="Title" v:lbl="Title" v:type="0" v:invis="false" v:ask="false" v:langID="1033" v:cal="0" v:val="VT4(Title)" />
				<v:cp v:nameU="Email" v:lbl="E-mail" v:type="0" v:invis="false" v:ask="false" v:langID="1033" v:cal="0" v:val="VT4(E-mail)" />
				<v:cp v:nameU="Name" v:lbl="" v:prompt="" v:type="0" v:format="" v:sortKey="" v:invis="false" v:ask="false" v:langID="0" v:cal="0" v:val="VT4(directory)" />
			</v:custProps>
			<v:userDefs>
				<v:ud v:nameU="Solsh" v:prompt="" v:val="VT15({0BF98B35-200C-41D5-8A23-20EF77CBC94A}):41" />
				<v:ud v:nameU="ShapeType" v:prompt="" v:val="VT0(1):26" />
				<v:ud v:nameU="ShowPicture" v:prompt="" v:val="VT0(0):26" />
				<v:ud v:nameU="ShowSubordinates" v:prompt="" v:val="VT0(1):26" />
				<v:ud v:nameU="DocShowPicture" v:prompt="" v:val="VT0(1):26" />
				<v:ud v:nameU="Margin" v:prompt="" v:val="VT0(0.025):0" />
				<v:ud v:nameU="HasSubordinates" v:prompt="" v:val="VT0(0):26" />
				<v:ud v:nameU="IsHidingSubs" v:prompt="" v:val="VT0(0):5" />
				<v:ud v:nameU="ShowDivider" v:prompt="" v:val="VT0(0):26" />
				<v:ud v:nameU="ThisLayoutStyle" v:prompt="" v:val="VT0(0):26" />
				<v:ud v:nameU="HasPicture" v:prompt="" v:val="VT0(0):26" />
				<v:ud v:nameU="Width" v:prompt="" v:val="VT0(1):0" />
				<v:ud v:nameU="Height" v:prompt="" v:val="VT0(0.5):0" />
				<v:ud v:nameU="Prop" v:prompt="" />
				<v:ud v:nameU="PictureAspectRatio" v:prompt="" v:val="VT0(1):26" />
				<v:ud v:nameU="PictureID" v:prompt="" />
				<v:ud v:nameU="SetWidth" v:prompt="" />
				<v:ud v:nameU="SetHeight" v:prompt="" />
				<v:ud v:nameU="PositionID" v:prompt="" v:val="VT0(0):26" />
				<v:ud v:nameU="DeltaX" v:prompt="" v:val="VT0(0):26" />
				<v:ud v:nameU="DeltaY" v:prompt="" v:val="VT0(0):26" />
				<v:ud v:nameU="ParLocX" v:prompt="" v:val="VT0(0):26" />
				<v:ud v:nameU="ParLocY" v:prompt="" v:val="VT0(0):26" />
				<v:ud v:nameU="PageLoc" v:prompt="" v:val="VT0(0):26" />
				<v:ud v:nameU="ParLoc" v:prompt="" v:val="VT0(0):26" />
				<v:ud v:nameU="PictureAreaWidth" v:prompt="" v:val="VT0(0.26944444444444):0" />
				<v:ud v:nameU="PictureAreaHeight" v:prompt="" v:val="VT0(0.43611111111111):0" />
				<v:ud v:nameU="PictureAreaAspectRatio" v:prompt="" v:val="VT0(0.61783439490446):26" />
				<v:ud v:nameU="PictureWidth" v:prompt="" v:val="VT0(0.26944444444444):0" />
				<v:ud v:nameU="PictureHeight" v:prompt="" v:val="VT0(0.26944444444444):0" />
				<v:ud v:nameU="DividerOffset" v:prompt="" v:val="VT0(0.2500244913737):0" />
				<v:ud v:nameU="CalcTextLineHeight" v:prompt="" v:val="VT0(0.13333333333333):29" />
				<v:ud v:nameU="ExpandedForPicture" v:prompt="" v:val="VT0(0):26" />
				<v:ud v:nameU="Theme" v:prompt="" v:val="VT0(0):26" />
				<v:ud v:nameU="visVersion" v:prompt="" v:val="VT0(12):26" />
				<v:ud v:nameU="Width" v:prompt="" v:val="VT0(1):0" />
				<v:ud v:nameU="Height" v:prompt="" v:val="VT0(0.5):0" />
				<v:ud v:nameU="Prop" v:prompt="" v:val="VT4(Name)" />
				<v:ud v:nameU="PositionID" v:prompt="" v:val="VT4({37E99954-FFD4-4EB5-B756-86B29BA3F323})" />
				<v:ud v:nameU="DividerOffset" v:prompt="" v:val="VT0(0.25002652587891):0" />
				<v:ud v:nameU="CalcTextLineHeight" v:prompt="" v:val="VT0(0.2):29" />
			</v:userDefs>
			<title>Manager.230</title>
			<desc>directory 1</desc>
			<g id="shape48-60" v:mID="48" v:groupContext="groupContent">
				<v:textBlock v:margins="rect(0,0,0,0)" />
				<v:textRect cx="36" cy="558.72" width="68.4" height="18" />
				<path d="M0 576.72 L0 540.72 L72 540.72 L72 576.72 L0 576.72 Z" class="st1" />
				<path d="M0 576.72 L0 540.72 L72 540.72 L72 576.72 L0 576.72" class="st2" />
				<path d="M1.8 574.92 L1.8 542.52 L70.2 542.52 L70.2 574.92 L1.8 574.92" class="st2" />
				<text x="12.99" y="555.12" class="st3" v:langID="1033"><v:paragraph v:horizAlign="1" /><v:tabList />directory<v:newlineChar /><tspan x="32.66" dy="1.2em" class="st4">1</tspan></text>			</g>
		</g>
		<g id="group54-66" transform="translate(144.36,-198.36)" v:mID="54" v:groupContext="group">
			<v:custProps>
				<v:cp v:nameU="Department" v:lbl="Department" v:type="0" v:invis="false" v:ask="false" v:langID="1033" v:cal="0" v:val="VT4(Department)" />
				<v:cp v:nameU="Telephone" v:lbl="Telephone" v:type="0" v:invis="false" v:ask="false" v:langID="1033" v:cal="0" v:val="VT4(Telephone)" />
				<v:cp v:nameU="Name" v:lbl="Name" v:type="0" v:invis="false" v:ask="false" v:langID="1033" v:cal="0" v:val="VT4(Name)" />
				<v:cp v:nameU="Title" v:lbl="Title" v:type="0" v:invis="false" v:ask="false" v:langID="1033" v:cal="0" v:val="VT4(Title)" />
				<v:cp v:nameU="Email" v:lbl="E-mail" v:type="0" v:invis="false" v:ask="false" v:langID="1033" v:cal="0" v:val="VT4(E-mail)" />
				<v:cp v:nameU="Name" v:lbl="" v:prompt="" v:type="0" v:format="" v:sortKey="" v:invis="false" v:ask="false" v:langID="0" v:cal="0" v:val="VT4(mgmt)" />
			</v:custProps>
			<v:userDefs>
				<v:ud v:nameU="Solsh" v:prompt="" v:val="VT15({0BF98B35-200C-41D5-8A23-20EF77CBC94A}):41" />
				<v:ud v:nameU="ShapeType" v:prompt="" v:val="VT0(1):26" />
				<v:ud v:nameU="ShowPicture" v:prompt="" v:val="VT0(0):26" />
				<v:ud v:nameU="ShowSubordinates" v:prompt="" v:val="VT0(1):26" />
				<v:ud v:nameU="DocShowPicture" v:prompt="" v:val="VT0(1):26" />
				<v:ud v:nameU="Margin" v:prompt="" v:val="VT0(0.025):0" />
				<v:ud v:nameU="HasSubordinates" v:prompt="" v:val="VT0(0):26" />
				<v:ud v:nameU="IsHidingSubs" v:prompt="" v:val="VT0(0):5" />
				<v:ud v:nameU="ShowDivider" v:prompt="" v:val="VT0(0):26" />
				<v:ud v:nameU="ThisLayoutStyle" v:prompt="" v:val="VT0(0):26" />
				<v:ud v:nameU="HasPicture" v:prompt="" v:val="VT0(0):26" />
				<v:ud v:nameU="Width" v:prompt="" v:val="VT0(1):0" />
				<v:ud v:nameU="Height" v:prompt="" v:val="VT0(0.5):0" />
				<v:ud v:nameU="Prop" v:prompt="" />
				<v:ud v:nameU="PictureAspectRatio" v:prompt="" v:val="VT0(1):26" />
				<v:ud v:nameU="PictureID" v:prompt="" />
				<v:ud v:nameU="SetWidth" v:prompt="" />
				<v:ud v:nameU="SetHeight" v:prompt="" />
				<v:ud v:nameU="PositionID" v:prompt="" v:val="VT0(0):26" />
				<v:ud v:nameU="DeltaX" v:prompt="" v:val="VT0(0):26" />
				<v:ud v:nameU="DeltaY" v:prompt="" v:val="VT0(0):26" />
				<v:ud v:nameU="ParLocX" v:prompt="" v:val="VT0(0):26" />
				<v:ud v:nameU="ParLocY" v:prompt="" v:val="VT0(0):26" />
				<v:ud v:nameU="PageLoc" v:prompt="" v:val="VT0(0):26" />
				<v:ud v:nameU="ParLoc" v:prompt="" v:val="VT0(0):26" />
				<v:ud v:nameU="PictureAreaWidth" v:prompt="" v:val="VT0(0.26944444444444):0" />
				<v:ud v:nameU="PictureAreaHeight" v:prompt="" v:val="VT0(0.43611111111111):0" />
				<v:ud v:nameU="PictureAreaAspectRatio" v:prompt="" v:val="VT0(0.61783439490446):26" />
				<v:ud v:nameU="PictureWidth" v:prompt="" v:val="VT0(0.26944444444444):0" />
				<v:ud v:nameU="PictureHeight" v:prompt="" v:val="VT0(0.26944444444444):0" />
				<v:ud v:nameU="DividerOffset" v:prompt="" v:val="VT0(0.2500244913737):0" />
				<v:ud v:nameU="CalcTextLineHeight" v:prompt="" v:val="VT0(0.13333333333333):29" />
				<v:ud v:nameU="ExpandedForPicture" v:prompt="" v:val="VT0(0):26" />
				<v:ud v:nameU="Theme" v:prompt="" v:val="VT0(0):26" />
				<v:ud v:nameU="visVersion" v:prompt="" v:val="VT0(12):26" />
				<v:ud v:nameU="Width" v:prompt="" v:val="VT0(1):0" />
				<v:ud v:nameU="Height" v:prompt="" v:val="VT0(0.5):0" />
				<v:ud v:nameU="Prop" v:prompt="" v:val="VT4(Name)" />
				<v:ud v:nameU="PositionID" v:prompt="" v:val="VT4({76C3E4EA-D990-4A99-B873-7AA54E0F6FC9})" />
				<v:ud v:nameU="DividerOffset" v:prompt="" v:val="VT0(0.25002652587891):0" />
				<v:ud v:nameU="CalcTextLineHeight" v:prompt="" v:val="VT0(0.2):29" />
			</v:userDefs>
			<title>Manager.236</title>
			<desc>mgmt 2</desc>
			<g id="shape54-67" v:mID="54" v:groupContext="groupContent">
				<v:textBlock v:margins="rect(0,0,0,0)" />
				<v:textRect cx="36" cy="558.72" width="68.4" height="18" />
				<path d="M0 576.72 L0 540.72 L72 540.72 L72 576.72 L0 576.72 Z" class="st1" />
				<path d="M0 576.72 L0 540.72 L72 540.72 L72 576.72 L0 576.72" class="st2" />
				<path d="M1.8 574.92 L1.8 542.52 L70.2 542.52 L70.2 574.92 L1.8 574.92" class="st2" />
				<text x="21" y="555.12" class="st3" v:langID="1033"><v:paragraph v:horizAlign="1" /><v:tabList />mgmt<v:newlineChar /><tspan x="32.66" dy="1.2em" class="st4">2</tspan></text>			</g>
		</g>
		<g id="group60-73" transform="translate(234.36,-198.36)" v:mID="60" v:groupContext="group">
			<v:custProps>
				<v:cp v:nameU="Department" v:lbl="Department" v:type="0" v:invis="false" v:ask="false" v:langID="1033" v:cal="0" v:val="VT4(Department)" />
				<v:cp v:nameU="Telephone" v:lbl="Telephone" v:type="0" v:invis="false" v:ask="false" v:langID="1033" v:cal="0" v:val="VT4(Telephone)" />
				<v:cp v:nameU="Name" v:lbl="Name" v:type="0" v:invis="false" v:ask="false" v:langID="1033" v:cal="0" v:val="VT4(Name)" />
				<v:cp v:nameU="Title" v:lbl="Title" v:type="0" v:invis="false" v:ask="false" v:langID="1033" v:cal="0" v:val="VT4(Title)" />
				<v:cp v:nameU="Email" v:lbl="E-mail" v:type="0" v:invis="false" v:ask="false" v:langID="1033" v:cal="0" v:val="VT4(E-mail)" />
				<v:cp v:nameU="Name" v:lbl="" v:prompt="" v:type="0" v:format="" v:sortKey="" v:invis="false" v:ask="false" v:langID="0" v:cal="0" v:val="VT4(experimental)" />
			</v:custProps>
			<v:userDefs>
				<v:ud v:nameU="Solsh" v:prompt="" v:val="VT15({0BF98B35-200C-41D5-8A23-20EF77CBC94A}):41" />
				<v:ud v:nameU="ShapeType" v:prompt="" v:val="VT0(1):26" />
				<v:ud v:nameU="ShowPicture" v:prompt="" v:val="VT0(0):26" />
				<v:ud v:nameU="ShowSubordinates" v:prompt="" v:val="VT0(1):26" />
				<v:ud v:nameU="DocShowPicture" v:prompt="" v:val="VT0(1):26" />
				<v:ud v:nameU="Margin" v:prompt="" v:val="VT0(0.025):0" />
				<v:ud v:nameU="HasSubordinates" v:prompt="" v:val="VT0(0):26" />
				<v:ud v:nameU="IsHidingSubs" v:prompt="" v:val="VT0(0):5" />
				<v:ud v:nameU="ShowDivider" v:prompt="" v:val="VT0(0):26" />
				<v:ud v:nameU="ThisLayoutStyle" v:prompt="" v:val="VT0(0):26" />
				<v:ud v:nameU="HasPicture" v:prompt="" v:val="VT0(0):26" />
				<v:ud v:nameU="Width" v:prompt="" v:val="VT0(1):0" />
				<v:ud v:nameU="Height" v:prompt="" v:val="VT0(0.5):0" />
				<v:ud v:nameU="Prop" v:prompt="" />
				<v:ud v:nameU="PictureAspectRatio" v:prompt="" v:val="VT0(1):26" />
				<v:ud v:nameU="PictureID" v:prompt="" />
				<v:ud v:nameU="SetWidth" v:prompt="" />
				<v:ud v:nameU="SetHeight" v:prompt="" />
				<v:ud v:nameU="PositionID" v:prompt="" v:val="VT0(0):26" />
				<v:ud v:nameU="DeltaX" v:prompt="" v:val="VT0(0):26" />
				<v:ud v:nameU="DeltaY" v:prompt="" v:val="VT0(0):26" />
				<v:ud v:nameU="ParLocX" v:prompt="" v:val="VT0(0):26" />
				<v:ud v:nameU="ParLocY" v:prompt="" v:val="VT0(0):26" />
				<v:ud v:nameU="PageLoc" v:prompt="" v:val="VT0(0):26" />
				<v:ud v:nameU="ParLoc" v:prompt="" v:val="VT0(0):26" />
				<v:ud v:nameU="PictureAreaWidth" v:prompt="" v:val="VT0(0.26944444444444):0" />
				<v:ud v:nameU="PictureAreaHeight" v:prompt="" v:val="VT0(0.43611111111111):0" />
				<v:ud v:nameU="PictureAreaAspectRatio" v:prompt="" v:val="VT0(0.61783439490446):26" />
				<v:ud v:nameU="PictureWidth" v:prompt="" v:val="VT0(0.26944444444444):0" />
				<v:ud v:nameU="PictureHeight" v:prompt="" v:val="VT0(0.26944444444444):0" />
				<v:ud v:nameU="DividerOffset" v:prompt="" v:val="VT0(0.2500244913737):0" />
				<v:ud v:nameU="CalcTextLineHeight" v:prompt="" v:val="VT0(0.13333333333333):29" />
				<v:ud v:nameU="ExpandedForPicture" v:prompt="" v:val="VT0(0):26" />
				<v:ud v:nameU="Theme" v:prompt="" v:val="VT0(0):26" />
				<v:ud v:nameU="visVersion" v:prompt="" v:val="VT0(12):26" />
				<v:ud v:nameU="Width" v:prompt="" v:val="VT0(1.02):1" />
				<v:ud v:nameU="Height" v:prompt="" v:val="VT0(0.5):0" />
				<v:ud v:nameU="Prop" v:prompt="" v:val="VT4(Name)" />
				<v:ud v:nameU="PositionID" v:prompt="" v:val="VT4({6A1F419A-86AC-4C9F-AFF2-1C174509A3A8})" />
				<v:ud v:nameU="PictureAreaWidth" v:prompt="" v:val="VT0(0.27611111111111):0" />
				<v:ud v:nameU="PictureAreaAspectRatio" v:prompt="" v:val="VT0(0.63312101910828):26" />
				<v:ud v:nameU="PictureWidth" v:prompt="" v:val="VT0(0.27611111111111):0" />
				<v:ud v:nameU="PictureHeight" v:prompt="" v:val="VT0(0.27611111111111):0" />
				<v:ud v:nameU="DividerOffset" v:prompt="" v:val="VT0(0.25002652587891):0" />
				<v:ud v:nameU="CalcTextLineHeight" v:prompt="" v:val="VT0(0.2):29" />
			</v:userDefs>
			<title>Manager.242</title>
			<desc>experimental 3</desc>
			<g id="shape60-74" v:mID="60" v:groupContext="groupContent">
				<v:textBlock v:margins="rect(0,0,0,0)" />
				<v:textRect cx="36.72" cy="558.72" width="69.77" height="18" />
				<path d="M0 576.72 L0 540.72 L73.44 540.72 L73.44 576.72 L0 576.72 Z" class="st1" />
				<path d="M0 576.72 L0 540.72 L73.44 540.72 L73.44 576.72 L0 576.72" class="st2" />
				<path d="M1.8 574.92 L1.8 542.52 L71.64 542.52 L71.64 574.92 L1.8 574.92" class="st2" />
				<text x="2.37" y="555.12" class="st3" v:langID="1033"><v:paragraph v:horizAlign="1" /><v:tabList />experimental<v:newlineChar /><tspan x="33.38" dy="1.2em" class="st4">3</tspan></text>			</g>
		</g>
		<g id="group66-80" transform="translate(324.36,-198.36)" v:mID="66" v:groupContext="group">
			<v:custProps>
				<v:cp v:nameU="Department" v:lbl="Department" v:type="0" v:invis="false" v:ask="false" v:langID="1033" v:cal="0" v:val="VT4(Department)" />
				<v:cp v:nameU="Telephone" v:lbl="Telephone" v:type="0" v:invis="false" v:ask="false" v:langID="1033" v:cal="0" v:val="VT4(Telephone)" />
				<v:cp v:nameU="Name" v:lbl="Name" v:type="0" v:invis="false" v:ask="false" v:langID="1033" v:cal="0" v:val="VT4(Name)" />
				<v:cp v:nameU="Title" v:lbl="Title" v:type="0" v:invis="false" v:ask="false" v:langID="1033" v:cal="0" v:val="VT4(Title)" />
				<v:cp v:nameU="Email" v:lbl="E-mail" v:type="0" v:invis="false" v:ask="false" v:langID="1033" v:cal="0" v:val="VT4(E-mail)" />
				<v:cp v:nameU="Name" v:lbl="" v:prompt="" v:type="0" v:format="" v:sortKey="" v:invis="false" v:ask="false" v:langID="0" v:cal="0" v:val="VT4(private)" />
			</v:custProps>
			<v:userDefs>
				<v:ud v:nameU="Solsh" v:prompt="" v:val="VT15({0BF98B35-200C-41D5-8A23-20EF77CBC94A}):41" />
				<v:ud v:nameU="ShapeType" v:prompt="" v:val="VT0(1):26" />
				<v:ud v:nameU="ShowPicture" v:prompt="" v:val="VT0(0):26" />
				<v:ud v:nameU="ShowSubordinates" v:prompt="" v:val="VT0(1):26" />
				<v:ud v:nameU="DocShowPicture" v:prompt="" v:val="VT0(1):26" />
				<v:ud v:nameU="Margin" v:prompt="" v:val="VT0(0.025):0" />
				<v:ud v:nameU="HasSubordinates" v:prompt="" v:val="VT0(0):26" />
				<v:ud v:nameU="IsHidingSubs" v:prompt="" v:val="VT0(0):5" />
				<v:ud v:nameU="ShowDivider" v:prompt="" v:val="VT0(0):26" />
				<v:ud v:nameU="ThisLayoutStyle" v:prompt="" v:val="VT0(0):26" />
				<v:ud v:nameU="HasPicture" v:prompt="" v:val="VT0(0):26" />
				<v:ud v:nameU="Width" v:prompt="" v:val="VT0(1):0" />
				<v:ud v:nameU="Height" v:prompt="" v:val="VT0(0.5):0" />
				<v:ud v:nameU="Prop" v:prompt="" />
				<v:ud v:nameU="PictureAspectRatio" v:prompt="" v:val="VT0(1):26" />
				<v:ud v:nameU="PictureID" v:prompt="" />
				<v:ud v:nameU="SetWidth" v:prompt="" />
				<v:ud v:nameU="SetHeight" v:prompt="" />
				<v:ud v:nameU="PositionID" v:prompt="" v:val="VT0(0):26" />
				<v:ud v:nameU="DeltaX" v:prompt="" v:val="VT0(0):26" />
				<v:ud v:nameU="DeltaY" v:prompt="" v:val="VT0(0):26" />
				<v:ud v:nameU="ParLocX" v:prompt="" v:val="VT0(0):26" />
				<v:ud v:nameU="ParLocY" v:prompt="" v:val="VT0(0):26" />
				<v:ud v:nameU="PageLoc" v:prompt="" v:val="VT0(0):26" />
				<v:ud v:nameU="ParLoc" v:prompt="" v:val="VT0(0):26" />
				<v:ud v:nameU="PictureAreaWidth" v:prompt="" v:val="VT0(0.26944444444444):0" />
				<v:ud v:nameU="PictureAreaHeight" v:prompt="" v:val="VT0(0.43611111111111):0" />
				<v:ud v:nameU="PictureAreaAspectRatio" v:prompt="" v:val="VT0(0.61783439490446):26" />
				<v:ud v:nameU="PictureWidth" v:prompt="" v:val="VT0(0.26944444444444):0" />
				<v:ud v:nameU="PictureHeight" v:prompt="" v:val="VT0(0.26944444444444):0" />
				<v:ud v:nameU="DividerOffset" v:prompt="" v:val="VT0(0.2500244913737):0" />
				<v:ud v:nameU="CalcTextLineHeight" v:prompt="" v:val="VT0(0.13333333333333):29" />
				<v:ud v:nameU="ExpandedForPicture" v:prompt="" v:val="VT0(0):26" />
				<v:ud v:nameU="Theme" v:prompt="" v:val="VT0(0):26" />
				<v:ud v:nameU="visVersion" v:prompt="" v:val="VT0(12):26" />
				<v:ud v:nameU="HasSubordinates" v:prompt="" v:val="VT0(1):26" />
				<v:ud v:nameU="ThisLayoutStyle" v:prompt="" v:val="VT0(100):26" />
				<v:ud v:nameU="Width" v:prompt="" v:val="VT0(1):0" />
				<v:ud v:nameU="Height" v:prompt="" v:val="VT0(0.5):0" />
				<v:ud v:nameU="Prop" v:prompt="" v:val="VT4(Name)" />
				<v:ud v:nameU="PositionID" v:prompt="" v:val="VT4({0452E19D-2D07-4DA5-A940-CFE35B6773E2})" />
				<v:ud v:nameU="DividerOffset" v:prompt="" v:val="VT0(0.25002652587891):0" />
				<v:ud v:nameU="CalcTextLineHeight" v:prompt="" v:val="VT0(0.2):29" />
			</v:userDefs>
			<title>Manager.248</title>
			<desc>private 4</desc>
			<g id="shape66-81" v:mID="66" v:groupContext="groupContent">
				<v:textBlock v:margins="rect(0,0,0,0)" />
				<v:textRect cx="36" cy="558.72" width="68.4" height="18" />
				<path d="M0 576.72 L0 540.72 L72 540.72 L72 576.72 L0 576.72 Z" class="st5" />
				<path d="M0 576.72 L0 540.72 L72 540.72 L72 576.72 L0 576.72" class="st2" />
				<path d="M1.8 574.92 L1.8 542.52 L70.2 542.52 L70.2 574.92 L1.8 574.92" class="st2" />
				<text x="17.99" y="555.12" class="st3" v:langID="1033"><v:paragraph v:horizAlign="1" /><v:tabList />private<v:newlineChar /><tspan x="32.66" dy="1.2em" class="st4">4</tspan></text>			</g>
		</g>
		<g id="group72-87" transform="translate(414.36,-198.36)" v:mID="72" v:groupContext="group">
			<v:custProps>
				<v:cp v:nameU="Department" v:lbl="Department" v:type="0" v:invis="false" v:ask="false" v:langID="1033" v:cal="0" v:val="VT4(Department)" />
				<v:cp v:nameU="Telephone" v:lbl="Telephone" v:type="0" v:invis="false" v:ask="false" v:langID="1033" v:cal="0" v:val="VT4(Telephone)" />
				<v:cp v:nameU="Name" v:lbl="Name" v:type="0" v:invis="false" v:ask="false" v:langID="1033" v:cal="0" v:val="VT4(Name)" />
				<v:cp v:nameU="Title" v:lbl="Title" v:type="0" v:invis="false" v:ask="false" v:langID="1033" v:cal="0" v:val="VT4(Title)" />
				<v:cp v:nameU="Email" v:lbl="E-mail" v:type="0" v:invis="false" v:ask="false" v:langID="1033" v:cal="0" v:val="VT4(E-mail)" />
				<v:cp v:nameU="Name" v:lbl="" v:prompt="" v:type="0" v:format="" v:sortKey="" v:invis="false" v:ask="false" v:langID="0" v:cal="0" v:val="VT4(security)" />
			</v:custProps>
			<v:userDefs>
				<v:ud v:nameU="Solsh" v:prompt="" v:val="VT15({0BF98B35-200C-41D5-8A23-20EF77CBC94A}):41" />
				<v:ud v:nameU="ShapeType" v:prompt="" v:val="VT0(1):26" />
				<v:ud v:nameU="ShowPicture" v:prompt="" v:val="VT0(0):26" />
				<v:ud v:nameU="ShowSubordinates" v:prompt="" v:val="VT0(1):26" />
				<v:ud v:nameU="DocShowPicture" v:prompt="" v:val="VT0(1):26" />
				<v:ud v:nameU="Margin" v:prompt="" v:val="VT0(0.025):0" />
				<v:ud v:nameU="HasSubordinates" v:prompt="" v:val="VT0(0):26" />
				<v:ud v:nameU="IsHidingSubs" v:prompt="" v:val="VT0(0):5" />
				<v:ud v:nameU="ShowDivider" v:prompt="" v:val="VT0(0):26" />
				<v:ud v:nameU="ThisLayoutStyle" v:prompt="" v:val="VT0(0):26" />
				<v:ud v:nameU="HasPicture" v:prompt="" v:val="VT0(0):26" />
				<v:ud v:nameU="Width" v:prompt="" v:val="VT0(1):0" />
				<v:ud v:nameU="Height" v:prompt="" v:val="VT0(0.5):0" />
				<v:ud v:nameU="Prop" v:prompt="" />
				<v:ud v:nameU="PictureAspectRatio" v:prompt="" v:val="VT0(1):26" />
				<v:ud v:nameU="PictureID" v:prompt="" />
				<v:ud v:nameU="SetWidth" v:prompt="" />
				<v:ud v:nameU="SetHeight" v:prompt="" />
				<v:ud v:nameU="PositionID" v:prompt="" v:val="VT0(0):26" />
				<v:ud v:nameU="DeltaX" v:prompt="" v:val="VT0(0):26" />
				<v:ud v:nameU="DeltaY" v:prompt="" v:val="VT0(0):26" />
				<v:ud v:nameU="ParLocX" v:prompt="" v:val="VT0(0):26" />
				<v:ud v:nameU="ParLocY" v:prompt="" v:val="VT0(0):26" />
				<v:ud v:nameU="PageLoc" v:prompt="" v:val="VT0(0):26" />
				<v:ud v:nameU="ParLoc" v:prompt="" v:val="VT0(0):26" />
				<v:ud v:nameU="PictureAreaWidth" v:prompt="" v:val="VT0(0.26944444444444):0" />
				<v:ud v:nameU="PictureAreaHeight" v:prompt="" v:val="VT0(0.43611111111111):0" />
				<v:ud v:nameU="PictureAreaAspectRatio" v:prompt="" v:val="VT0(0.61783439490446):26" />
				<v:ud v:nameU="PictureWidth" v:prompt="" v:val="VT0(0.26944444444444):0" />
				<v:ud v:nameU="PictureHeight" v:prompt="" v:val="VT0(0.26944444444444):0" />
				<v:ud v:nameU="DividerOffset" v:prompt="" v:val="VT0(0.2500244913737):0" />
				<v:ud v:nameU="CalcTextLineHeight" v:prompt="" v:val="VT0(0.13333333333333):29" />
				<v:ud v:nameU="ExpandedForPicture" v:prompt="" v:val="VT0(0):26" />
				<v:ud v:nameU="Theme" v:prompt="" v:val="VT0(0):26" />
				<v:ud v:nameU="visVersion" v:prompt="" v:val="VT0(12):26" />
				<v:ud v:nameU="Width" v:prompt="" v:val="VT0(1):0" />
				<v:ud v:nameU="Height" v:prompt="" v:val="VT0(0.5):0" />
				<v:ud v:nameU="Prop" v:prompt="" v:val="VT4(Name)" />
				<v:ud v:nameU="PositionID" v:prompt="" v:val="VT4({9AE717B5-D4DD-458E-90A1-33982252C3FC})" />
				<v:ud v:nameU="DividerOffset" v:prompt="" v:val="VT0(0.25002652587891):0" />
				<v:ud v:nameU="CalcTextLineHeight" v:prompt="" v:val="VT0(0.2):29" />
			</v:userDefs>
			<title>Manager.254</title>
			<desc>security 5</desc>
			<g id="shape72-88" v:mID="72" v:groupContext="groupContent">
				<v:textBlock v:margins="rect(0,0,0,0)" />
				<v:textRect cx="36" cy="558.72" width="68.4" height="18" />
				<path d="M0 576.72 L0 540.72 L72 540.72 L72 576.72 L0 576.72 Z" class="st1" />
				<path d="M0 576.72 L0 540.72 L72 540.72 L72 576.72 L0 576.72" class="st2" />
				<path d="M1.8 574.92 L1.8 542.52 L70.2 542.52 L70.2 574.92 L1.8 574.92" class="st2" />
				<text x="15.33" y="555.12" class="st3" v:langID="1033"><v:paragraph v:horizAlign="1" /><v:tabList />security<v:newlineChar /><tspan x="32.66" dy="1.2em" class="st4">5</tspan></text>			</g>
		</g>
		<g id="group78-94" transform="translate(504.36,-198.36)" v:mID="78" v:groupContext="group">
			<v:custProps>
				<v:cp v:nameU="Department" v:lbl="Department" v:type="0" v:invis="false" v:ask="false" v:langID="1033" v:cal="0" v:val="VT4(Department)" />
				<v:cp v:nameU="Telephone" v:lbl="Telephone" v:type="0" v:invis="false" v:ask="false" v:langID="1033" v:cal="0" v:val="VT4(Telephone)" />
				<v:cp v:nameU="Name" v:lbl="Name" v:type="0" v:invis="false" v:ask="false" v:langID="1033" v:cal="0" v:val="VT4(Name)" />
				<v:cp v:nameU="Title" v:lbl="Title" v:type="0" v:invis="false" v:ask="false" v:langID="1033" v:cal="0" v:val="VT4(Title)" />
				<v:cp v:nameU="Email" v:lbl="E-mail" v:type="0" v:invis="false" v:ask="false" v:langID="1033" v:cal="0" v:val="VT4(E-mail)" />
				<v:cp v:nameU="Name" v:lbl="" v:prompt="" v:type="0" v:format="" v:sortKey="" v:invis="false" v:ask="false" v:langID="0" v:cal="0" v:val="VT4(snmpV2)" />
			</v:custProps>
			<v:userDefs>
				<v:ud v:nameU="Solsh" v:prompt="" v:val="VT15({0BF98B35-200C-41D5-8A23-20EF77CBC94A}):41" />
				<v:ud v:nameU="ShapeType" v:prompt="" v:val="VT0(1):26" />
				<v:ud v:nameU="ShowPicture" v:prompt="" v:val="VT0(0):26" />
				<v:ud v:nameU="ShowSubordinates" v:prompt="" v:val="VT0(1):26" />
				<v:ud v:nameU="DocShowPicture" v:prompt="" v:val="VT0(1):26" />
				<v:ud v:nameU="Margin" v:prompt="" v:val="VT0(0.025):0" />
				<v:ud v:nameU="HasSubordinates" v:prompt="" v:val="VT0(0):26" />
				<v:ud v:nameU="IsHidingSubs" v:prompt="" v:val="VT0(0):5" />
				<v:ud v:nameU="ShowDivider" v:prompt="" v:val="VT0(0):26" />
				<v:ud v:nameU="ThisLayoutStyle" v:prompt="" v:val="VT0(0):26" />
				<v:ud v:nameU="HasPicture" v:prompt="" v:val="VT0(0):26" />
				<v:ud v:nameU="Width" v:prompt="" v:val="VT0(1):0" />
				<v:ud v:nameU="Height" v:prompt="" v:val="VT0(0.5):0" />
				<v:ud v:nameU="Prop" v:prompt="" />
				<v:ud v:nameU="PictureAspectRatio" v:prompt="" v:val="VT0(1):26" />
				<v:ud v:nameU="PictureID" v:prompt="" />
				<v:ud v:nameU="SetWidth" v:prompt="" />
				<v:ud v:nameU="SetHeight" v:prompt="" />
				<v:ud v:nameU="PositionID" v:prompt="" v:val="VT0(0):26" />
				<v:ud v:nameU="DeltaX" v:prompt="" v:val="VT0(0):26" />
				<v:ud v:nameU="DeltaY" v:prompt="" v:val="VT0(0):26" />
				<v:ud v:nameU="ParLocX" v:prompt="" v:val="VT0(0):26" />
				<v:ud v:nameU="ParLocY" v:prompt="" v:val="VT0(0):26" />
				<v:ud v:nameU="PageLoc" v:prompt="" v:val="VT0(0):26" />
				<v:ud v:nameU="ParLoc" v:prompt="" v:val="VT0(0):26" />
				<v:ud v:nameU="PictureAreaWidth" v:prompt="" v:val="VT0(0.26944444444444):0" />
				<v:ud v:nameU="PictureAreaHeight" v:prompt="" v:val="VT0(0.43611111111111):0" />
				<v:ud v:nameU="PictureAreaAspectRatio" v:prompt="" v:val="VT0(0.61783439490446):26" />
				<v:ud v:nameU="PictureWidth" v:prompt="" v:val="VT0(0.26944444444444):0" />
				<v:ud v:nameU="PictureHeight" v:prompt="" v:val="VT0(0.26944444444444):0" />
				<v:ud v:nameU="DividerOffset" v:prompt="" v:val="VT0(0.2500244913737):0" />
				<v:ud v:nameU="CalcTextLineHeight" v:prompt="" v:val="VT0(0.13333333333333):29" />
				<v:ud v:nameU="ExpandedForPicture" v:prompt="" v:val="VT0(0):26" />
				<v:ud v:nameU="Theme" v:prompt="" v:val="VT0(0):26" />
				<v:ud v:nameU="visVersion" v:prompt="" v:val="VT0(12):26" />
				<v:ud v:nameU="Width" v:prompt="" v:val="VT0(1):0" />
				<v:ud v:nameU="Height" v:prompt="" v:val="VT0(0.5):0" />
				<v:ud v:nameU="Prop" v:prompt="" v:val="VT4(Name)" />
				<v:ud v:nameU="PositionID" v:prompt="" v:val="VT4({B74D4526-A202-4579-9418-3CC6E784FB28})" />
				<v:ud v:nameU="DividerOffset" v:prompt="" v:val="VT0(0.25002652587891):0" />
				<v:ud v:nameU="CalcTextLineHeight" v:prompt="" v:val="VT0(0.2):29" />
			</v:userDefs>
			<title>Manager.260</title>
			<desc>snmpV2 6</desc>
			<g id="shape78-95" v:mID="78" v:groupContext="groupContent">
				<v:textBlock v:margins="rect(0,0,0,0)" />
				<v:textRect cx="36" cy="558.72" width="68.4" height="18" />
				<path d="M0 576.72 L0 540.72 L72 540.72 L72 576.72 L0 576.72 Z" class="st1" />
				<path d="M0 576.72 L0 540.72 L72 540.72 L72 576.72 L0 576.72" class="st2" />
				<path d="M1.8 574.92 L1.8 542.52 L70.2 542.52 L70.2 574.92 L1.8 574.92" class="st2" />
				<text x="13.99" y="555.12" class="st3" v:langID="1033"><v:paragraph v:horizAlign="1" /><v:tabList />snmpV2<v:newlineChar /><tspan x="32.66" dy="1.2em" class="st4">6</tspan></text>			</g>
		</g>
		<g id="group84-101" transform="translate(324.36,-144.36)" v:mID="84" v:groupContext="group">
			<v:custProps>
				<v:cp v:nameU="Department" v:lbl="Department" v:type="0" v:invis="false" v:ask="false" v:langID="1033" v:cal="0" v:val="VT4(Department)" />
				<v:cp v:nameU="Telephone" v:lbl="Telephone" v:type="0" v:invis="false" v:ask="false" v:langID="1033" v:cal="0" v:val="VT4(Telephone)" />
				<v:cp v:nameU="Name" v:lbl="Name" v:type="0" v:invis="false" v:ask="false" v:langID="1033" v:cal="0" v:val="VT4(Name)" />
				<v:cp v:nameU="Title" v:lbl="Title" v:type="0" v:invis="false" v:ask="false" v:langID="1033" v:cal="0" v:val="VT4(Title)" />
				<v:cp v:nameU="Email" v:lbl="E-mail" v:type="0" v:invis="false" v:ask="false" v:langID="1033" v:cal="0" v:val="VT4(E-mail)" />
				<v:cp v:nameU="Name" v:lbl="" v:prompt="" v:type="0" v:format="" v:sortKey="" v:invis="false" v:ask="false" v:langID="0" v:cal="0" v:val="VT4(Enterprise)" />
			</v:custProps>
			<v:userDefs>
				<v:ud v:nameU="Solsh" v:prompt="" v:val="VT15({0BF98B35-200C-41D5-8A23-20EF77CBC94A}):41" />
				<v:ud v:nameU="ShapeType" v:prompt="" v:val="VT0(1):26" />
				<v:ud v:nameU="ShowPicture" v:prompt="" v:val="VT0(0):26" />
				<v:ud v:nameU="ShowSubordinates" v:prompt="" v:val="VT0(1):26" />
				<v:ud v:nameU="DocShowPicture" v:prompt="" v:val="VT0(1):26" />
				<v:ud v:nameU="Margin" v:prompt="" v:val="VT0(0.025):0" />
				<v:ud v:nameU="HasSubordinates" v:prompt="" v:val="VT0(0):26" />
				<v:ud v:nameU="IsHidingSubs" v:prompt="" v:val="VT0(0):5" />
				<v:ud v:nameU="ShowDivider" v:prompt="" v:val="VT0(0):26" />
				<v:ud v:nameU="ThisLayoutStyle" v:prompt="" v:val="VT0(0):26" />
				<v:ud v:nameU="HasPicture" v:prompt="" v:val="VT0(0):26" />
				<v:ud v:nameU="Width" v:prompt="" v:val="VT0(1):0" />
				<v:ud v:nameU="Height" v:prompt="" v:val="VT0(0.5):0" />
				<v:ud v:nameU="Prop" v:prompt="" />
				<v:ud v:nameU="PictureAspectRatio" v:prompt="" v:val="VT0(1):26" />
				<v:ud v:nameU="PictureID" v:prompt="" />
				<v:ud v:nameU="SetWidth" v:prompt="" />
				<v:ud v:nameU="SetHeight" v:prompt="" />
				<v:ud v:nameU="PositionID" v:prompt="" v:val="VT0(0):26" />
				<v:ud v:nameU="DeltaX" v:prompt="" v:val="VT0(0):26" />
				<v:ud v:nameU="DeltaY" v:prompt="" v:val="VT0(0):26" />
				<v:ud v:nameU="ParLocX" v:prompt="" v:val="VT0(0):26" />
				<v:ud v:nameU="ParLocY" v:prompt="" v:val="VT0(0):26" />
				<v:ud v:nameU="PageLoc" v:prompt="" v:val="VT0(0):26" />
				<v:ud v:nameU="ParLoc" v:prompt="" v:val="VT0(0):26" />
				<v:ud v:nameU="PictureAreaWidth" v:prompt="" v:val="VT0(0.26944444444444):0" />
				<v:ud v:nameU="PictureAreaHeight" v:prompt="" v:val="VT0(0.43611111111111):0" />
				<v:ud v:nameU="PictureAreaAspectRatio" v:prompt="" v:val="VT0(0.61783439490446):26" />
				<v:ud v:nameU="PictureWidth" v:prompt="" v:val="VT0(0.26944444444444):0" />
				<v:ud v:nameU="PictureHeight" v:prompt="" v:val="VT0(0.26944444444444):0" />
				<v:ud v:nameU="DividerOffset" v:prompt="" v:val="VT0(0.2500244913737):0" />
				<v:ud v:nameU="CalcTextLineHeight" v:prompt="" v:val="VT0(0.13333333333333):29" />
				<v:ud v:nameU="ExpandedForPicture" v:prompt="" v:val="VT0(0):26" />
				<v:ud v:nameU="Theme" v:prompt="" v:val="VT0(0):26" />
				<v:ud v:nameU="visVersion" v:prompt="" v:val="VT0(12):26" />
				<v:ud v:nameU="HasSubordinates" v:prompt="" v:val="VT0(1):26" />
				<v:ud v:nameU="ThisLayoutStyle" v:prompt="" v:val="VT0(100):26" />
				<v:ud v:nameU="Width" v:prompt="" v:val="VT0(1):0" />
				<v:ud v:nameU="Height" v:prompt="" v:val="VT0(0.5):0" />
				<v:ud v:nameU="Prop" v:prompt="" v:val="VT4(Name)" />
				<v:ud v:nameU="PositionID" v:prompt="" v:val="VT4({2B571DC6-5272-4660-8F1B-F3D0EABD90FA})" />
				<v:ud v:nameU="DeltaY" v:prompt="" v:val="VT0(-0.75):26" />
				<v:ud v:nameU="ParLocX" v:prompt="" v:val="VT0(5.005):0" />
				<v:ud v:nameU="ParLocY" v:prompt="" v:val="VT0(3.005):0" />
				<v:ud v:nameU="PageLoc" v:prompt="" v:val="VT7(PNT(5.005IN,2.255IN)):40" />
				<v:ud v:nameU="ParLoc" v:prompt="" v:val="VT7(PNT(5.005IN,3.005IN)):40" />
				<v:ud v:nameU="DividerOffset" v:prompt="" v:val="VT0(0.25002652587891):0" />
				<v:ud v:nameU="CalcTextLineHeight" v:prompt="" v:val="VT0(0.2):29" />
			</v:userDefs>
			<title>Manager.266</title>
			<desc>Enterprise 1</desc>
			<g id="shape84-102" v:mID="84" v:groupContext="groupContent">
				<v:textBlock v:margins="rect(0,0,0,0)" />
				<v:textRect cx="36" cy="558.72" width="68.4" height="18" />
				<path d="M0 576.72 L0 540.72 L72 540.72 L72 576.72 L0 576.72 Z" class="st5" />
				<path d="M0 576.72 L0 540.72 L72 540.72 L72 576.72 L0 576.72" class="st2" />
				<path d="M1.8 574.92 L1.8 542.52 L70.2 542.52 L70.2 574.92 L1.8 574.92" class="st2" />
				<text x="8.65" y="555.12" class="st3" v:langID="1033"><v:paragraph v:horizAlign="1" /><v:tabList />Enterprise<v:newlineChar /><tspan x="32.66" dy="1.2em" class="st4">1</tspan></text>			</g>
		</g>
		<g id="shape89-108" v:mID="89" v:groupContext="shape" transform="translate(353.16,-198.36)">
			<title>Dynamic connector.271</title>
			<v:userDefs>
				<v:ud v:nameU="ShapeClass" v:val="VT4({D84F7AF5-C993-11d1-B2E7-006008BD347E})" />
				<v:ud v:nameU="OwnerUniqueID" v:val="VT0(-1):26" />
				<v:ud v:nameU="visVersion" v:val="VT0(12):26" />
			</v:userDefs>
			<path d="M7.2 576.72 L7.2 594.72" class="st2" />
		</g>
		<g id="group90-111" transform="translate(324.36,-90.36)" v:mID="90" v:groupContext="group">
			<v:custProps>
				<v:cp v:nameU="Department" v:lbl="Department" v:type="0" v:invis="false" v:ask="false" v:langID="1033" v:cal="0" v:val="VT4(Department)" />
				<v:cp v:nameU="Telephone" v:lbl="Telephone" v:type="0" v:invis="false" v:ask="false" v:langID="1033" v:cal="0" v:val="VT4(Telephone)" />
				<v:cp v:nameU="Name" v:lbl="Name" v:type="0" v:invis="false" v:ask="false" v:langID="1033" v:cal="0" v:val="VT4(Name)" />
				<v:cp v:nameU="Title" v:lbl="Title" v:type="0" v:invis="false" v:ask="false" v:langID="1033" v:cal="0" v:val="VT4(Title)" />
				<v:cp v:nameU="Email" v:lbl="E-mail" v:type="0" v:invis="false" v:ask="false" v:langID="1033" v:cal="0" v:val="VT4(E-mail)" />
				<v:cp v:nameU="Name" v:lbl="" v:prompt="" v:type="0" v:format="" v:sortKey="" v:invis="false" v:ask="false" v:langID="0" v:cal="0" v:val="VT4(Tekno)" />
			</v:custProps>
			<v:userDefs>
				<v:ud v:nameU="Solsh" v:prompt="" v:val="VT15({0BF98B35-200C-41D5-8A23-20EF77CBC94A}):41" />
				<v:ud v:nameU="ShapeType" v:prompt="" v:val="VT0(1):26" />
				<v:ud v:nameU="ShowPicture" v:prompt="" v:val="VT0(0):26" />
				<v:ud v:nameU="ShowSubordinates" v:prompt="" v:val="VT0(1):26" />
				<v:ud v:nameU="DocShowPicture" v:prompt="" v:val="VT0(1):26" />
				<v:ud v:nameU="Margin" v:prompt="" v:val="VT0(0.025):0" />
				<v:ud v:nameU="HasSubordinates" v:prompt="" v:val="VT0(0):26" />
				<v:ud v:nameU="IsHidingSubs" v:prompt="" v:val="VT0(0):5" />
				<v:ud v:nameU="ShowDivider" v:prompt="" v:val="VT0(0):26" />
				<v:ud v:nameU="ThisLayoutStyle" v:prompt="" v:val="VT0(0):26" />
				<v:ud v:nameU="HasPicture" v:prompt="" v:val="VT0(0):26" />
				<v:ud v:nameU="Width" v:prompt="" v:val="VT0(1):0" />
				<v:ud v:nameU="Height" v:prompt="" v:val="VT0(0.5):0" />
				<v:ud v:nameU="Prop" v:prompt="" />
				<v:ud v:nameU="PictureAspectRatio" v:prompt="" v:val="VT0(1):26" />
				<v:ud v:nameU="PictureID" v:prompt="" />
				<v:ud v:nameU="SetWidth" v:prompt="" />
				<v:ud v:nameU="SetHeight" v:prompt="" />
				<v:ud v:nameU="PositionID" v:prompt="" v:val="VT0(0):26" />
				<v:ud v:nameU="DeltaX" v:prompt="" v:val="VT0(0):26" />
				<v:ud v:nameU="DeltaY" v:prompt="" v:val="VT0(0):26" />
				<v:ud v:nameU="ParLocX" v:prompt="" v:val="VT0(0):26" />
				<v:ud v:nameU="ParLocY" v:prompt="" v:val="VT0(0):26" />
				<v:ud v:nameU="PageLoc" v:prompt="" v:val="VT0(0):26" />
				<v:ud v:nameU="ParLoc" v:prompt="" v:val="VT0(0):26" />
				<v:ud v:nameU="PictureAreaWidth" v:prompt="" v:val="VT0(0.26944444444444):0" />
				<v:ud v:nameU="PictureAreaHeight" v:prompt="" v:val="VT0(0.43611111111111):0" />
				<v:ud v:nameU="PictureAreaAspectRatio" v:prompt="" v:val="VT0(0.61783439490446):26" />
				<v:ud v:nameU="PictureWidth" v:prompt="" v:val="VT0(0.26944444444444):0" />
				<v:ud v:nameU="PictureHeight" v:prompt="" v:val="VT0(0.26944444444444):0" />
				<v:ud v:nameU="DividerOffset" v:prompt="" v:val="VT0(0.2500244913737):0" />
				<v:ud v:nameU="CalcTextLineHeight" v:prompt="" v:val="VT0(0.13333333333333):29" />
				<v:ud v:nameU="ExpandedForPicture" v:prompt="" v:val="VT0(0):26" />
				<v:ud v:nameU="Theme" v:prompt="" v:val="VT0(0):26" />
				<v:ud v:nameU="visVersion" v:prompt="" v:val="VT0(12):26" />
				<v:ud v:nameU="ThisLayoutStyle" v:prompt="" v:val="VT0(100):26" />
				<v:ud v:nameU="Width" v:prompt="" v:val="VT0(1):0" />
				<v:ud v:nameU="Height" v:prompt="" v:val="VT0(0.5):0" />
				<v:ud v:nameU="Prop" v:prompt="" v:val="VT4(Name)" />
				<v:ud v:nameU="PositionID" v:prompt="" v:val="VT4({1A05FED5-112B-499F-B469-5690114E1082})" />
				<v:ud v:nameU="DeltaY" v:prompt="" v:val="VT0(-0.75):26" />
				<v:ud v:nameU="ParLocX" v:prompt="" v:val="VT0(5.005):0" />
				<v:ud v:nameU="ParLocY" v:prompt="" v:val="VT0(2.255):0" />
				<v:ud v:nameU="PageLoc" v:prompt="" v:val="VT7(PNT(5.005IN,1.505IN)):40" />
				<v:ud v:nameU="ParLoc" v:prompt="" v:val="VT7(PNT(5.005IN,2.255IN)):40" />
				<v:ud v:nameU="DividerOffset" v:prompt="" v:val="VT0(0.25002652587891):0" />
				<v:ud v:nameU="CalcTextLineHeight" v:prompt="" v:val="VT0(0.2):29" />
			</v:userDefs>
			<title>Manager.272</title>
			<desc>Tekno 36872</desc>
			<g id="shape90-112" v:mID="90" v:groupContext="groupContent">
				<v:textBlock v:margins="rect(0,0,0,0)" />
				<v:textRect cx="36" cy="558.72" width="68.4" height="18" />
				<path d="M0 576.72 L0 540.72 L72 540.72 L72 576.72 L0 576.72 Z" class="st5" />
				<path d="M0 576.72 L0 540.72 L72 540.72 L72 576.72 L0 576.72" class="st2" />
				<path d="M1.8 574.92 L1.8 542.52 L70.2 542.52 L70.2 574.92 L1.8 574.92" class="st2" />
				<text x="19.32" y="555.12" class="st3" v:langID="1033"><v:paragraph v:horizAlign="1" /><v:tabList />Tekno<v:newlineChar /><v:paragraph v:horizAlign="1" /><tspan x="19.32" dy="1.2em" class="st4">36872</tspan></text>			</g>
		</g>
		<g id="shape95-118" v:mID="95" v:groupContext="shape" transform="translate(353.16,-144.36)">
			<title>Dynamic connector.277</title>
			<v:userDefs>
				<v:ud v:nameU="ShapeClass" v:val="VT4({D84F7AF5-C993-11d1-B2E7-006008BD347E})" />
				<v:ud v:nameU="OwnerUniqueID" v:val="VT0(-1):26" />
				<v:ud v:nameU="visVersion" v:val="VT0(12):26" />
			</v:userDefs>
			<path d="M7.2 576.72 L7.2 594.72" class="st2" />
		</g>
		<g id="shape11-121" v:mID="11" v:groupContext="shape" v:layerMember="0" transform="translate(703.08,127.62) rotate(90)">
			<title>Multi-tree square.11</title>
			<v:userDefs>
				<v:ud v:nameU="Scale" v:val="VT0(1):26" />
				<v:ud v:nameU="AntiScale" v:val="VT0(1):26" />
				<v:ud v:nameU="visVersion" v:val="VT0(12):26" />
			</v:userDefs>
			<path d="M0 576.72 L16.74 576.72" class="st2" />
			<path d="M16.74 576.72 L16.74 630.72 L36 630.72" class="st2" />
			<path d="M16.74 576.72 L16.74 504.72 L36 504.72" class="st2" />
			<path d="M16.74 576.72 L2.56 576.72" class="st2" />
			<path d="M16.74 576.72 L2.56 576.72" class="st2" />
			<path d="M16.74 576.72 L2.56 576.72" class="st2" />
			<path d="M16.74 576.72 L2.56 576.72" class="st2" />
		</g>
		<g id="shape17-130" v:mID="17" v:groupContext="shape" v:layerMember="0" transform="translate(-378.36,199.62) rotate(-90) scale(-1,1)">
			<title>Line connector</title>
			<v:userDefs>
				<v:ud v:nameU="visVersion" v:val="VT0(12):26" />
			</v:userDefs>
			<path d="M0 576.72 L17.87 576.72" class="st2" />
		</g>
		<g id="shape29-133" v:mID="29" v:groupContext="shape" v:layerMember="0" transform="translate(937.08,486.36) rotate(90)">
			<title>Multi-tree square.29</title>
			<v:userDefs>
				<v:ud v:nameU="Scale" v:val="VT0(1):26" />
				<v:ud v:nameU="AntiScale" v:val="VT0(1):26" />
				<v:ud v:nameU="visVersion" v:val="VT0(12):26" />
			</v:userDefs>
			<path d="M0 576.72 L18 576.72" class="st2" />
			<path d="M18 576.72 L3.6 576.72" class="st2" />
			<path d="M18 576.72 L18 459.72 L36 459.72" class="st2" />
			<path d="M18 576.72 L18 459.72 L36 459.72" class="st2" />
			<path d="M18 576.72 L18 666.72 L36 666.72" class="st2" />
			<path d="M18 576.72 L3.82 576.72" class="st2" />
		</g>
		<g id="shape35-141" v:mID="35" v:groupContext="shape" v:layerMember="0" transform="translate(703.08,54.36) rotate(90)">
			<title>Multi-tree square.35</title>
			<v:userDefs>
				<v:ud v:nameU="Scale" v:val="VT0(1):26" />
				<v:ud v:nameU="AntiScale" v:val="VT0(1):26" />
				<v:ud v:nameU="visVersion" v:val="VT0(12):26" />
			</v:userDefs>
			<path d="M0 576.72 L18 576.72" class="st2" />
			<path d="M18 576.72 L18 666.72 L37.26 666.72" class="st2" />
			<path d="M18 576.72 L18 484.47 L37.26 484.47" class="st2" />
			<path d="M18 576.72 L37.26 576.72" class="st2" />
			<path d="M18 576.72 L3.82 576.72" class="st2" />
			<path d="M18 576.72 L3.82 576.72" class="st2" />
			<path d="M18 576.72 L3.82 576.72" class="st2" />
		</g>
		<g id="shape23-150" v:mID="23" v:groupContext="shape" v:layerMember="0" transform="translate(775.08,307.485) rotate(90)">
			<title>Multi-tree square</title>
			<v:userDefs>
				<v:ud v:nameU="Scale" v:val="VT0(1):26" />
				<v:ud v:nameU="AntiScale" v:val="VT0(1):26" />
				<v:ud v:nameU="visVersion" v:val="VT0(12):26" />
			</v:userDefs>
			<path d="M0 576.72 L16.87 576.72" class="st2" />
			<path d="M16.87 576.72 L16.87 684.72 L34.88 684.72" class="st2" />
			<path d="M16.87 576.72 L16.87 234.72 L34.87 234.72" class="st2" />
			<path d="M16.87 576.72 L16.87 594.72 L34.88 594.72" class="st2" />
			<path d="M16.87 576.72 L16.87 504 L34.87 504" class="st2" />
			<path d="M16.87 576.72 L16.87 414.72 L34.87 414.72" class="st2" />
			<path d="M16.87 576.72 L16.87 324.72 L34.87 324.72" class="st2" />
		</g>
		<g id="shape111-159" v:mID="111" v:groupContext="shape" transform="translate(423.36,-102.36)">
			<title>Sheet.111</title>
			<desc>OID: 1.3.6.1.4.1.36872</desc>
			<v:textBlock v:margins="rect(0,0,0,0)" />
			<v:textRect cx="72" cy="570.72" width="144" height="12" />
			<rect x="0" y="564.72" width="144" height="12" class="st6" />
			<text x="11.29" y="574.32" class="st3" v:langID="1033"><v:paragraph v:horizAlign="1" /><v:tabList />OID: 1.3.6.1.4.1.36872</text>		</g>
		<g id="shape112-162" v:mID="112" v:groupContext="shape" transform="translate(432.36,1045.08) rotate(180)">
			<title>Sheet.112</title>
			<path d="M0 576.72 L30.33 576.72" class="st7" />
		</g>
		<g id="group113-168" transform="translate(427.86,-0.36)" v:mID="113" v:groupContext="group">
			<v:custProps>
				<v:cp v:nameU="Department" v:lbl="Department" v:type="0" v:invis="false" v:ask="false" v:langID="1033" v:cal="0" v:val="VT4(Department)" />
				<v:cp v:nameU="Telephone" v:lbl="Telephone" v:type="0" v:invis="false" v:ask="false" v:langID="1033" v:cal="0" v:val="VT4(Telephone)" />
				<v:cp v:nameU="Name" v:lbl="Name" v:type="0" v:invis="false" v:ask="false" v:langID="1033" v:cal="0" v:val="VT4(Name)" />
				<v:cp v:nameU="Title" v:lbl="Title" v:type="0" v:invis="false" v:ask="false" v:langID="1033" v:cal="0" v:val="VT4(Title)" />
				<v:cp v:nameU="Email" v:lbl="E-mail" v:type="0" v:invis="false" v:ask="false" v:langID="1033" v:cal="0" v:val="VT4(E-mail)" />
				<v:cp v:nameU="Name" v:lbl="" v:prompt="" v:type="0" v:format="" v:sortKey="" v:invis="false" v:ask="false" v:langID="0" v:cal="0" v:val="VT4(teknoProduction)" />
			</v:custProps>
			<v:userDefs>
				<v:ud v:nameU="Solsh" v:prompt="" v:val="VT15({0BF98B35-200C-41D5-8A23-20EF77CBC94A}):41" />
				<v:ud v:nameU="ShapeType" v:prompt="" v:val="VT0(1):26" />
				<v:ud v:nameU="ShowPicture" v:prompt="" v:val="VT0(0):26" />
				<v:ud v:nameU="ShowSubordinates" v:prompt="" v:val="VT0(1):26" />
				<v:ud v:nameU="DocShowPicture" v:prompt="" v:val="VT0(1):26" />
				<v:ud v:nameU="Margin" v:prompt="" v:val="VT0(0.025):0" />
				<v:ud v:nameU="HasSubordinates" v:prompt="" v:val="VT0(0):26" />
				<v:ud v:nameU="IsHidingSubs" v:prompt="" v:val="VT0(0):5" />
				<v:ud v:nameU="ShowDivider" v:prompt="" v:val="VT0(0):26" />
				<v:ud v:nameU="ThisLayoutStyle" v:prompt="" v:val="VT0(0):26" />
				<v:ud v:nameU="HasPicture" v:prompt="" v:val="VT0(0):26" />
				<v:ud v:nameU="Width" v:prompt="" v:val="VT0(1):0" />
				<v:ud v:nameU="Height" v:prompt="" v:val="VT0(0.5):0" />
				<v:ud v:nameU="Prop" v:prompt="" />
				<v:ud v:nameU="PictureAspectRatio" v:prompt="" v:val="VT0(1):26" />
				<v:ud v:nameU="PictureID" v:prompt="" />
				<v:ud v:nameU="SetWidth" v:prompt="" />
				<v:ud v:nameU="SetHeight" v:prompt="" />
				<v:ud v:nameU="PositionID" v:prompt="" v:val="VT0(0):26" />
				<v:ud v:nameU="DeltaX" v:prompt="" v:val="VT0(0):26" />
				<v:ud v:nameU="DeltaY" v:prompt="" v:val="VT0(0):26" />
				<v:ud v:nameU="ParLocX" v:prompt="" v:val="VT0(0):26" />
				<v:ud v:nameU="ParLocY" v:prompt="" v:val="VT0(0):26" />
				<v:ud v:nameU="PageLoc" v:prompt="" v:val="VT0(0):26" />
				<v:ud v:nameU="ParLoc" v:prompt="" v:val="VT0(0):26" />
				<v:ud v:nameU="PictureAreaWidth" v:prompt="" v:val="VT0(0.26944444444444):0" />
				<v:ud v:nameU="PictureAreaHeight" v:prompt="" v:val="VT0(0.43611111111111):0" />
				<v:ud v:nameU="PictureAreaAspectRatio" v:prompt="" v:val="VT0(0.61783439490446):26" />
				<v:ud v:nameU="PictureWidth" v:prompt="" v:val="VT0(0.26944444444444):0" />
				<v:ud v:nameU="PictureHeight" v:prompt="" v:val="VT0(0.26944444444444):0" />
				<v:ud v:nameU="DividerOffset" v:prompt="" v:val="VT0(0.2500244913737):0" />
				<v:ud v:nameU="CalcTextLineHeight" v:prompt="" v:val="VT0(0.13333333333333):29" />
				<v:ud v:nameU="ExpandedForPicture" v:prompt="" v:val="VT0(0):26" />
				<v:ud v:nameU="Theme" v:prompt="" v:val="VT0(0):26" />
				<v:ud v:nameU="visVersion" v:prompt="" v:val="VT0(12):26" />
				<v:ud v:nameU="Width" v:prompt="" v:val="VT0(1.375):1" />
				<v:ud v:nameU="Height" v:prompt="" v:val="VT0(0.75):1" />
				<v:ud v:nameU="Prop" v:prompt="" v:val="VT4(Name)" />
				<v:ud v:nameU="PositionID" v:prompt="" v:val="VT4({9DC9FD44-0B27-4B03-874A-83211B562631})" />
				<v:ud v:nameU="PictureAreaWidth" v:prompt="" v:val="VT0(0.39444444444444):0" />
				<v:ud v:nameU="PictureAreaHeight" v:prompt="" v:val="VT0(0.68611111111111):0" />
				<v:ud v:nameU="PictureAreaAspectRatio" v:prompt="" v:val="VT0(0.5748987854251):26" />
				<v:ud v:nameU="PictureWidth" v:prompt="" v:val="VT0(0.39444444444444):0" />
				<v:ud v:nameU="PictureHeight" v:prompt="" v:val="VT0(0.39444444444444):0" />
				<v:ud v:nameU="DividerOffset" v:prompt="" v:val="VT0(0.37502652587891):29" />
				<v:ud v:nameU="CalcTextLineHeight" v:prompt="" v:val="VT0(0.2):29" />
			</v:userDefs>
			<title>Manager.113</title>
			<desc>teknoProduction 2</desc>
			<g id="shape113-169" v:mID="113" v:groupContext="groupContent">
				<v:textBlock v:margins="rect(0,0,0,0)" />
				<v:textRect cx="49.5" cy="549.72" width="94.05" height="27" />
				<path d="M0 576.72 L0 522.72 L99 522.72 L99 576.72 L0 576.72 Z" class="st9" />
				<path d="M0 576.72 L0 522.72 L99 522.72 L99 576.72 L0 576.72" class="st2" />
				<path d="M1.8 574.92 L1.8 524.52 L97.2 524.52 L97.2 574.92 L1.8 574.92" class="st2" />
				<text x="6.14" y="546.12" class="st3" v:langID="1033"><v:paragraph v:horizAlign="1" /><v:tabList />teknoProduction<v:newlineChar /><tspan x="46.16" dy="1.2em" class="st4">2</tspan></text>			</g>
		</g>
		<g id="group118-175" transform="translate(214.11,-0.36)" v:mID="118" v:groupContext="group">
			<v:custProps>
				<v:cp v:nameU="Department" v:lbl="Department" v:type="0" v:invis="false" v:ask="false" v:langID="1033" v:cal="0" v:val="VT4(Department)" />
				<v:cp v:nameU="Telephone" v:lbl="Telephone" v:type="0" v:invis="false" v:ask="false" v:langID="1033" v:cal="0" v:val="VT4(Telephone)" />
				<v:cp v:nameU="Name" v:lbl="Name" v:type="0" v:invis="false" v:ask="false" v:langID="1033" v:cal="0" v:val="VT4(Name)" />
				<v:cp v:nameU="Title" v:lbl="Title" v:type="0" v:invis="false" v:ask="false" v:langID="1033" v:cal="0" v:val="VT4(Title)" />
				<v:cp v:nameU="Email" v:lbl="E-mail" v:type="0" v:invis="false" v:ask="false" v:langID="1033" v:cal="0" v:val="VT4(E-mail)" />
				<v:cp v:nameU="Name" v:lbl="" v:prompt="" v:type="0" v:format="" v:sortKey="" v:invis="false" v:ask="false" v:langID="0" v:cal="0" v:val="VT4(teknoExperimental)" />
				<v:cp v:nameU="Calendar" v:lbl="" v:prompt="" v:type="0" v:format="" v:sortKey="" v:invis="false" v:ask="false" v:langID="0" v:cal="0" />
			</v:custProps>
			<v:userDefs>
				<v:ud v:nameU="Solsh" v:prompt="" v:val="VT15({0BF98B35-200C-41D5-8A23-20EF77CBC94A}):41" />
				<v:ud v:nameU="ShapeType" v:prompt="" v:val="VT0(1):26" />
				<v:ud v:nameU="ShowPicture" v:prompt="" v:val="VT0(0):26" />
				<v:ud v:nameU="ShowSubordinates" v:prompt="" v:val="VT0(1):26" />
				<v:ud v:nameU="DocShowPicture" v:prompt="" v:val="VT0(1):26" />
				<v:ud v:nameU="Margin" v:prompt="" v:val="VT0(0.025):0" />
				<v:ud v:nameU="HasSubordinates" v:prompt="" v:val="VT0(0):26" />
				<v:ud v:nameU="IsHidingSubs" v:prompt="" v:val="VT0(0):5" />
				<v:ud v:nameU="ShowDivider" v:prompt="" v:val="VT0(0):26" />
				<v:ud v:nameU="ThisLayoutStyle" v:prompt="" v:val="VT0(0):26" />
				<v:ud v:nameU="HasPicture" v:prompt="" v:val="VT0(0):26" />
				<v:ud v:nameU="Width" v:prompt="" v:val="VT0(1):0" />
				<v:ud v:nameU="Height" v:prompt="" v:val="VT0(0.5):0" />
				<v:ud v:nameU="Prop" v:prompt="" />
				<v:ud v:nameU="PictureAspectRatio" v:prompt="" v:val="VT0(1):26" />
				<v:ud v:nameU="PictureID" v:prompt="" />
				<v:ud v:nameU="SetWidth" v:prompt="" />
				<v:ud v:nameU="SetHeight" v:prompt="" />
				<v:ud v:nameU="PositionID" v:prompt="" v:val="VT0(0):26" />
				<v:ud v:nameU="DeltaX" v:prompt="" v:val="VT0(0):26" />
				<v:ud v:nameU="DeltaY" v:prompt="" v:val="VT0(0):26" />
				<v:ud v:nameU="ParLocX" v:prompt="" v:val="VT0(0):26" />
				<v:ud v:nameU="ParLocY" v:prompt="" v:val="VT0(0):26" />
				<v:ud v:nameU="PageLoc" v:prompt="" v:val="VT0(0):26" />
				<v:ud v:nameU="ParLoc" v:prompt="" v:val="VT0(0):26" />
				<v:ud v:nameU="PictureAreaWidth" v:prompt="" v:val="VT0(0.26944444444444):0" />
				<v:ud v:nameU="PictureAreaHeight" v:prompt="" v:val="VT0(0.43611111111111):0" />
				<v:ud v:nameU="PictureAreaAspectRatio" v:prompt="" v:val="VT0(0.61783439490446):26" />
				<v:ud v:nameU="PictureWidth" v:prompt="" v:val="VT0(0.26944444444444):0" />
				<v:ud v:nameU="PictureHeight" v:prompt="" v:val="VT0(0.26944444444444):0" />
				<v:ud v:nameU="DividerOffset" v:prompt="" v:val="VT0(0.2500244913737):0" />
				<v:ud v:nameU="CalcTextLineHeight" v:prompt="" v:val="VT0(0.13333333333333):29" />
				<v:ud v:nameU="ExpandedForPicture" v:prompt="" v:val="VT0(0):26" />
				<v:ud v:nameU="Theme" v:prompt="" v:val="VT0(0):26" />
				<v:ud v:nameU="visVersion" v:prompt="" v:val="VT0(12):26" />
				<v:ud v:nameU="Width" v:prompt="" v:val="VT0(1.5625):1" />
				<v:ud v:nameU="Height" v:prompt="" v:val="VT0(0.75):1" />
				<v:ud v:nameU="Prop" v:prompt="" v:val="VT4(Name)" />
				<v:ud v:nameU="PositionID" v:prompt="" v:val="VT4({3D8D3FE7-6062-46A5-8982-1E5E507CDE19})" />
				<v:ud v:nameU="ParLocX" v:prompt="" v:val="VT0(0):26" />
				<v:ud v:nameU="ParLocY" v:prompt="" v:val="VT0(0):26" />
				<v:ud v:nameU="PageLoc" v:prompt="" v:val="VT7(PNT(0,0)):40" />
				<v:ud v:nameU="PictureAreaWidth" v:prompt="" v:val="VT0(0.45694444444444):0" />
				<v:ud v:nameU="PictureAreaHeight" v:prompt="" v:val="VT0(0.68611111111111):0" />
				<v:ud v:nameU="PictureAreaAspectRatio" v:prompt="" v:val="VT0(0.66599190283401):26" />
				<v:ud v:nameU="PictureWidth" v:prompt="" v:val="VT0(0.45694444444444):0" />
				<v:ud v:nameU="PictureHeight" v:prompt="" v:val="VT0(0.45694444444444):0" />
				<v:ud v:nameU="DividerOffset" v:prompt="" v:val="VT0(0.37502652587891):29" />
				<v:ud v:nameU="CalcTextLineHeight" v:prompt="" v:val="VT0(0.2):29" />
			</v:userDefs>
			<title>Manager.172</title>
			<desc>teknoExperimental 1</desc>
			<g id="shape118-176" v:mID="118" v:groupContext="groupContent">
				<v:textBlock v:margins="rect(0,0,0,0)" />
				<v:textRect cx="56.25" cy="549.72" width="106.88" height="27" />
				<path d="M0 576.72 L0 522.72 L112.5 522.72 L112.5 576.72 L0 576.72 Z" class="st5" />
				<path d="M0 576.72 L0 522.72 L112.5 522.72 L112.5 576.72 L0 576.72" class="st2" />
				<path d="M1.8 574.92 L1.8 524.52 L110.7 524.52 L110.7 574.92 L1.8 574.92" class="st2" />
				<text x="6.56" y="546.12" class="st3" v:langID="1033"><v:paragraph v:horizAlign="1" /><v:tabList />teknoExperimental<v:newlineChar /><tspan x="52.91" dy="1.2em" class="st4">1</tspan></text>			</g>
		</g>
	</g>
</svg>