<?xml version="1.0" encoding="UTF-8" standalone="no"?>
<!DOCTYPE svg PUBLIC "-//W3C//DTD SVG 1.1//EN" "http://www.w3.org/Graphics/SVG/1.1/DTD/svg11.dtd">
<!-- Generated by Microsoft Visio, SVG Export SNMP_adminILMMIB_Hierarchy-v2.svg Page-1 -->
<svg xmlns="http://www.w3.org/2000/svg" xmlns:xlink="http://www.w3.org/1999/xlink" xmlns:ev="http://www.w3.org/2001/xml-events"
		xmlns:v="http://schemas.microsoft.com/visio/2003/SVGExtensions/" width="8.52538in" height="7.96096in"
		viewBox="0 0 613.828 573.189" xml:space="preserve" color-interpolation-filters="sRGB" class="st10">
	<v:documentProperties v:langID="1033" v:viewMarkup="false">
		<v:userDefs>
			<v:ud v:nameU="msvConvertTheme"/>
			<v:ud v:nameU="DocShowPicture" v:prompt="" v:val="VT0(1):26"/>
		</v:userDefs>
	</v:documentProperties>

	<style type="text/css">
	<![CDATA[
		.st1 {fill:#d5dfeb}
		.st2 {stroke:#000000;stroke-linecap:round;stroke-linejoin:round;stroke-width:0.72}
		.st3 {fill:#000000;font-family:Arial;font-size:1.00001em}
		.st4 {font-size:1em}
		.st5 {fill:none;stroke:none;stroke-linecap:round;stroke-linejoin:round;stroke-width:0.72}
		.st6 {marker-end:url(#mrkr5-87);stroke:#000000;stroke-linecap:round;stroke-linejoin:round;stroke-width:0.72}
		.st7 {fill:#000000;fill-opacity:1;stroke:#000000;stroke-opacity:1;stroke-width:0.22222222222222}
		.st8 {fill:#e5b9b5}
		.st9 {fill:#ccc2d9}
		.st10 {fill:none;fill-rule:evenodd;font-size:12px;overflow:visible;stroke-linecap:square;stroke-miterlimit:3}
	]]>
	</style>

	<defs id="Markers">
		<g id="lend5">
			<path d="M 2 1 L 0 0 L 1.98117 -0.993387 C 1.67173 -0.364515 1.67301 0.372641 1.98465 1.00043 " style="stroke:none"/>
		</g>
		<marker id="mrkr5-87" class="st7" v:arrowType="5" v:arrowSize="2" v:setback="7.875" refX="-7.875" orient="auto"
				markerUnits="strokeWidth" overflow="visible">
			<use xlink:href="#lend5" transform="scale(-4.5,-4.5) "/>
		</marker>
	</defs>
	<g v:mID="0" v:index="1" v:groupContext="foregroundPage">
		<title>Page-1</title>
		<v:pageProperties v:drawingScale="1" v:pageScale="1" v:drawingUnits="0" v:shadowOffsetX="9" v:shadowOffsetY="-9"/>
		<v:layer v:name="Connector" v:index="0"/>
		<g id="group1-1" transform="translate(45.9798,-410.137) rotate(0.2)" v:mID="1" v:groupContext="group">
			<v:custProps>
				<v:cp v:nameU="Department" v:lbl="Department" v:type="0" v:invis="false" v:ask="false" v:langID="1033" v:cal="0"
						v:val="VT4(Department)"/>
				<v:cp v:nameU="Telephone" v:lbl="Telephone" v:type="0" v:invis="false" v:ask="false" v:langID="1033" v:cal="0"
						v:val="VT4(Telephone)"/>
				<v:cp v:nameU="Name" v:lbl="Name" v:type="0" v:invis="false" v:ask="false" v:langID="1033" v:cal="0"
						v:val="VT4(Name)"/>
				<v:cp v:nameU="Title" v:lbl="Title" v:type="0" v:invis="false" v:ask="false" v:langID="1033" v:cal="0"
						v:val="VT4(Title)"/>
				<v:cp v:nameU="Email" v:lbl="E-mail" v:type="0" v:invis="false" v:ask="false" v:langID="1033" v:cal="0"
						v:val="VT4(E-mail)"/>
				<v:cp v:nameU="Name" v:lbl="" v:prompt="" v:type="0" v:format="" v:sortKey="" v:invis="false" v:ask="false"
						v:langID="0" v:cal="0" v:val="VT4(adminILMMIB)"/>
				<v:cp v:nameU="Calendar" v:lbl="" v:prompt="" v:type="0" v:format="" v:sortKey="" v:invis="false" v:ask="false"
						v:langID="0" v:cal="0"/>
			</v:custProps>
			<v:userDefs>
				<v:ud v:nameU="Solsh" v:prompt="" v:val="VT15({0BF98B35-200C-41D5-8A23-20EF77CBC94A}):41"/>
				<v:ud v:nameU="ShapeType" v:prompt="" v:val="VT0(1):26"/>
				<v:ud v:nameU="ShowPicture" v:prompt="" v:val="VT0(0):26"/>
				<v:ud v:nameU="ShowSubordinates" v:prompt="" v:val="VT0(1):26"/>
				<v:ud v:nameU="DocShowPicture" v:prompt="" v:val="VT0(1):26"/>
				<v:ud v:nameU="Margin" v:prompt="" v:val="VT0(0.025):0"/>
				<v:ud v:nameU="HasSubordinates" v:prompt="" v:val="VT0(0):26"/>
				<v:ud v:nameU="IsHidingSubs" v:prompt="" v:val="VT0(0):5"/>
				<v:ud v:nameU="ShowDivider" v:prompt="" v:val="VT0(0):26"/>
				<v:ud v:nameU="ThisLayoutStyle" v:prompt="" v:val="VT0(0):26"/>
				<v:ud v:nameU="HasPicture" v:prompt="" v:val="VT0(0):26"/>
				<v:ud v:nameU="Width" v:prompt="" v:val="VT0(1):0"/>
				<v:ud v:nameU="Height" v:prompt="" v:val="VT0(0.5):0"/>
				<v:ud v:nameU="Prop" v:prompt=""/>
				<v:ud v:nameU="PictureAspectRatio" v:prompt="" v:val="VT0(1):26"/>
				<v:ud v:nameU="PictureID" v:prompt=""/>
				<v:ud v:nameU="SetWidth" v:prompt=""/>
				<v:ud v:nameU="SetHeight" v:prompt=""/>
				<v:ud v:nameU="PositionID" v:prompt="" v:val="VT0(0):26"/>
				<v:ud v:nameU="DeltaX" v:prompt="" v:val="VT0(0):26"/>
				<v:ud v:nameU="DeltaY" v:prompt="" v:val="VT0(0):26"/>
				<v:ud v:nameU="ParLocX" v:prompt="" v:val="VT0(0):26"/>
				<v:ud v:nameU="ParLocY" v:prompt="" v:val="VT0(0):26"/>
				<v:ud v:nameU="PageLoc" v:prompt="" v:val="VT0(0):26"/>
				<v:ud v:nameU="ParLoc" v:prompt="" v:val="VT0(0):26"/>
				<v:ud v:nameU="PictureAreaWidth" v:prompt="" v:val="VT0(0.26944444444444):0"/>
				<v:ud v:nameU="PictureAreaHeight" v:prompt="" v:val="VT0(0.43611111111111):0"/>
				<v:ud v:nameU="PictureAreaAspectRatio" v:prompt="" v:val="VT0(0.61783439490446):26"/>
				<v:ud v:nameU="PictureWidth" v:prompt="" v:val="VT0(0.26944444444444):0"/>
				<v:ud v:nameU="PictureHeight" v:prompt="" v:val="VT0(0.26944444444444):0"/>
				<v:ud v:nameU="DividerOffset" v:prompt="" v:val="VT0(0.2500244913737):0"/>
				<v:ud v:nameU="CalcTextLineHeight" v:prompt="" v:val="VT0(0.13333333333333):29"/>
				<v:ud v:nameU="ExpandedForPicture" v:prompt="" v:val="VT0(0):26"/>
				<v:ud v:nameU="Theme" v:prompt="" v:val="VT0(0):26"/>
				<v:ud v:nameU="visVersion" v:prompt="" v:val="VT0(12):26"/>
				<v:ud v:nameU="Width" v:prompt="" v:val="VT0(2.2399863534008):1"/>
				<v:ud v:nameU="Height" v:prompt="" v:val="VT0(0.62492011655689):1"/>
				<v:ud v:nameU="Prop" v:prompt="" v:val="VT4(Name)"/>
				<v:ud v:nameU="PositionID" v:prompt="" v:val="VT4({A5AE720A-963E-4FAF-B19F-FC9851B00ADC})"/>
				<v:ud v:nameU="PictureAreaWidth" v:prompt="" v:val="VT0(0.68277322891139):0"/>
				<v:ud v:nameU="PictureAreaHeight" v:prompt="" v:val="VT0(0.561031227668):0"/>
				<v:ud v:nameU="PictureAreaAspectRatio" v:prompt="" v:val="VT0(1.2169968358971):26"/>
				<v:ud v:nameU="PictureWidth" v:prompt="" v:val="VT0(0.561031227668):0"/>
				<v:ud v:nameU="PictureHeight" v:prompt="" v:val="VT0(0.561031227668):0"/>
				<v:ud v:nameU="DividerOffset" v:prompt="" v:val="VT0(0.31248658415735):29"/>
				<v:ud v:nameU="CalcTextLineHeight" v:prompt="" v:val="VT0(0.2):29"/>
			</v:userDefs>
			<title>Manager.1</title>
			<desc>adminILMMIB 1</desc>
			<g id="shape1-2" v:mID="1" v:groupContext="groupContent">
				<v:textBlock v:margins="rect(0,0,0,0)"/>
				<v:textRect cx="80.6395" cy="550.692" width="153.22" height="22.4971"/>
				<path d="M0 573.19 L0 528.19 L161.28 528.19 L161.28 573.19 L0 573.19 Z" class="st1"/>
				<path d="M0 573.19 L0 528.19 L161.28 528.19 L161.28 573.19 L0 573.19" class="st2"/>
				<path d="M1.8 571.39 L1.8 529.99 L159.48 529.99 L159.48 571.39 L1.8 571.39" class="st2"/>
				<text x="43.63" y="547.09" class="st3" v:langID="1033"><v:paragraph v:horizAlign="1"/><v:tabList/>adminILMMIB<v:newlineChar/><tspan
							x="77.3" dy="1.2em" class="st4">1</tspan></text>			</g>
		</g>
		<g id="group11-8" transform="translate(250.29,-301.317) rotate(0.2)" v:mID="11" v:groupContext="group">
			<v:custProps>
				<v:cp v:nameU="Department" v:lbl="Department" v:type="0" v:invis="false" v:ask="false" v:langID="1033" v:cal="0"
						v:val="VT4(Department)"/>
				<v:cp v:nameU="Telephone" v:lbl="Telephone" v:type="0" v:invis="false" v:ask="false" v:langID="1033" v:cal="0"
						v:val="VT4(Telephone)"/>
				<v:cp v:nameU="Name" v:lbl="Name" v:type="0" v:invis="false" v:ask="false" v:langID="1033" v:cal="0"
						v:val="VT4(Name)"/>
				<v:cp v:nameU="Title" v:lbl="Title" v:type="0" v:invis="false" v:ask="false" v:langID="1033" v:cal="0"
						v:val="VT4(Title)"/>
				<v:cp v:nameU="Email" v:lbl="E-mail" v:type="0" v:invis="false" v:ask="false" v:langID="1033" v:cal="0"
						v:val="VT4(E-mail)"/>
				<v:cp v:nameU="Name" v:lbl="" v:prompt="" v:type="0" v:format="" v:sortKey="" v:invis="false" v:ask="false"
						v:langID="0" v:cal="0" v:val="VT4(teknoIlmEventList)"/>
				<v:cp v:nameU="Calendar" v:lbl="" v:prompt="" v:type="0" v:format="" v:sortKey="" v:invis="false" v:ask="false"
						v:langID="0" v:cal="0"/>
			</v:custProps>
			<v:userDefs>
				<v:ud v:nameU="Solsh" v:prompt="" v:val="VT15({0BF98B35-200C-41D5-8A23-20EF77CBC94A}):41"/>
				<v:ud v:nameU="ShapeType" v:prompt="" v:val="VT0(1):26"/>
				<v:ud v:nameU="ShowPicture" v:prompt="" v:val="VT0(0):26"/>
				<v:ud v:nameU="ShowSubordinates" v:prompt="" v:val="VT0(1):26"/>
				<v:ud v:nameU="DocShowPicture" v:prompt="" v:val="VT0(1):26"/>
				<v:ud v:nameU="Margin" v:prompt="" v:val="VT0(0.025):0"/>
				<v:ud v:nameU="HasSubordinates" v:prompt="" v:val="VT0(0):26"/>
				<v:ud v:nameU="IsHidingSubs" v:prompt="" v:val="VT0(0):5"/>
				<v:ud v:nameU="ShowDivider" v:prompt="" v:val="VT0(0):26"/>
				<v:ud v:nameU="ThisLayoutStyle" v:prompt="" v:val="VT0(0):26"/>
				<v:ud v:nameU="HasPicture" v:prompt="" v:val="VT0(0):26"/>
				<v:ud v:nameU="Width" v:prompt="" v:val="VT0(1):0"/>
				<v:ud v:nameU="Height" v:prompt="" v:val="VT0(0.5):0"/>
				<v:ud v:nameU="Prop" v:prompt=""/>
				<v:ud v:nameU="PictureAspectRatio" v:prompt="" v:val="VT0(1):26"/>
				<v:ud v:nameU="PictureID" v:prompt=""/>
				<v:ud v:nameU="SetWidth" v:prompt=""/>
				<v:ud v:nameU="SetHeight" v:prompt=""/>
				<v:ud v:nameU="PositionID" v:prompt="" v:val="VT0(0):26"/>
				<v:ud v:nameU="DeltaX" v:prompt="" v:val="VT0(0):26"/>
				<v:ud v:nameU="DeltaY" v:prompt="" v:val="VT0(0):26"/>
				<v:ud v:nameU="ParLocX" v:prompt="" v:val="VT0(0):26"/>
				<v:ud v:nameU="ParLocY" v:prompt="" v:val="VT0(0):26"/>
				<v:ud v:nameU="PageLoc" v:prompt="" v:val="VT0(0):26"/>
				<v:ud v:nameU="ParLoc" v:prompt="" v:val="VT0(0):26"/>
				<v:ud v:nameU="PictureAreaWidth" v:prompt="" v:val="VT0(0.26944444444444):0"/>
				<v:ud v:nameU="PictureAreaHeight" v:prompt="" v:val="VT0(0.43611111111111):0"/>
				<v:ud v:nameU="PictureAreaAspectRatio" v:prompt="" v:val="VT0(0.61783439490446):26"/>
				<v:ud v:nameU="PictureWidth" v:prompt="" v:val="VT0(0.26944444444444):0"/>
				<v:ud v:nameU="PictureHeight" v:prompt="" v:val="VT0(0.26944444444444):0"/>
				<v:ud v:nameU="DividerOffset" v:prompt="" v:val="VT0(0.2500244913737):0"/>
				<v:ud v:nameU="CalcTextLineHeight" v:prompt="" v:val="VT0(0.13333333333333):29"/>
				<v:ud v:nameU="ExpandedForPicture" v:prompt="" v:val="VT0(0):26"/>
				<v:ud v:nameU="Theme" v:prompt="" v:val="VT0(0):26"/>
				<v:ud v:nameU="visVersion" v:prompt="" v:val="VT0(12):26"/>
				<v:ud v:nameU="Width" v:prompt="" v:val="VT0(1.9933358590164):1"/>
				<v:ud v:nameU="Height" v:prompt="" v:val="VT0(0.8199950048867):1"/>
				<v:ud v:nameU="Prop" v:prompt="" v:val="VT4(Name)"/>
				<v:ud v:nameU="PositionID" v:prompt="" v:val="VT4({767962A9-9177-490D-94A2-4250DAE26C7F})"/>
				<v:ud v:nameU="PictureAreaWidth" v:prompt="" v:val="VT0(0.6005563974499):0"/>
				<v:ud v:nameU="PictureAreaHeight" v:prompt="" v:val="VT0(0.75610611599781):0"/>
				<v:ud v:nameU="PictureAreaAspectRatio" v:prompt="" v:val="VT0(0.79427528060312):26"/>
				<v:ud v:nameU="PictureWidth" v:prompt="" v:val="VT0(0.6005563974499):0"/>
				<v:ud v:nameU="PictureHeight" v:prompt="" v:val="VT0(0.6005563974499):0"/>
				<v:ud v:nameU="DividerOffset" v:prompt="" v:val="VT0(0.41002402832225):29"/>
				<v:ud v:nameU="CalcTextLineHeight" v:prompt="" v:val="VT0(0.2):29"/>
			</v:userDefs>
			<title>Manager.11</title>
			<desc>teknoIlmEventList 1</desc>
			<g id="shape11-9" v:mID="11" v:groupContext="groupContent">
				<v:textBlock v:margins="rect(0,0,0,0)"/>
				<v:textRect cx="71.7601" cy="543.669" width="136.35" height="29.5198"/>
				<path d="M0 573.19 L0 514.15 L143.52 514.15 L143.52 573.19 L0 573.19 Z" class="st1"/>
				<path d="M0 573.19 L0 514.15 L143.52 514.15 L143.52 573.19 L0 573.19" class="st2"/>
				<path d="M1.8 571.39 L1.8 515.95 L141.72 515.95 L141.72 571.39 L1.8 571.39" class="st2"/>
				<text x="24.4" y="540.07" class="st3" v:langID="1033"><v:paragraph v:horizAlign="1"/><v:tabList/>teknoIlmEventList<v:newlineChar/><tspan
							x="68.42" dy="1.2em" class="st4">1</tspan></text>			</g>
		</g>
		<g id="group22-15" transform="translate(101.364,-171.507) rotate(0.2)" v:mID="22" v:groupContext="group">
			<v:custProps>
				<v:cp v:nameU="Department" v:lbl="Department" v:type="0" v:invis="false" v:ask="false" v:langID="1033" v:cal="0"
						v:val="VT4(Department)"/>
				<v:cp v:nameU="Telephone" v:lbl="Telephone" v:type="0" v:invis="false" v:ask="false" v:langID="1033" v:cal="0"
						v:val="VT4(Telephone)"/>
				<v:cp v:nameU="Name" v:lbl="Name" v:type="0" v:invis="false" v:ask="false" v:langID="1033" v:cal="0"
						v:val="VT4(Name)"/>
				<v:cp v:nameU="Title" v:lbl="Title" v:type="0" v:invis="false" v:ask="false" v:langID="1033" v:cal="0"
						v:val="VT4(Title)"/>
				<v:cp v:nameU="Email" v:lbl="E-mail" v:type="0" v:invis="false" v:ask="false" v:langID="1033" v:cal="0"
						v:val="VT4(E-mail)"/>
				<v:cp v:nameU="Name" v:lbl="" v:prompt="" v:type="0" v:format="" v:sortKey="" v:invis="false" v:ask="false"
						v:langID="0" v:cal="0" v:val="VT4(Event)"/>
				<v:cp v:nameU="Calendar" v:lbl="" v:prompt="" v:type="0" v:format="" v:sortKey="" v:invis="false" v:ask="false"
						v:langID="0" v:cal="0"/>
			</v:custProps>
			<v:userDefs>
				<v:ud v:nameU="Solsh" v:prompt="" v:val="VT15({0BF98B35-200C-41D5-8A23-20EF77CBC94A}):41"/>
				<v:ud v:nameU="ShapeType" v:prompt="" v:val="VT0(1):26"/>
				<v:ud v:nameU="ShowPicture" v:prompt="" v:val="VT0(0):26"/>
				<v:ud v:nameU="ShowSubordinates" v:prompt="" v:val="VT0(1):26"/>
				<v:ud v:nameU="DocShowPicture" v:prompt="" v:val="VT0(1):26"/>
				<v:ud v:nameU="Margin" v:prompt="" v:val="VT0(0.025):0"/>
				<v:ud v:nameU="HasSubordinates" v:prompt="" v:val="VT0(0):26"/>
				<v:ud v:nameU="IsHidingSubs" v:prompt="" v:val="VT0(0):5"/>
				<v:ud v:nameU="ShowDivider" v:prompt="" v:val="VT0(0):26"/>
				<v:ud v:nameU="ThisLayoutStyle" v:prompt="" v:val="VT0(0):26"/>
				<v:ud v:nameU="HasPicture" v:prompt="" v:val="VT0(0):26"/>
				<v:ud v:nameU="Width" v:prompt="" v:val="VT0(1):0"/>
				<v:ud v:nameU="Height" v:prompt="" v:val="VT0(0.5):0"/>
				<v:ud v:nameU="Prop" v:prompt=""/>
				<v:ud v:nameU="PictureAspectRatio" v:prompt="" v:val="VT0(1):26"/>
				<v:ud v:nameU="PictureID" v:prompt=""/>
				<v:ud v:nameU="SetWidth" v:prompt=""/>
				<v:ud v:nameU="SetHeight" v:prompt=""/>
				<v:ud v:nameU="PositionID" v:prompt="" v:val="VT0(0):26"/>
				<v:ud v:nameU="DeltaX" v:prompt="" v:val="VT0(0):26"/>
				<v:ud v:nameU="DeltaY" v:prompt="" v:val="VT0(0):26"/>
				<v:ud v:nameU="ParLocX" v:prompt="" v:val="VT0(0):26"/>
				<v:ud v:nameU="ParLocY" v:prompt="" v:val="VT0(0):26"/>
				<v:ud v:nameU="PageLoc" v:prompt="" v:val="VT0(0):26"/>
				<v:ud v:nameU="ParLoc" v:prompt="" v:val="VT0(0):26"/>
				<v:ud v:nameU="PictureAreaWidth" v:prompt="" v:val="VT0(0.26944444444444):0"/>
				<v:ud v:nameU="PictureAreaHeight" v:prompt="" v:val="VT0(0.43611111111111):0"/>
				<v:ud v:nameU="PictureAreaAspectRatio" v:prompt="" v:val="VT0(0.61783439490446):26"/>
				<v:ud v:nameU="PictureWidth" v:prompt="" v:val="VT0(0.26944444444444):0"/>
				<v:ud v:nameU="PictureHeight" v:prompt="" v:val="VT0(0.26944444444444):0"/>
				<v:ud v:nameU="DividerOffset" v:prompt="" v:val="VT0(0.2500244913737):0"/>
				<v:ud v:nameU="CalcTextLineHeight" v:prompt="" v:val="VT0(0.13333333333333):29"/>
				<v:ud v:nameU="ExpandedForPicture" v:prompt="" v:val="VT0(0):26"/>
				<v:ud v:nameU="Theme" v:prompt="" v:val="VT0(0):26"/>
				<v:ud v:nameU="visVersion" v:prompt="" v:val="VT0(12):26"/>
				<v:ud v:nameU="Width" v:prompt="" v:val="VT0(1.1672191604682):1"/>
				<v:ud v:nameU="Height" v:prompt="" v:val="VT0(0.81900114238021):1"/>
				<v:ud v:nameU="Prop" v:prompt="" v:val="VT4(Name)"/>
				<v:ud v:nameU="PositionID" v:prompt="" v:val="VT4({C527268B-0312-44CA-83C6-609922900F35})"/>
				<v:ud v:nameU="PictureAreaWidth" v:prompt="" v:val="VT0(0.32518416460051):0"/>
				<v:ud v:nameU="PictureAreaHeight" v:prompt="" v:val="VT0(0.75511225349132):0"/>
				<v:ud v:nameU="PictureAreaAspectRatio" v:prompt="" v:val="VT0(0.43064347465823):26"/>
				<v:ud v:nameU="PictureWidth" v:prompt="" v:val="VT0(0.32518416460051):0"/>
				<v:ud v:nameU="PictureHeight" v:prompt="" v:val="VT0(0.32518416460051):0"/>
				<v:ud v:nameU="DividerOffset" v:prompt="" v:val="VT0(0.40952709706901):29"/>
				<v:ud v:nameU="CalcTextLineHeight" v:prompt="" v:val="VT0(0.2):29"/>
			</v:userDefs>
			<title>Manager.28</title>
			<desc>Event 2</desc>
			<g id="shape22-16" v:mID="22" v:groupContext="groupContent">
				<v:textBlock v:margins="rect(0,0,0,0)"/>
				<v:textRect cx="42.0199" cy="543.705" width="79.84" height="29.484"/>
				<path d="M0 573.19 L0 514.22 L84.04 514.22 L84.04 573.19 L0 573.19 Z" class="st1"/>
				<path d="M0 573.19 L0 514.22 L84.04 514.22 L84.04 573.19 L0 573.19" class="st2"/>
				<path d="M1.8 571.39 L1.8 516.02 L82.24 516.02 L82.24 571.39 L1.8 571.39" class="st2"/>
				<text x="26.68" y="540.1" class="st3" v:langID="1033"><v:paragraph v:horizAlign="1"/><v:tabList/>Event<v:newlineChar/><tspan
							x="38.68" dy="1.2em" class="st4">2</tspan></text>			</g>
		</g>
		<g id="group27-22" transform="translate(14.6435,-171.477) rotate(0.2)" v:mID="27" v:groupContext="group">
			<v:custProps>
				<v:cp v:nameU="Department" v:lbl="Department" v:type="0" v:invis="false" v:ask="false" v:langID="1033" v:cal="0"
						v:val="VT4(Department)"/>
				<v:cp v:nameU="Telephone" v:lbl="Telephone" v:type="0" v:invis="false" v:ask="false" v:langID="1033" v:cal="0"
						v:val="VT4(Telephone)"/>
				<v:cp v:nameU="Name" v:lbl="Name" v:type="0" v:invis="false" v:ask="false" v:langID="1033" v:cal="0"
						v:val="VT4(Name)"/>
				<v:cp v:nameU="Title" v:lbl="Title" v:type="0" v:invis="false" v:ask="false" v:langID="1033" v:cal="0"
						v:val="VT4(Title)"/>
				<v:cp v:nameU="Email" v:lbl="E-mail" v:type="0" v:invis="false" v:ask="false" v:langID="1033" v:cal="0"
						v:val="VT4(E-mail)"/>
				<v:cp v:nameU="Name" v:lbl="" v:prompt="" v:type="0" v:format="" v:sortKey="" v:invis="false" v:ask="false"
						v:langID="0" v:cal="0" v:val="VT4(time)"/>
				<v:cp v:nameU="Calendar" v:lbl="" v:prompt="" v:type="0" v:format="" v:sortKey="" v:invis="false" v:ask="false"
						v:langID="0" v:cal="0"/>
			</v:custProps>
			<v:userDefs>
				<v:ud v:nameU="Solsh" v:prompt="" v:val="VT15({0BF98B35-200C-41D5-8A23-20EF77CBC94A}):41"/>
				<v:ud v:nameU="ShapeType" v:prompt="" v:val="VT0(1):26"/>
				<v:ud v:nameU="ShowPicture" v:prompt="" v:val="VT0(0):26"/>
				<v:ud v:nameU="ShowSubordinates" v:prompt="" v:val="VT0(1):26"/>
				<v:ud v:nameU="DocShowPicture" v:prompt="" v:val="VT0(1):26"/>
				<v:ud v:nameU="Margin" v:prompt="" v:val="VT0(0.025):0"/>
				<v:ud v:nameU="HasSubordinates" v:prompt="" v:val="VT0(0):26"/>
				<v:ud v:nameU="IsHidingSubs" v:prompt="" v:val="VT0(0):5"/>
				<v:ud v:nameU="ShowDivider" v:prompt="" v:val="VT0(0):26"/>
				<v:ud v:nameU="ThisLayoutStyle" v:prompt="" v:val="VT0(0):26"/>
				<v:ud v:nameU="HasPicture" v:prompt="" v:val="VT0(0):26"/>
				<v:ud v:nameU="Width" v:prompt="" v:val="VT0(1):0"/>
				<v:ud v:nameU="Height" v:prompt="" v:val="VT0(0.5):0"/>
				<v:ud v:nameU="Prop" v:prompt=""/>
				<v:ud v:nameU="PictureAspectRatio" v:prompt="" v:val="VT0(1):26"/>
				<v:ud v:nameU="PictureID" v:prompt=""/>
				<v:ud v:nameU="SetWidth" v:prompt=""/>
				<v:ud v:nameU="SetHeight" v:prompt=""/>
				<v:ud v:nameU="PositionID" v:prompt="" v:val="VT0(0):26"/>
				<v:ud v:nameU="DeltaX" v:prompt="" v:val="VT0(0):26"/>
				<v:ud v:nameU="DeltaY" v:prompt="" v:val="VT0(0):26"/>
				<v:ud v:nameU="ParLocX" v:prompt="" v:val="VT0(0):26"/>
				<v:ud v:nameU="ParLocY" v:prompt="" v:val="VT0(0):26"/>
				<v:ud v:nameU="PageLoc" v:prompt="" v:val="VT0(0):26"/>
				<v:ud v:nameU="ParLoc" v:prompt="" v:val="VT0(0):26"/>
				<v:ud v:nameU="PictureAreaWidth" v:prompt="" v:val="VT0(0.26944444444444):0"/>
				<v:ud v:nameU="PictureAreaHeight" v:prompt="" v:val="VT0(0.43611111111111):0"/>
				<v:ud v:nameU="PictureAreaAspectRatio" v:prompt="" v:val="VT0(0.61783439490446):26"/>
				<v:ud v:nameU="PictureWidth" v:prompt="" v:val="VT0(0.26944444444444):0"/>
				<v:ud v:nameU="PictureHeight" v:prompt="" v:val="VT0(0.26944444444444):0"/>
				<v:ud v:nameU="DividerOffset" v:prompt="" v:val="VT0(0.2500244913737):0"/>
				<v:ud v:nameU="CalcTextLineHeight" v:prompt="" v:val="VT0(0.13333333333333):29"/>
				<v:ud v:nameU="ExpandedForPicture" v:prompt="" v:val="VT0(0):26"/>
				<v:ud v:nameU="Theme" v:prompt="" v:val="VT0(0):26"/>
				<v:ud v:nameU="visVersion" v:prompt="" v:val="VT0(12):26"/>
				<v:ud v:nameU="Width" v:prompt="" v:val="VT0(1.0726061088547):1"/>
				<v:ud v:nameU="Height" v:prompt="" v:val="VT0(0.8194045074204):1"/>
				<v:ud v:nameU="Prop" v:prompt="" v:val="VT4(Name)"/>
				<v:ud v:nameU="PositionID" v:prompt="" v:val="VT4({35A3EA99-840C-47EA-9A4B-B9C3A552FF33})"/>
				<v:ud v:nameU="PictureAreaWidth" v:prompt="" v:val="VT0(0.29364648072933):0"/>
				<v:ud v:nameU="PictureAreaHeight" v:prompt="" v:val="VT0(0.75551561853151):0"/>
				<v:ud v:nameU="PictureAreaAspectRatio" v:prompt="" v:val="VT0(0.38867029817344):26"/>
				<v:ud v:nameU="PictureWidth" v:prompt="" v:val="VT0(0.29364648072933):0"/>
				<v:ud v:nameU="PictureHeight" v:prompt="" v:val="VT0(0.29364648072933):0"/>
				<v:ud v:nameU="DividerOffset" v:prompt="" v:val="VT0(0.40972877958911):29"/>
				<v:ud v:nameU="CalcTextLineHeight" v:prompt="" v:val="VT0(0.2):29"/>
			</v:userDefs>
			<title>Manager.33</title>
			<desc>time 1</desc>
			<g id="shape27-23" v:mID="27" v:groupContext="groupContent">
				<v:textBlock v:margins="rect(0,0,0,0)"/>
				<v:textRect cx="38.6138" cy="543.69" width="73.37" height="29.4986"/>
				<path d="M0 573.19 L0 514.19 L77.23 514.19 L77.23 573.19 L0 573.19 Z" class="st1"/>
				<path d="M0 573.19 L0 514.19 L77.23 514.19 L77.23 573.19 L0 573.19" class="st2"/>
				<path d="M1.8 571.39 L1.8 515.99 L75.43 515.99 L75.43 571.39 L1.8 571.39" class="st2"/>
				<text x="27.28" y="540.09" class="st3" v:langID="1033"><v:paragraph v:horizAlign="1"/><v:tabList/>time<v:newlineChar/><tspan
							x="35.28" dy="1.2em" class="st4">1</tspan></text>			</g>
		</g>
		<g id="group32-29" transform="translate(199.872,-171.508) rotate(0.2)" v:mID="32" v:groupContext="group">
			<v:custProps>
				<v:cp v:nameU="Department" v:lbl="Department" v:type="0" v:invis="false" v:ask="false" v:langID="1033" v:cal="0"
						v:val="VT4(Department)"/>
				<v:cp v:nameU="Telephone" v:lbl="Telephone" v:type="0" v:invis="false" v:ask="false" v:langID="1033" v:cal="0"
						v:val="VT4(Telephone)"/>
				<v:cp v:nameU="Name" v:lbl="Name" v:type="0" v:invis="false" v:ask="false" v:langID="1033" v:cal="0"
						v:val="VT4(Name)"/>
				<v:cp v:nameU="Title" v:lbl="Title" v:type="0" v:invis="false" v:ask="false" v:langID="1033" v:cal="0"
						v:val="VT4(Title)"/>
				<v:cp v:nameU="Email" v:lbl="E-mail" v:type="0" v:invis="false" v:ask="false" v:langID="1033" v:cal="0"
						v:val="VT4(E-mail)"/>
				<v:cp v:nameU="Name" v:lbl="" v:prompt="" v:type="0" v:format="" v:sortKey="" v:invis="false" v:ask="false"
						v:langID="0" v:cal="0" v:val="VT4(ssgId)"/>
				<v:cp v:nameU="Calendar" v:lbl="" v:prompt="" v:type="0" v:format="" v:sortKey="" v:invis="false" v:ask="false"
						v:langID="0" v:cal="0"/>
			</v:custProps>
			<v:userDefs>
				<v:ud v:nameU="Solsh" v:prompt="" v:val="VT15({0BF98B35-200C-41D5-8A23-20EF77CBC94A}):41"/>
				<v:ud v:nameU="ShapeType" v:prompt="" v:val="VT0(1):26"/>
				<v:ud v:nameU="ShowPicture" v:prompt="" v:val="VT0(0):26"/>
				<v:ud v:nameU="ShowSubordinates" v:prompt="" v:val="VT0(1):26"/>
				<v:ud v:nameU="DocShowPicture" v:prompt="" v:val="VT0(1):26"/>
				<v:ud v:nameU="Margin" v:prompt="" v:val="VT0(0.025):0"/>
				<v:ud v:nameU="HasSubordinates" v:prompt="" v:val="VT0(0):26"/>
				<v:ud v:nameU="IsHidingSubs" v:prompt="" v:val="VT0(0):5"/>
				<v:ud v:nameU="ShowDivider" v:prompt="" v:val="VT0(0):26"/>
				<v:ud v:nameU="ThisLayoutStyle" v:prompt="" v:val="VT0(0):26"/>
				<v:ud v:nameU="HasPicture" v:prompt="" v:val="VT0(0):26"/>
				<v:ud v:nameU="Width" v:prompt="" v:val="VT0(1):0"/>
				<v:ud v:nameU="Height" v:prompt="" v:val="VT0(0.5):0"/>
				<v:ud v:nameU="Prop" v:prompt=""/>
				<v:ud v:nameU="PictureAspectRatio" v:prompt="" v:val="VT0(1):26"/>
				<v:ud v:nameU="PictureID" v:prompt=""/>
				<v:ud v:nameU="SetWidth" v:prompt=""/>
				<v:ud v:nameU="SetHeight" v:prompt=""/>
				<v:ud v:nameU="PositionID" v:prompt="" v:val="VT0(0):26"/>
				<v:ud v:nameU="DeltaX" v:prompt="" v:val="VT0(0):26"/>
				<v:ud v:nameU="DeltaY" v:prompt="" v:val="VT0(0):26"/>
				<v:ud v:nameU="ParLocX" v:prompt="" v:val="VT0(0):26"/>
				<v:ud v:nameU="ParLocY" v:prompt="" v:val="VT0(0):26"/>
				<v:ud v:nameU="PageLoc" v:prompt="" v:val="VT0(0):26"/>
				<v:ud v:nameU="ParLoc" v:prompt="" v:val="VT0(0):26"/>
				<v:ud v:nameU="PictureAreaWidth" v:prompt="" v:val="VT0(0.26944444444444):0"/>
				<v:ud v:nameU="PictureAreaHeight" v:prompt="" v:val="VT0(0.43611111111111):0"/>
				<v:ud v:nameU="PictureAreaAspectRatio" v:prompt="" v:val="VT0(0.61783439490446):26"/>
				<v:ud v:nameU="PictureWidth" v:prompt="" v:val="VT0(0.26944444444444):0"/>
				<v:ud v:nameU="PictureHeight" v:prompt="" v:val="VT0(0.26944444444444):0"/>
				<v:ud v:nameU="DividerOffset" v:prompt="" v:val="VT0(0.2500244913737):0"/>
				<v:ud v:nameU="CalcTextLineHeight" v:prompt="" v:val="VT0(0.13333333333333):29"/>
				<v:ud v:nameU="ExpandedForPicture" v:prompt="" v:val="VT0(0):26"/>
				<v:ud v:nameU="Theme" v:prompt="" v:val="VT0(0):26"/>
				<v:ud v:nameU="visVersion" v:prompt="" v:val="VT0(12):26"/>
				<v:ud v:nameU="Width" v:prompt="" v:val="VT0(1.1806645143401):1"/>
				<v:ud v:nameU="Height" v:prompt="" v:val="VT0(0.81906105902663):1"/>
				<v:ud v:nameU="Prop" v:prompt="" v:val="VT4(Name)"/>
				<v:ud v:nameU="PositionID" v:prompt="" v:val="VT4({E0808D8F-794D-43C0-A023-24BF800E2EB4})"/>
				<v:ud v:nameU="PictureAreaWidth" v:prompt="" v:val="VT0(0.32966594922447):0"/>
				<v:ud v:nameU="PictureAreaHeight" v:prompt="" v:val="VT0(0.75517217013774):0"/>
				<v:ud v:nameU="PictureAreaAspectRatio" v:prompt="" v:val="VT0(0.4365440918782):26"/>
				<v:ud v:nameU="PictureWidth" v:prompt="" v:val="VT0(0.32966594922447):0"/>
				<v:ud v:nameU="PictureHeight" v:prompt="" v:val="VT0(0.32966594922447):0"/>
				<v:ud v:nameU="DividerOffset" v:prompt="" v:val="VT0(0.40955705539222):29"/>
				<v:ud v:nameU="CalcTextLineHeight" v:prompt="" v:val="VT0(0.2):29"/>
			</v:userDefs>
			<title>Manager.38</title>
			<desc>ssgId 3</desc>
			<g id="shape32-30" v:mID="32" v:groupContext="groupContent">
				<v:textBlock v:margins="rect(0,0,0,0)"/>
				<v:textRect cx="42.5039" cy="543.703" width="80.76" height="29.4862"/>
				<path d="M0 573.19 L0 514.22 L85.01 514.22 L85.01 573.19 L0 573.19 Z" class="st1"/>
				<path d="M0 573.19 L0 514.22 L85.01 514.22 L85.01 573.19 L0 573.19" class="st2"/>
				<path d="M1.8 571.39 L1.8 516.02 L83.21 516.02 L83.21 571.39 L1.8 571.39" class="st2"/>
				<text x="28.16" y="540.1" class="st3" v:langID="1033"><v:paragraph v:horizAlign="1"/><v:tabList/>ssgId<v:newlineChar/><tspan
							x="39.17" dy="1.2em" class="st4">3</tspan></text>			</g>
		</g>
		<g id="group37-36" transform="translate(301.076,-171.532) rotate(0.2)" v:mID="37" v:groupContext="group">
			<v:custProps>
				<v:cp v:nameU="Department" v:lbl="Department" v:type="0" v:invis="false" v:ask="false" v:langID="1033" v:cal="0"
						v:val="VT4(Department)"/>
				<v:cp v:nameU="Telephone" v:lbl="Telephone" v:type="0" v:invis="false" v:ask="false" v:langID="1033" v:cal="0"
						v:val="VT4(Telephone)"/>
				<v:cp v:nameU="Name" v:lbl="Name" v:type="0" v:invis="false" v:ask="false" v:langID="1033" v:cal="0"
						v:val="VT4(Name)"/>
				<v:cp v:nameU="Title" v:lbl="Title" v:type="0" v:invis="false" v:ask="false" v:langID="1033" v:cal="0"
						v:val="VT4(Title)"/>
				<v:cp v:nameU="Email" v:lbl="E-mail" v:type="0" v:invis="false" v:ask="false" v:langID="1033" v:cal="0"
						v:val="VT4(E-mail)"/>
				<v:cp v:nameU="Name" v:lbl="" v:prompt="" v:type="0" v:format="" v:sortKey="" v:invis="false" v:ask="false"
						v:langID="0" v:cal="0" v:val="VT4(adjunctDeviceId)"/>
				<v:cp v:nameU="Calendar" v:lbl="" v:prompt="" v:type="0" v:format="" v:sortKey="" v:invis="false" v:ask="false"
						v:langID="0" v:cal="0"/>
			</v:custProps>
			<v:userDefs>
				<v:ud v:nameU="Solsh" v:prompt="" v:val="VT15({0BF98B35-200C-41D5-8A23-20EF77CBC94A}):41"/>
				<v:ud v:nameU="ShapeType" v:prompt="" v:val="VT0(1):26"/>
				<v:ud v:nameU="ShowPicture" v:prompt="" v:val="VT0(0):26"/>
				<v:ud v:nameU="ShowSubordinates" v:prompt="" v:val="VT0(1):26"/>
				<v:ud v:nameU="DocShowPicture" v:prompt="" v:val="VT0(1):26"/>
				<v:ud v:nameU="Margin" v:prompt="" v:val="VT0(0.025):0"/>
				<v:ud v:nameU="HasSubordinates" v:prompt="" v:val="VT0(0):26"/>
				<v:ud v:nameU="IsHidingSubs" v:prompt="" v:val="VT0(0):5"/>
				<v:ud v:nameU="ShowDivider" v:prompt="" v:val="VT0(0):26"/>
				<v:ud v:nameU="ThisLayoutStyle" v:prompt="" v:val="VT0(0):26"/>
				<v:ud v:nameU="HasPicture" v:prompt="" v:val="VT0(0):26"/>
				<v:ud v:nameU="Width" v:prompt="" v:val="VT0(1):0"/>
				<v:ud v:nameU="Height" v:prompt="" v:val="VT0(0.5):0"/>
				<v:ud v:nameU="Prop" v:prompt=""/>
				<v:ud v:nameU="PictureAspectRatio" v:prompt="" v:val="VT0(1):26"/>
				<v:ud v:nameU="PictureID" v:prompt=""/>
				<v:ud v:nameU="SetWidth" v:prompt=""/>
				<v:ud v:nameU="SetHeight" v:prompt=""/>
				<v:ud v:nameU="PositionID" v:prompt="" v:val="VT0(0):26"/>
				<v:ud v:nameU="DeltaX" v:prompt="" v:val="VT0(0):26"/>
				<v:ud v:nameU="DeltaY" v:prompt="" v:val="VT0(0):26"/>
				<v:ud v:nameU="ParLocX" v:prompt="" v:val="VT0(0):26"/>
				<v:ud v:nameU="ParLocY" v:prompt="" v:val="VT0(0):26"/>
				<v:ud v:nameU="PageLoc" v:prompt="" v:val="VT0(0):26"/>
				<v:ud v:nameU="ParLoc" v:prompt="" v:val="VT0(0):26"/>
				<v:ud v:nameU="PictureAreaWidth" v:prompt="" v:val="VT0(0.26944444444444):0"/>
				<v:ud v:nameU="PictureAreaHeight" v:prompt="" v:val="VT0(0.43611111111111):0"/>
				<v:ud v:nameU="PictureAreaAspectRatio" v:prompt="" v:val="VT0(0.61783439490446):26"/>
				<v:ud v:nameU="PictureWidth" v:prompt="" v:val="VT0(0.26944444444444):0"/>
				<v:ud v:nameU="PictureHeight" v:prompt="" v:val="VT0(0.26944444444444):0"/>
				<v:ud v:nameU="DividerOffset" v:prompt="" v:val="VT0(0.2500244913737):0"/>
				<v:ud v:nameU="CalcTextLineHeight" v:prompt="" v:val="VT0(0.13333333333333):29"/>
				<v:ud v:nameU="ExpandedForPicture" v:prompt="" v:val="VT0(0):26"/>
				<v:ud v:nameU="Theme" v:prompt="" v:val="VT0(0):26"/>
				<v:ud v:nameU="visVersion" v:prompt="" v:val="VT0(12):26"/>
				<v:ud v:nameU="ThisLayoutStyle" v:prompt="" v:val="VT0(100):26"/>
				<v:ud v:nameU="Width" v:prompt="" v:val="VT0(1.3612328849685):1"/>
				<v:ud v:nameU="Height" v:prompt="" v:val="VT0(0.81864781481966):1"/>
				<v:ud v:nameU="Prop" v:prompt="" v:val="VT4(Name)"/>
				<v:ud v:nameU="PositionID" v:prompt="" v:val="VT4({16C2AC1B-5104-48CE-B38D-9F855ADA03F1})"/>
				<v:ud v:nameU="PictureAreaWidth" v:prompt="" v:val="VT0(0.3898554061006):0"/>
				<v:ud v:nameU="PictureAreaHeight" v:prompt="" v:val="VT0(0.75475892593077):0"/>
				<v:ud v:nameU="PictureAreaAspectRatio" v:prompt="" v:val="VT0(0.51652970598503):26"/>
				<v:ud v:nameU="PictureWidth" v:prompt="" v:val="VT0(0.3898554061006):0"/>
				<v:ud v:nameU="PictureHeight" v:prompt="" v:val="VT0(0.3898554061006):0"/>
				<v:ud v:nameU="DividerOffset" v:prompt="" v:val="VT0(0.40935043328874):29"/>
				<v:ud v:nameU="CalcTextLineHeight" v:prompt="" v:val="VT0(0.2):29"/>
			</v:userDefs>
			<title>Manager.43</title>
			<desc>adjunctDeviceId 4</desc>
			<g id="shape37-37" v:mID="37" v:groupContext="groupContent">
				<v:textBlock v:margins="rect(0,0,0,0)"/>
				<v:textRect cx="49.0044" cy="543.718" width="93.11" height="29.4713"/>
				<path d="M0 573.19 L0 514.25 L98.01 514.25 L98.01 573.19 L0 573.19 Z" class="st1"/>
				<path d="M0 573.19 L0 514.25 L98.01 514.25 L98.01 573.19 L0 573.19" class="st2"/>
				<path d="M1.8 571.39 L1.8 516.05 L96.21 516.05 L96.21 571.39 L1.8 571.39" class="st2"/>
				<text x="6.31" y="540.12" class="st3" v:langID="1033"><v:paragraph v:horizAlign="1"/><v:tabList/>adjunctDeviceId<v:newlineChar/><tspan
							x="45.67" dy="1.2em" class="st4">4</tspan></text>			</g>
		</g>
		<g id="group42-43" transform="translate(415.872,-171.508) rotate(0.2)" v:mID="42" v:groupContext="group">
			<v:custProps>
				<v:cp v:nameU="Department" v:lbl="Department" v:type="0" v:invis="false" v:ask="false" v:langID="1033" v:cal="0"
						v:val="VT4(Department)"/>
				<v:cp v:nameU="Telephone" v:lbl="Telephone" v:type="0" v:invis="false" v:ask="false" v:langID="1033" v:cal="0"
						v:val="VT4(Telephone)"/>
				<v:cp v:nameU="Name" v:lbl="Name" v:type="0" v:invis="false" v:ask="false" v:langID="1033" v:cal="0"
						v:val="VT4(Name)"/>
				<v:cp v:nameU="Title" v:lbl="Title" v:type="0" v:invis="false" v:ask="false" v:langID="1033" v:cal="0"
						v:val="VT4(Title)"/>
				<v:cp v:nameU="Email" v:lbl="E-mail" v:type="0" v:invis="false" v:ask="false" v:langID="1033" v:cal="0"
						v:val="VT4(E-mail)"/>
				<v:cp v:nameU="Name" v:lbl="" v:prompt="" v:type="0" v:format="" v:sortKey="" v:invis="false" v:ask="false"
						v:langID="0" v:cal="0" v:val="VT4(version)"/>
				<v:cp v:nameU="Calendar" v:lbl="" v:prompt="" v:type="0" v:format="" v:sortKey="" v:invis="false" v:ask="false"
						v:langID="0" v:cal="0"/>
			</v:custProps>
			<v:userDefs>
				<v:ud v:nameU="Solsh" v:prompt="" v:val="VT15({0BF98B35-200C-41D5-8A23-20EF77CBC94A}):41"/>
				<v:ud v:nameU="ShapeType" v:prompt="" v:val="VT0(1):26"/>
				<v:ud v:nameU="ShowPicture" v:prompt="" v:val="VT0(0):26"/>
				<v:ud v:nameU="ShowSubordinates" v:prompt="" v:val="VT0(1):26"/>
				<v:ud v:nameU="DocShowPicture" v:prompt="" v:val="VT0(1):26"/>
				<v:ud v:nameU="Margin" v:prompt="" v:val="VT0(0.025):0"/>
				<v:ud v:nameU="HasSubordinates" v:prompt="" v:val="VT0(0):26"/>
				<v:ud v:nameU="IsHidingSubs" v:prompt="" v:val="VT0(0):5"/>
				<v:ud v:nameU="ShowDivider" v:prompt="" v:val="VT0(0):26"/>
				<v:ud v:nameU="ThisLayoutStyle" v:prompt="" v:val="VT0(0):26"/>
				<v:ud v:nameU="HasPicture" v:prompt="" v:val="VT0(0):26"/>
				<v:ud v:nameU="Width" v:prompt="" v:val="VT0(1):0"/>
				<v:ud v:nameU="Height" v:prompt="" v:val="VT0(0.5):0"/>
				<v:ud v:nameU="Prop" v:prompt=""/>
				<v:ud v:nameU="PictureAspectRatio" v:prompt="" v:val="VT0(1):26"/>
				<v:ud v:nameU="PictureID" v:prompt=""/>
				<v:ud v:nameU="SetWidth" v:prompt=""/>
				<v:ud v:nameU="SetHeight" v:prompt=""/>
				<v:ud v:nameU="PositionID" v:prompt="" v:val="VT0(0):26"/>
				<v:ud v:nameU="DeltaX" v:prompt="" v:val="VT0(0):26"/>
				<v:ud v:nameU="DeltaY" v:prompt="" v:val="VT0(0):26"/>
				<v:ud v:nameU="ParLocX" v:prompt="" v:val="VT0(0):26"/>
				<v:ud v:nameU="ParLocY" v:prompt="" v:val="VT0(0):26"/>
				<v:ud v:nameU="PageLoc" v:prompt="" v:val="VT0(0):26"/>
				<v:ud v:nameU="ParLoc" v:prompt="" v:val="VT0(0):26"/>
				<v:ud v:nameU="PictureAreaWidth" v:prompt="" v:val="VT0(0.26944444444444):0"/>
				<v:ud v:nameU="PictureAreaHeight" v:prompt="" v:val="VT0(0.43611111111111):0"/>
				<v:ud v:nameU="PictureAreaAspectRatio" v:prompt="" v:val="VT0(0.61783439490446):26"/>
				<v:ud v:nameU="PictureWidth" v:prompt="" v:val="VT0(0.26944444444444):0"/>
				<v:ud v:nameU="PictureHeight" v:prompt="" v:val="VT0(0.26944444444444):0"/>
				<v:ud v:nameU="DividerOffset" v:prompt="" v:val="VT0(0.2500244913737):0"/>
				<v:ud v:nameU="CalcTextLineHeight" v:prompt="" v:val="VT0(0.13333333333333):29"/>
				<v:ud v:nameU="ExpandedForPicture" v:prompt="" v:val="VT0(0):26"/>
				<v:ud v:nameU="Theme" v:prompt="" v:val="VT0(0):26"/>
				<v:ud v:nameU="visVersion" v:prompt="" v:val="VT0(12):26"/>
				<v:ud v:nameU="Width" v:prompt="" v:val="VT0(1.1273560667284):1"/>
				<v:ud v:nameU="Height" v:prompt="" v:val="VT0(0.81894863019523):1"/>
				<v:ud v:nameU="Prop" v:prompt="" v:val="VT4(Name)"/>
				<v:ud v:nameU="PositionID" v:prompt="" v:val="VT4({4AF075FF-1B38-4DF5-A52C-EB4621F7D9B9})"/>
				<v:ud v:nameU="ParLocX" v:prompt="" v:val="VT0(0):26"/>
				<v:ud v:nameU="ParLocY" v:prompt="" v:val="VT0(0):26"/>
				<v:ud v:nameU="PageLoc" v:prompt="" v:val="VT7(PNT(0,0)):40"/>
				<v:ud v:nameU="PictureAreaWidth" v:prompt="" v:val="VT0(0.31189646668725):0"/>
				<v:ud v:nameU="PictureAreaHeight" v:prompt="" v:val="VT0(0.75505974130634):0"/>
				<v:ud v:nameU="PictureAreaAspectRatio" v:prompt="" v:val="VT0(0.41307521726378):26"/>
				<v:ud v:nameU="PictureWidth" v:prompt="" v:val="VT0(0.31189646668725):0"/>
				<v:ud v:nameU="PictureHeight" v:prompt="" v:val="VT0(0.31189646668725):0"/>
				<v:ud v:nameU="DividerOffset" v:prompt="" v:val="VT0(0.40950084097652):29"/>
				<v:ud v:nameU="CalcTextLineHeight" v:prompt="" v:val="VT0(0.2):29"/>
			</v:userDefs>
			<title>Manager.48</title>
			<desc>version 5</desc>
			<g id="shape42-44" v:mID="42" v:groupContext="groupContent">
				<v:textBlock v:margins="rect(0,0,0,0)"/>
				<v:textRect cx="40.5848" cy="543.707" width="77.12" height="29.4822"/>
				<path d="M0 573.19 L0 514.22 L81.17 514.22 L81.17 573.19 L0 573.19 Z" class="st1"/>
				<path d="M0 573.19 L0 514.22 L81.17 514.22 L81.17 573.19 L0 573.19" class="st2"/>
				<path d="M1.8 571.39 L1.8 516.02 L79.37 516.02 L79.37 571.39 L1.8 571.39" class="st2"/>
				<text x="21.24" y="540.11" class="st3" v:langID="1033"><v:paragraph v:horizAlign="1"/><v:tabList/>version<v:newlineChar/><tspan
							x="37.25" dy="1.2em" class="st4">5</tspan></text>			</g>
		</g>
		<g id="group47-50" transform="translate(116.236,-81.707) rotate(0.2)" v:mID="47" v:groupContext="group">
			<v:custProps>
				<v:cp v:nameU="Department" v:lbl="Department" v:type="0" v:invis="false" v:ask="false" v:langID="1033" v:cal="0"
						v:val="VT4(Department)"/>
				<v:cp v:nameU="Telephone" v:lbl="Telephone" v:type="0" v:invis="false" v:ask="false" v:langID="1033" v:cal="0"
						v:val="VT4(Telephone)"/>
				<v:cp v:nameU="Name" v:lbl="Name" v:type="0" v:invis="false" v:ask="false" v:langID="1033" v:cal="0"
						v:val="VT4(Name)"/>
				<v:cp v:nameU="Title" v:lbl="Title" v:type="0" v:invis="false" v:ask="false" v:langID="1033" v:cal="0"
						v:val="VT4(Title)"/>
				<v:cp v:nameU="Email" v:lbl="E-mail" v:type="0" v:invis="false" v:ask="false" v:langID="1033" v:cal="0"
						v:val="VT4(E-mail)"/>
				<v:cp v:nameU="Name" v:lbl="" v:prompt="" v:type="0" v:format="" v:sortKey="" v:invis="false" v:ask="false"
						v:langID="0" v:cal="0" v:val="VT4(linkID)"/>
				<v:cp v:nameU="Calendar" v:lbl="" v:prompt="" v:type="0" v:format="" v:sortKey="" v:invis="false" v:ask="false"
						v:langID="0" v:cal="0"/>
			</v:custProps>
			<v:userDefs>
				<v:ud v:nameU="Solsh" v:prompt="" v:val="VT15({0BF98B35-200C-41D5-8A23-20EF77CBC94A}):41"/>
				<v:ud v:nameU="ShapeType" v:prompt="" v:val="VT0(1):26"/>
				<v:ud v:nameU="ShowPicture" v:prompt="" v:val="VT0(0):26"/>
				<v:ud v:nameU="ShowSubordinates" v:prompt="" v:val="VT0(1):26"/>
				<v:ud v:nameU="DocShowPicture" v:prompt="" v:val="VT0(1):26"/>
				<v:ud v:nameU="Margin" v:prompt="" v:val="VT0(0.025):0"/>
				<v:ud v:nameU="HasSubordinates" v:prompt="" v:val="VT0(0):26"/>
				<v:ud v:nameU="IsHidingSubs" v:prompt="" v:val="VT0(0):5"/>
				<v:ud v:nameU="ShowDivider" v:prompt="" v:val="VT0(0):26"/>
				<v:ud v:nameU="ThisLayoutStyle" v:prompt="" v:val="VT0(0):26"/>
				<v:ud v:nameU="HasPicture" v:prompt="" v:val="VT0(0):26"/>
				<v:ud v:nameU="Width" v:prompt="" v:val="VT0(1):0"/>
				<v:ud v:nameU="Height" v:prompt="" v:val="VT0(0.5):0"/>
				<v:ud v:nameU="Prop" v:prompt=""/>
				<v:ud v:nameU="PictureAspectRatio" v:prompt="" v:val="VT0(1):26"/>
				<v:ud v:nameU="PictureID" v:prompt=""/>
				<v:ud v:nameU="SetWidth" v:prompt=""/>
				<v:ud v:nameU="SetHeight" v:prompt=""/>
				<v:ud v:nameU="PositionID" v:prompt="" v:val="VT0(0):26"/>
				<v:ud v:nameU="DeltaX" v:prompt="" v:val="VT0(0):26"/>
				<v:ud v:nameU="DeltaY" v:prompt="" v:val="VT0(0):26"/>
				<v:ud v:nameU="ParLocX" v:prompt="" v:val="VT0(0):26"/>
				<v:ud v:nameU="ParLocY" v:prompt="" v:val="VT0(0):26"/>
				<v:ud v:nameU="PageLoc" v:prompt="" v:val="VT0(0):26"/>
				<v:ud v:nameU="ParLoc" v:prompt="" v:val="VT0(0):26"/>
				<v:ud v:nameU="PictureAreaWidth" v:prompt="" v:val="VT0(0.26944444444444):0"/>
				<v:ud v:nameU="PictureAreaHeight" v:prompt="" v:val="VT0(0.43611111111111):0"/>
				<v:ud v:nameU="PictureAreaAspectRatio" v:prompt="" v:val="VT0(0.61783439490446):26"/>
				<v:ud v:nameU="PictureWidth" v:prompt="" v:val="VT0(0.26944444444444):0"/>
				<v:ud v:nameU="PictureHeight" v:prompt="" v:val="VT0(0.26944444444444):0"/>
				<v:ud v:nameU="DividerOffset" v:prompt="" v:val="VT0(0.2500244913737):0"/>
				<v:ud v:nameU="CalcTextLineHeight" v:prompt="" v:val="VT0(0.13333333333333):29"/>
				<v:ud v:nameU="ExpandedForPicture" v:prompt="" v:val="VT0(0):26"/>
				<v:ud v:nameU="Theme" v:prompt="" v:val="VT0(0):26"/>
				<v:ud v:nameU="visVersion" v:prompt="" v:val="VT0(12):26"/>
				<v:ud v:nameU="Width" v:prompt="" v:val="VT0(1.1236993665294):1"/>
				<v:ud v:nameU="Height" v:prompt="" v:val="VT0(0.8026260445275):1"/>
				<v:ud v:nameU="Prop" v:prompt="" v:val="VT4(Name)"/>
				<v:ud v:nameU="PositionID" v:prompt="" v:val="VT4({FE634FAF-FC78-464F-8406-D23FD107AA93})"/>
				<v:ud v:nameU="ParLocX" v:prompt="" v:val="VT0(0):26"/>
				<v:ud v:nameU="ParLocY" v:prompt="" v:val="VT0(0):26"/>
				<v:ud v:nameU="PageLoc" v:prompt="" v:val="VT7(PNT(0,0)):40"/>
				<v:ud v:nameU="PictureAreaWidth" v:prompt="" v:val="VT0(0.3106775666209):0"/>
				<v:ud v:nameU="PictureAreaHeight" v:prompt="" v:val="VT0(0.73873715563861):0"/>
				<v:ud v:nameU="PictureAreaAspectRatio" v:prompt="" v:val="VT0(0.42055224141573):26"/>
				<v:ud v:nameU="PictureWidth" v:prompt="" v:val="VT0(0.3106775666209):0"/>
				<v:ud v:nameU="PictureHeight" v:prompt="" v:val="VT0(0.3106775666209):0"/>
				<v:ud v:nameU="DividerOffset" v:prompt="" v:val="VT0(0.40133954814266):29"/>
				<v:ud v:nameU="CalcTextLineHeight" v:prompt="" v:val="VT0(0.2):29"/>
			</v:userDefs>
			<title>Manager.47</title>
			<desc>linkID 8</desc>
			<g id="shape47-51" v:mID="47" v:groupContext="groupContent">
				<v:textBlock v:margins="rect(0,0,0,0)"/>
				<v:textRect cx="40.4532" cy="544.294" width="76.87" height="28.8945"/>
				<path d="M0 573.19 L0 515.4 L80.91 515.4 L80.91 573.19 L0 573.19 Z" class="st1"/>
				<path d="M0 573.19 L0 515.4 L80.91 515.4 L80.91 573.19 L0 573.19" class="st2"/>
				<path d="M1.8 571.39 L1.8 517.2 L79.11 517.2 L79.11 571.39 L1.8 571.39" class="st2"/>
				<text x="25.45" y="540.69" class="st3" v:langID="1033"><v:paragraph v:horizAlign="1"/><v:tabList/>linkID<v:newlineChar/><tspan
							x="37.12" dy="1.2em" class="st4">8</tspan></text>			</g>
		</g>
		<g id="group52-57" transform="translate(2.3608,-81.6929) rotate(0.2)" v:mID="52" v:groupContext="group">
			<v:custProps>
				<v:cp v:nameU="Department" v:lbl="Department" v:type="0" v:invis="false" v:ask="false" v:langID="1033" v:cal="0"
						v:val="VT4(Department)"/>
				<v:cp v:nameU="Telephone" v:lbl="Telephone" v:type="0" v:invis="false" v:ask="false" v:langID="1033" v:cal="0"
						v:val="VT4(Telephone)"/>
				<v:cp v:nameU="Name" v:lbl="Name" v:type="0" v:invis="false" v:ask="false" v:langID="1033" v:cal="0"
						v:val="VT4(Name)"/>
				<v:cp v:nameU="Title" v:lbl="Title" v:type="0" v:invis="false" v:ask="false" v:langID="1033" v:cal="0"
						v:val="VT4(Title)"/>
				<v:cp v:nameU="Email" v:lbl="E-mail" v:type="0" v:invis="false" v:ask="false" v:langID="1033" v:cal="0"
						v:val="VT4(E-mail)"/>
				<v:cp v:nameU="Name" v:lbl="" v:prompt="" v:type="0" v:format="" v:sortKey="" v:invis="false" v:ask="false"
						v:langID="0" v:cal="0" v:val="VT4(adjunctDeviceId2)"/>
				<v:cp v:nameU="Calendar" v:lbl="" v:prompt="" v:type="0" v:format="" v:sortKey="" v:invis="false" v:ask="false"
						v:langID="0" v:cal="0"/>
			</v:custProps>
			<v:userDefs>
				<v:ud v:nameU="Solsh" v:prompt="" v:val="VT15({0BF98B35-200C-41D5-8A23-20EF77CBC94A}):41"/>
				<v:ud v:nameU="ShapeType" v:prompt="" v:val="VT0(1):26"/>
				<v:ud v:nameU="ShowPicture" v:prompt="" v:val="VT0(0):26"/>
				<v:ud v:nameU="ShowSubordinates" v:prompt="" v:val="VT0(1):26"/>
				<v:ud v:nameU="DocShowPicture" v:prompt="" v:val="VT0(1):26"/>
				<v:ud v:nameU="Margin" v:prompt="" v:val="VT0(0.025):0"/>
				<v:ud v:nameU="HasSubordinates" v:prompt="" v:val="VT0(0):26"/>
				<v:ud v:nameU="IsHidingSubs" v:prompt="" v:val="VT0(0):5"/>
				<v:ud v:nameU="ShowDivider" v:prompt="" v:val="VT0(0):26"/>
				<v:ud v:nameU="ThisLayoutStyle" v:prompt="" v:val="VT0(0):26"/>
				<v:ud v:nameU="HasPicture" v:prompt="" v:val="VT0(0):26"/>
				<v:ud v:nameU="Width" v:prompt="" v:val="VT0(1):0"/>
				<v:ud v:nameU="Height" v:prompt="" v:val="VT0(0.5):0"/>
				<v:ud v:nameU="Prop" v:prompt=""/>
				<v:ud v:nameU="PictureAspectRatio" v:prompt="" v:val="VT0(1):26"/>
				<v:ud v:nameU="PictureID" v:prompt=""/>
				<v:ud v:nameU="SetWidth" v:prompt=""/>
				<v:ud v:nameU="SetHeight" v:prompt=""/>
				<v:ud v:nameU="PositionID" v:prompt="" v:val="VT0(0):26"/>
				<v:ud v:nameU="DeltaX" v:prompt="" v:val="VT0(0):26"/>
				<v:ud v:nameU="DeltaY" v:prompt="" v:val="VT0(0):26"/>
				<v:ud v:nameU="ParLocX" v:prompt="" v:val="VT0(0):26"/>
				<v:ud v:nameU="ParLocY" v:prompt="" v:val="VT0(0):26"/>
				<v:ud v:nameU="PageLoc" v:prompt="" v:val="VT0(0):26"/>
				<v:ud v:nameU="ParLoc" v:prompt="" v:val="VT0(0):26"/>
				<v:ud v:nameU="PictureAreaWidth" v:prompt="" v:val="VT0(0.26944444444444):0"/>
				<v:ud v:nameU="PictureAreaHeight" v:prompt="" v:val="VT0(0.43611111111111):0"/>
				<v:ud v:nameU="PictureAreaAspectRatio" v:prompt="" v:val="VT0(0.61783439490446):26"/>
				<v:ud v:nameU="PictureWidth" v:prompt="" v:val="VT0(0.26944444444444):0"/>
				<v:ud v:nameU="PictureHeight" v:prompt="" v:val="VT0(0.26944444444444):0"/>
				<v:ud v:nameU="DividerOffset" v:prompt="" v:val="VT0(0.2500244913737):0"/>
				<v:ud v:nameU="CalcTextLineHeight" v:prompt="" v:val="VT0(0.13333333333333):29"/>
				<v:ud v:nameU="ExpandedForPicture" v:prompt="" v:val="VT0(0):26"/>
				<v:ud v:nameU="Theme" v:prompt="" v:val="VT0(0):26"/>
				<v:ud v:nameU="visVersion" v:prompt="" v:val="VT0(12):26"/>
				<v:ud v:nameU="ThisLayoutStyle" v:prompt="" v:val="VT0(100):26"/>
				<v:ud v:nameU="Width" v:prompt="" v:val="VT0(1.4192913196924):1"/>
				<v:ud v:nameU="Height" v:prompt="" v:val="VT0(0.80524444592738):1"/>
				<v:ud v:nameU="Prop" v:prompt="" v:val="VT4(Name)"/>
				<v:ud v:nameU="PositionID" v:prompt="" v:val="VT4({A72F5E47-4786-402A-8D78-A493D64F9BBC})"/>
				<v:ud v:nameU="PictureAreaWidth" v:prompt="" v:val="VT0(0.40920821767526):0"/>
				<v:ud v:nameU="PictureAreaHeight" v:prompt="" v:val="VT0(0.74135555703849):0"/>
				<v:ud v:nameU="PictureAreaAspectRatio" v:prompt="" v:val="VT0(0.55197295520375):26"/>
				<v:ud v:nameU="PictureWidth" v:prompt="" v:val="VT0(0.40920821767526):0"/>
				<v:ud v:nameU="PictureHeight" v:prompt="" v:val="VT0(0.40920821767526):0"/>
				<v:ud v:nameU="DividerOffset" v:prompt="" v:val="VT0(0.40264874884259):29"/>
				<v:ud v:nameU="CalcTextLineHeight" v:prompt="" v:val="VT0(0.2):29"/>
			</v:userDefs>
			<title>Manager.93</title>
			<desc>adjunctDeviceId2 7</desc>
			<g id="shape52-58" v:mID="52" v:groupContext="groupContent">
				<v:textBlock v:margins="rect(0,0,0,0)"/>
				<v:textRect cx="51.0945" cy="544.2" width="97.08" height="28.9888"/>
				<path d="M0 573.19 L0 515.21 L102.19 515.21 L102.19 573.19 L0 573.19 Z" class="st1"/>
				<path d="M0 573.19 L0 515.21 L102.19 515.21 L102.19 573.19 L0 573.19" class="st2"/>
				<path d="M1.8 571.39 L1.8 517.01 L100.39 517.01 L100.39 571.39 L1.8 571.39" class="st2"/>
				<text x="5.07" y="540.6" class="st3" v:langID="1033"><v:paragraph v:horizAlign="1"/><v:tabList/>adjunctDeviceId2<v:newlineChar/><tspan
							x="47.76" dy="1.2em" class="st4">7</tspan></text>			</g>
		</g>
		<g id="group57-64" transform="translate(208.921,-80.4565) rotate(0.2)" v:mID="57" v:groupContext="group">
			<v:custProps>
				<v:cp v:nameU="Department" v:lbl="Department" v:type="0" v:invis="false" v:ask="false" v:langID="1033" v:cal="0"
						v:val="VT4(Department)"/>
				<v:cp v:nameU="Telephone" v:lbl="Telephone" v:type="0" v:invis="false" v:ask="false" v:langID="1033" v:cal="0"
						v:val="VT4(Telephone)"/>
				<v:cp v:nameU="Name" v:lbl="Name" v:type="0" v:invis="false" v:ask="false" v:langID="1033" v:cal="0"
						v:val="VT4(Name)"/>
				<v:cp v:nameU="Title" v:lbl="Title" v:type="0" v:invis="false" v:ask="false" v:langID="1033" v:cal="0"
						v:val="VT4(Title)"/>
				<v:cp v:nameU="Email" v:lbl="E-mail" v:type="0" v:invis="false" v:ask="false" v:langID="1033" v:cal="0"
						v:val="VT4(E-mail)"/>
				<v:cp v:nameU="Name" v:lbl="" v:prompt="" v:type="0" v:format="" v:sortKey="" v:invis="false" v:ask="false"
						v:langID="0" v:cal="0" v:val="VT4(processorID)"/>
				<v:cp v:nameU="Calendar" v:lbl="" v:prompt="" v:type="0" v:format="" v:sortKey="" v:invis="false" v:ask="false"
						v:langID="0" v:cal="0"/>
			</v:custProps>
			<v:userDefs>
				<v:ud v:nameU="Solsh" v:prompt="" v:val="VT15({0BF98B35-200C-41D5-8A23-20EF77CBC94A}):41"/>
				<v:ud v:nameU="ShapeType" v:prompt="" v:val="VT0(1):26"/>
				<v:ud v:nameU="ShowPicture" v:prompt="" v:val="VT0(0):26"/>
				<v:ud v:nameU="ShowSubordinates" v:prompt="" v:val="VT0(1):26"/>
				<v:ud v:nameU="DocShowPicture" v:prompt="" v:val="VT0(1):26"/>
				<v:ud v:nameU="Margin" v:prompt="" v:val="VT0(0.025):0"/>
				<v:ud v:nameU="HasSubordinates" v:prompt="" v:val="VT0(0):26"/>
				<v:ud v:nameU="IsHidingSubs" v:prompt="" v:val="VT0(0):5"/>
				<v:ud v:nameU="ShowDivider" v:prompt="" v:val="VT0(0):26"/>
				<v:ud v:nameU="ThisLayoutStyle" v:prompt="" v:val="VT0(0):26"/>
				<v:ud v:nameU="HasPicture" v:prompt="" v:val="VT0(0):26"/>
				<v:ud v:nameU="Width" v:prompt="" v:val="VT0(1):0"/>
				<v:ud v:nameU="Height" v:prompt="" v:val="VT0(0.5):0"/>
				<v:ud v:nameU="Prop" v:prompt=""/>
				<v:ud v:nameU="PictureAspectRatio" v:prompt="" v:val="VT0(1):26"/>
				<v:ud v:nameU="PictureID" v:prompt=""/>
				<v:ud v:nameU="SetWidth" v:prompt=""/>
				<v:ud v:nameU="SetHeight" v:prompt=""/>
				<v:ud v:nameU="PositionID" v:prompt="" v:val="VT0(0):26"/>
				<v:ud v:nameU="DeltaX" v:prompt="" v:val="VT0(0):26"/>
				<v:ud v:nameU="DeltaY" v:prompt="" v:val="VT0(0):26"/>
				<v:ud v:nameU="ParLocX" v:prompt="" v:val="VT0(0):26"/>
				<v:ud v:nameU="ParLocY" v:prompt="" v:val="VT0(0):26"/>
				<v:ud v:nameU="PageLoc" v:prompt="" v:val="VT0(0):26"/>
				<v:ud v:nameU="ParLoc" v:prompt="" v:val="VT0(0):26"/>
				<v:ud v:nameU="PictureAreaWidth" v:prompt="" v:val="VT0(0.26944444444444):0"/>
				<v:ud v:nameU="PictureAreaHeight" v:prompt="" v:val="VT0(0.43611111111111):0"/>
				<v:ud v:nameU="PictureAreaAspectRatio" v:prompt="" v:val="VT0(0.61783439490446):26"/>
				<v:ud v:nameU="PictureWidth" v:prompt="" v:val="VT0(0.26944444444444):0"/>
				<v:ud v:nameU="PictureHeight" v:prompt="" v:val="VT0(0.26944444444444):0"/>
				<v:ud v:nameU="DividerOffset" v:prompt="" v:val="VT0(0.2500244913737):0"/>
				<v:ud v:nameU="CalcTextLineHeight" v:prompt="" v:val="VT0(0.13333333333333):29"/>
				<v:ud v:nameU="ExpandedForPicture" v:prompt="" v:val="VT0(0):26"/>
				<v:ud v:nameU="Theme" v:prompt="" v:val="VT0(0):26"/>
				<v:ud v:nameU="visVersion" v:prompt="" v:val="VT0(12):26"/>
				<v:ud v:nameU="Width" v:prompt="" v:val="VT0(1.2484390790857):1"/>
				<v:ud v:nameU="Height" v:prompt="" v:val="VT0(0.81999500452905):1"/>
				<v:ud v:nameU="Prop" v:prompt="" v:val="VT4(Name)"/>
				<v:ud v:nameU="PositionID" v:prompt="" v:val="VT4({E4660C6D-E4FA-49B7-BDE7-D4B56E482354})"/>
				<v:ud v:nameU="PictureAreaWidth" v:prompt="" v:val="VT0(0.35225747080633):0"/>
				<v:ud v:nameU="PictureAreaHeight" v:prompt="" v:val="VT0(0.75610611564016):0"/>
				<v:ud v:nameU="PictureAreaAspectRatio" v:prompt="" v:val="VT0(0.46588364188549):26"/>
				<v:ud v:nameU="PictureWidth" v:prompt="" v:val="VT0(0.35225747080633):0"/>
				<v:ud v:nameU="PictureHeight" v:prompt="" v:val="VT0(0.35225747080633):0"/>
				<v:ud v:nameU="DividerOffset" v:prompt="" v:val="VT0(0.41002402814343):29"/>
				<v:ud v:nameU="CalcTextLineHeight" v:prompt="" v:val="VT0(0.2):29"/>
			</v:userDefs>
			<title>Manager.98</title>
			<desc>processorID 9</desc>
			<g id="shape57-65" v:mID="57" v:groupContext="groupContent">
				<v:textBlock v:margins="rect(0,0,0,0)"/>
				<v:textRect cx="44.9438" cy="543.669" width="85.4" height="29.5198"/>
				<path d="M0 573.19 L0 514.15 L89.89 514.15 L89.89 573.19 L0 573.19 Z" class="st1"/>
				<path d="M0 573.19 L0 514.15 L89.89 514.15 L89.89 573.19 L0 573.19" class="st2"/>
				<path d="M1.8 571.39 L1.8 515.95 L88.09 515.95 L88.09 571.39 L1.8 571.39" class="st2"/>
				<text x="12.6" y="540.07" class="st3" v:langID="1033"><v:paragraph v:horizAlign="1"/><v:tabList/>processorID<v:newlineChar/><tspan
							x="41.61" dy="1.2em" class="st4">9</tspan></text>			</g>
		</g>
		<g id="group62-71" transform="translate(310.592,-81.8965) rotate(0.2)" v:mID="62" v:groupContext="group">
			<v:custProps>
				<v:cp v:nameU="Department" v:lbl="Department" v:type="0" v:invis="false" v:ask="false" v:langID="1033" v:cal="0"
						v:val="VT4(Department)"/>
				<v:cp v:nameU="Telephone" v:lbl="Telephone" v:type="0" v:invis="false" v:ask="false" v:langID="1033" v:cal="0"
						v:val="VT4(Telephone)"/>
				<v:cp v:nameU="Name" v:lbl="Name" v:type="0" v:invis="false" v:ask="false" v:langID="1033" v:cal="0"
						v:val="VT4(Name)"/>
				<v:cp v:nameU="Title" v:lbl="Title" v:type="0" v:invis="false" v:ask="false" v:langID="1033" v:cal="0"
						v:val="VT4(Title)"/>
				<v:cp v:nameU="Email" v:lbl="E-mail" v:type="0" v:invis="false" v:ask="false" v:langID="1033" v:cal="0"
						v:val="VT4(E-mail)"/>
				<v:cp v:nameU="Name" v:lbl="" v:prompt="" v:type="0" v:format="" v:sortKey="" v:invis="false" v:ask="false"
						v:langID="0" v:cal="0" v:val="VT4(portID)"/>
				<v:cp v:nameU="Calendar" v:lbl="" v:prompt="" v:type="0" v:format="" v:sortKey="" v:invis="false" v:ask="false"
						v:langID="0" v:cal="0"/>
			</v:custProps>
			<v:userDefs>
				<v:ud v:nameU="Solsh" v:prompt="" v:val="VT15({0BF98B35-200C-41D5-8A23-20EF77CBC94A}):41"/>
				<v:ud v:nameU="ShapeType" v:prompt="" v:val="VT0(1):26"/>
				<v:ud v:nameU="ShowPicture" v:prompt="" v:val="VT0(0):26"/>
				<v:ud v:nameU="ShowSubordinates" v:prompt="" v:val="VT0(1):26"/>
				<v:ud v:nameU="DocShowPicture" v:prompt="" v:val="VT0(1):26"/>
				<v:ud v:nameU="Margin" v:prompt="" v:val="VT0(0.025):0"/>
				<v:ud v:nameU="HasSubordinates" v:prompt="" v:val="VT0(0):26"/>
				<v:ud v:nameU="IsHidingSubs" v:prompt="" v:val="VT0(0):5"/>
				<v:ud v:nameU="ShowDivider" v:prompt="" v:val="VT0(0):26"/>
				<v:ud v:nameU="ThisLayoutStyle" v:prompt="" v:val="VT0(0):26"/>
				<v:ud v:nameU="HasPicture" v:prompt="" v:val="VT0(0):26"/>
				<v:ud v:nameU="Width" v:prompt="" v:val="VT0(1):0"/>
				<v:ud v:nameU="Height" v:prompt="" v:val="VT0(0.5):0"/>
				<v:ud v:nameU="Prop" v:prompt=""/>
				<v:ud v:nameU="PictureAspectRatio" v:prompt="" v:val="VT0(1):26"/>
				<v:ud v:nameU="PictureID" v:prompt=""/>
				<v:ud v:nameU="SetWidth" v:prompt=""/>
				<v:ud v:nameU="SetHeight" v:prompt=""/>
				<v:ud v:nameU="PositionID" v:prompt="" v:val="VT0(0):26"/>
				<v:ud v:nameU="DeltaX" v:prompt="" v:val="VT0(0):26"/>
				<v:ud v:nameU="DeltaY" v:prompt="" v:val="VT0(0):26"/>
				<v:ud v:nameU="ParLocX" v:prompt="" v:val="VT0(0):26"/>
				<v:ud v:nameU="ParLocY" v:prompt="" v:val="VT0(0):26"/>
				<v:ud v:nameU="PageLoc" v:prompt="" v:val="VT0(0):26"/>
				<v:ud v:nameU="ParLoc" v:prompt="" v:val="VT0(0):26"/>
				<v:ud v:nameU="PictureAreaWidth" v:prompt="" v:val="VT0(0.26944444444444):0"/>
				<v:ud v:nameU="PictureAreaHeight" v:prompt="" v:val="VT0(0.43611111111111):0"/>
				<v:ud v:nameU="PictureAreaAspectRatio" v:prompt="" v:val="VT0(0.61783439490446):26"/>
				<v:ud v:nameU="PictureWidth" v:prompt="" v:val="VT0(0.26944444444444):0"/>
				<v:ud v:nameU="PictureHeight" v:prompt="" v:val="VT0(0.26944444444444):0"/>
				<v:ud v:nameU="DividerOffset" v:prompt="" v:val="VT0(0.2500244913737):0"/>
				<v:ud v:nameU="CalcTextLineHeight" v:prompt="" v:val="VT0(0.13333333333333):29"/>
				<v:ud v:nameU="ExpandedForPicture" v:prompt="" v:val="VT0(0):26"/>
				<v:ud v:nameU="Theme" v:prompt="" v:val="VT0(0):26"/>
				<v:ud v:nameU="visVersion" v:prompt="" v:val="VT0(12):26"/>
				<v:ud v:nameU="ThisLayoutStyle" v:prompt="" v:val="VT0(100):26"/>
				<v:ud v:nameU="Width" v:prompt="" v:val="VT0(1.3745588993141):1"/>
				<v:ud v:nameU="Height" v:prompt="" v:val="VT0(0.79999512576126):1"/>
				<v:ud v:nameU="Prop" v:prompt="" v:val="VT4(Name)"/>
				<v:ud v:nameU="PositionID" v:prompt="" v:val="VT4({B442143D-FF91-40E7-AC99-450F3D98CC35})"/>
				<v:ud v:nameU="PictureAreaWidth" v:prompt="" v:val="VT0(0.39429741088247):0"/>
				<v:ud v:nameU="PictureAreaHeight" v:prompt="" v:val="VT0(0.73610623687238):0"/>
				<v:ud v:nameU="PictureAreaAspectRatio" v:prompt="" v:val="VT0(0.53565285977985):26"/>
				<v:ud v:nameU="PictureWidth" v:prompt="" v:val="VT0(0.39429741088247):0"/>
				<v:ud v:nameU="PictureHeight" v:prompt="" v:val="VT0(0.39429741088247):0"/>
				<v:ud v:nameU="DividerOffset" v:prompt="" v:val="VT0(0.40002408875954):29"/>
				<v:ud v:nameU="CalcTextLineHeight" v:prompt="" v:val="VT0(0.2):29"/>
			</v:userDefs>
			<title>Manager.103</title>
			<desc>portID 10</desc>
			<g id="shape62-72" v:mID="62" v:groupContext="groupContent">
				<v:textBlock v:margins="rect(0,0,0,0)"/>
				<v:textRect cx="49.4841" cy="544.389" width="94.02" height="28.7998"/>
				<path d="M0 573.19 L0 515.59 L98.97 515.59 L98.97 573.19 L0 573.19 Z" class="st1"/>
				<path d="M0 573.19 L0 515.59 L98.97 515.59 L98.97 573.19 L0 573.19" class="st2"/>
				<path d="M1.8 571.39 L1.8 517.39 L97.17 517.39 L97.17 571.39 L1.8 571.39" class="st2"/>
				<text x="33.15" y="540.79" class="st3" v:langID="1033"><v:paragraph v:horizAlign="1"/><v:tabList/>portID<v:newlineChar/><tspan
							x="42.81" dy="1.2em" class="st4">10</tspan></text>			</g>
		</g>
		<g id="shape67-78" v:mID="67" v:groupContext="shape" transform="translate(239.643,-432.815) rotate(0.2)">
			<title>Sheet.67</title>
			<desc>OID: 1.3.6.1.4.1.36872.2.1.1</desc>
			<v:textBlock v:margins="rect(0,0,0,0)"/>
			<v:textRect cx="65.6092" cy="566.19" width="131.22" height="13.9987"/>
			<rect x="0" y="559.19" width="131.218" height="13.9987" class="st5"/>
			<text x="53.28" y="562.59" class="st3" v:langID="1033"><v:paragraph v:horizAlign="1"/><v:tabList/>OID: <tspan x="3.89"
						dy="1.2em" class="st4">1</tspan>.3.6.1.4.1.36872.2.1.1</text>		</g>
		<g id="shape68-82" v:mID="68" v:groupContext="shape" transform="translate(235.504,713.693) rotate(-179.736)">
			<title>Sheet.68</title>
			<path d="M0 573.19 L27.13 573.19" class="st6"/>
		</g>
		<g id="group69-88" transform="translate(421.338,-80.4879) rotate(0.2)" v:mID="69" v:groupContext="group">
			<v:custProps>
				<v:cp v:nameU="Department" v:lbl="Department" v:type="0" v:invis="false" v:ask="false" v:langID="1033" v:cal="0"
						v:val="VT4(Department)"/>
				<v:cp v:nameU="Telephone" v:lbl="Telephone" v:type="0" v:invis="false" v:ask="false" v:langID="1033" v:cal="0"
						v:val="VT4(Telephone)"/>
				<v:cp v:nameU="Name" v:lbl="Name" v:type="0" v:invis="false" v:ask="false" v:langID="1033" v:cal="0"
						v:val="VT4(Name)"/>
				<v:cp v:nameU="Title" v:lbl="Title" v:type="0" v:invis="false" v:ask="false" v:langID="1033" v:cal="0"
						v:val="VT4(Title)"/>
				<v:cp v:nameU="Email" v:lbl="E-mail" v:type="0" v:invis="false" v:ask="false" v:langID="1033" v:cal="0"
						v:val="VT4(E-mail)"/>
				<v:cp v:nameU="Name" v:lbl="" v:prompt="" v:type="0" v:format="" v:sortKey="" v:invis="false" v:ask="false"
						v:langID="0" v:cal="0" v:val="VT4(Direction)"/>
				<v:cp v:nameU="Calendar" v:lbl="" v:prompt="" v:type="0" v:format="" v:sortKey="" v:invis="false" v:ask="false"
						v:langID="0" v:cal="0"/>
			</v:custProps>
			<v:userDefs>
				<v:ud v:nameU="Solsh" v:prompt="" v:val="VT15({0BF98B35-200C-41D5-8A23-20EF77CBC94A}):41"/>
				<v:ud v:nameU="ShapeType" v:prompt="" v:val="VT0(1):26"/>
				<v:ud v:nameU="ShowPicture" v:prompt="" v:val="VT0(0):26"/>
				<v:ud v:nameU="ShowSubordinates" v:prompt="" v:val="VT0(1):26"/>
				<v:ud v:nameU="DocShowPicture" v:prompt="" v:val="VT0(1):26"/>
				<v:ud v:nameU="Margin" v:prompt="" v:val="VT0(0.025):0"/>
				<v:ud v:nameU="HasSubordinates" v:prompt="" v:val="VT0(0):26"/>
				<v:ud v:nameU="IsHidingSubs" v:prompt="" v:val="VT0(0):5"/>
				<v:ud v:nameU="ShowDivider" v:prompt="" v:val="VT0(0):26"/>
				<v:ud v:nameU="ThisLayoutStyle" v:prompt="" v:val="VT0(0):26"/>
				<v:ud v:nameU="HasPicture" v:prompt="" v:val="VT0(0):26"/>
				<v:ud v:nameU="Width" v:prompt="" v:val="VT0(1):0"/>
				<v:ud v:nameU="Height" v:prompt="" v:val="VT0(0.5):0"/>
				<v:ud v:nameU="Prop" v:prompt=""/>
				<v:ud v:nameU="PictureAspectRatio" v:prompt="" v:val="VT0(1):26"/>
				<v:ud v:nameU="PictureID" v:prompt=""/>
				<v:ud v:nameU="SetWidth" v:prompt=""/>
				<v:ud v:nameU="SetHeight" v:prompt=""/>
				<v:ud v:nameU="PositionID" v:prompt="" v:val="VT0(0):26"/>
				<v:ud v:nameU="DeltaX" v:prompt="" v:val="VT0(0):26"/>
				<v:ud v:nameU="DeltaY" v:prompt="" v:val="VT0(0):26"/>
				<v:ud v:nameU="ParLocX" v:prompt="" v:val="VT0(0):26"/>
				<v:ud v:nameU="ParLocY" v:prompt="" v:val="VT0(0):26"/>
				<v:ud v:nameU="PageLoc" v:prompt="" v:val="VT0(0):26"/>
				<v:ud v:nameU="ParLoc" v:prompt="" v:val="VT0(0):26"/>
				<v:ud v:nameU="PictureAreaWidth" v:prompt="" v:val="VT0(0.26944444444444):0"/>
				<v:ud v:nameU="PictureAreaHeight" v:prompt="" v:val="VT0(0.43611111111111):0"/>
				<v:ud v:nameU="PictureAreaAspectRatio" v:prompt="" v:val="VT0(0.61783439490446):26"/>
				<v:ud v:nameU="PictureWidth" v:prompt="" v:val="VT0(0.26944444444444):0"/>
				<v:ud v:nameU="PictureHeight" v:prompt="" v:val="VT0(0.26944444444444):0"/>
				<v:ud v:nameU="DividerOffset" v:prompt="" v:val="VT0(0.2500244913737):0"/>
				<v:ud v:nameU="CalcTextLineHeight" v:prompt="" v:val="VT0(0.13333333333333):29"/>
				<v:ud v:nameU="ExpandedForPicture" v:prompt="" v:val="VT0(0):26"/>
				<v:ud v:nameU="Theme" v:prompt="" v:val="VT0(0):26"/>
				<v:ud v:nameU="visVersion" v:prompt="" v:val="VT0(12):26"/>
				<v:ud v:nameU="ThisLayoutStyle" v:prompt="" v:val="VT0(100):26"/>
				<v:ud v:nameU="Width" v:prompt="" v:val="VT0(1.1865179727713):1"/>
				<v:ud v:nameU="Height" v:prompt="" v:val="VT0(0.81955867286841):1"/>
				<v:ud v:nameU="Prop" v:prompt="" v:val="VT4(Name)"/>
				<v:ud v:nameU="PositionID" v:prompt="" v:val="VT4({7E0AD906-7BE7-475F-8DCA-9C4D4839E5B5})"/>
				<v:ud v:nameU="PictureAreaWidth" v:prompt="" v:val="VT0(0.33161710203489):0"/>
				<v:ud v:nameU="PictureAreaHeight" v:prompt="" v:val="VT0(0.75566978397952):0"/>
				<v:ud v:nameU="PictureAreaAspectRatio" v:prompt="" v:val="VT0(0.43883864230818):26"/>
				<v:ud v:nameU="PictureWidth" v:prompt="" v:val="VT0(0.33161710203489):0"/>
				<v:ud v:nameU="PictureHeight" v:prompt="" v:val="VT0(0.33161710203489):0"/>
				<v:ud v:nameU="DividerOffset" v:prompt="" v:val="VT0(0.40980586231311):29"/>
				<v:ud v:nameU="CalcTextLineHeight" v:prompt="" v:val="VT0(0.2):29"/>
			</v:userDefs>
			<title>Manager.116</title>
			<desc>Direction 11</desc>
			<g id="shape69-89" v:mID="69" v:groupContext="groupContent">
				<v:textBlock v:margins="rect(0,0,0,0)"/>
				<v:textRect cx="42.7146" cy="543.685" width="81.16" height="29.5041"/>
				<path d="M0 573.19 L0 514.18 L85.43 514.18 L85.43 573.19 L0 573.19 Z" class="st1"/>
				<path d="M0 573.19 L0 514.18 L85.43 514.18 L85.43 573.19 L0 573.19" class="st2"/>
				<path d="M1.8 571.39 L1.8 515.98 L83.63 515.98 L83.63 571.39 L1.8 571.39" class="st2"/>
				<text x="19.04" y="540.08" class="st3" v:langID="1033"><v:paragraph v:horizAlign="1"/><v:tabList/>Direction<v:newlineChar/><tspan
							x="36.04" dy="1.2em" class="st4">11</tspan></text>			</g>
		</g>
		<g id="shape75-95" v:mID="75" v:groupContext="shape" v:layerMember="0" transform="translate(893.238,272.119) rotate(90)">
			<title>Multi-tree square.127</title>
			<v:userDefs>
				<v:ud v:nameU="Scale" v:val="VT0(1):26"/>
				<v:ud v:nameU="AntiScale" v:val="VT0(1):26"/>
				<v:ud v:nameU="visVersion" v:val="VT0(15):26"/>
			</v:userDefs>
			<path d="M0 573.19 L39.71 573.19" class="st2"/>
			<path d="M39.71 573.19 L39.71 841.78 L70.73 841.78" class="st2"/>
			<path d="M39.71 573.19 L39.71 332.35 L70.77 332.35" class="st2"/>
			<path d="M39.71 573.19 L39.71 751.65 L70.74 751.65" class="st2"/>
			<path d="M39.71 573.19 L39.71 652.66 L70.73 652.66" class="st2"/>
			<path d="M39.71 573.19 L39.71 544.95 L70.76 544.95" class="st2"/>
			<path d="M39.71 573.19 L39.71 438.58 L70.74 438.58" class="st2"/>
		</g>
		<g id="group77-104" transform="translate(513.234,-171.529) rotate(0.2)" v:mID="77" v:groupContext="group">
			<v:custProps>
				<v:cp v:nameU="Department" v:lbl="Department" v:type="0" v:invis="false" v:ask="false" v:langID="1033" v:cal="0"
						v:val="VT4(Department)"/>
				<v:cp v:nameU="Telephone" v:lbl="Telephone" v:type="0" v:invis="false" v:ask="false" v:langID="1033" v:cal="0"
						v:val="VT4(Telephone)"/>
				<v:cp v:nameU="Name" v:lbl="Name" v:type="0" v:invis="false" v:ask="false" v:langID="1033" v:cal="0"
						v:val="VT4(Name)"/>
				<v:cp v:nameU="Title" v:lbl="Title" v:type="0" v:invis="false" v:ask="false" v:langID="1033" v:cal="0"
						v:val="VT4(Title)"/>
				<v:cp v:nameU="Email" v:lbl="E-mail" v:type="0" v:invis="false" v:ask="false" v:langID="1033" v:cal="0"
						v:val="VT4(E-mail)"/>
				<v:cp v:nameU="Name" v:lbl="" v:prompt="" v:type="0" v:format="" v:sortKey="" v:invis="false" v:ask="false"
						v:langID="0" v:cal="0" v:val="VT4(ssgClass)"/>
				<v:cp v:nameU="Calendar" v:lbl="" v:prompt="" v:type="0" v:format="" v:sortKey="" v:invis="false" v:ask="false"
						v:langID="0" v:cal="0"/>
			</v:custProps>
			<v:userDefs>
				<v:ud v:nameU="Solsh" v:prompt="" v:val="VT15({0BF98B35-200C-41D5-8A23-20EF77CBC94A}):41"/>
				<v:ud v:nameU="ShapeType" v:prompt="" v:val="VT0(1):26"/>
				<v:ud v:nameU="ShowPicture" v:prompt="" v:val="VT0(0):26"/>
				<v:ud v:nameU="ShowSubordinates" v:prompt="" v:val="VT0(1):26"/>
				<v:ud v:nameU="DocShowPicture" v:prompt="" v:val="VT0(1):26"/>
				<v:ud v:nameU="Margin" v:prompt="" v:val="VT0(0.025):0"/>
				<v:ud v:nameU="HasSubordinates" v:prompt="" v:val="VT0(0):26"/>
				<v:ud v:nameU="IsHidingSubs" v:prompt="" v:val="VT0(0):5"/>
				<v:ud v:nameU="ShowDivider" v:prompt="" v:val="VT0(0):26"/>
				<v:ud v:nameU="ThisLayoutStyle" v:prompt="" v:val="VT0(0):26"/>
				<v:ud v:nameU="HasPicture" v:prompt="" v:val="VT0(0):26"/>
				<v:ud v:nameU="Width" v:prompt="" v:val="VT0(1):0"/>
				<v:ud v:nameU="Height" v:prompt="" v:val="VT0(0.5):0"/>
				<v:ud v:nameU="Prop" v:prompt=""/>
				<v:ud v:nameU="PictureAspectRatio" v:prompt="" v:val="VT0(1):26"/>
				<v:ud v:nameU="PictureID" v:prompt=""/>
				<v:ud v:nameU="SetWidth" v:prompt=""/>
				<v:ud v:nameU="SetHeight" v:prompt=""/>
				<v:ud v:nameU="PositionID" v:prompt="" v:val="VT0(0):26"/>
				<v:ud v:nameU="DeltaX" v:prompt="" v:val="VT0(0):26"/>
				<v:ud v:nameU="DeltaY" v:prompt="" v:val="VT0(0):26"/>
				<v:ud v:nameU="ParLocX" v:prompt="" v:val="VT0(0):26"/>
				<v:ud v:nameU="ParLocY" v:prompt="" v:val="VT0(0):26"/>
				<v:ud v:nameU="PageLoc" v:prompt="" v:val="VT0(0):26"/>
				<v:ud v:nameU="ParLoc" v:prompt="" v:val="VT0(0):26"/>
				<v:ud v:nameU="PictureAreaWidth" v:prompt="" v:val="VT0(0.26944444444444):0"/>
				<v:ud v:nameU="PictureAreaHeight" v:prompt="" v:val="VT0(0.43611111111111):0"/>
				<v:ud v:nameU="PictureAreaAspectRatio" v:prompt="" v:val="VT0(0.61783439490446):26"/>
				<v:ud v:nameU="PictureWidth" v:prompt="" v:val="VT0(0.26944444444444):0"/>
				<v:ud v:nameU="PictureHeight" v:prompt="" v:val="VT0(0.26944444444444):0"/>
				<v:ud v:nameU="DividerOffset" v:prompt="" v:val="VT0(0.2500244913737):0"/>
				<v:ud v:nameU="CalcTextLineHeight" v:prompt="" v:val="VT0(0.13333333333333):29"/>
				<v:ud v:nameU="ExpandedForPicture" v:prompt="" v:val="VT0(0):26"/>
				<v:ud v:nameU="Theme" v:prompt="" v:val="VT0(0):26"/>
				<v:ud v:nameU="visVersion" v:prompt="" v:val="VT0(12):26"/>
				<v:ud v:nameU="Width" v:prompt="" v:val="VT0(1.3735903899697):1"/>
				<v:ud v:nameU="Height" v:prompt="" v:val="VT0(0.81868843819421):1"/>
				<v:ud v:nameU="Prop" v:prompt="" v:val="VT4(Name)"/>
				<v:ud v:nameU="PositionID" v:prompt="" v:val="VT4({52E3F149-F90F-4AC6-9AB3-3AC0C42DB2B4})"/>
				<v:ud v:nameU="PictureAreaWidth" v:prompt="" v:val="VT0(0.39397457443435):0"/>
				<v:ud v:nameU="PictureAreaHeight" v:prompt="" v:val="VT0(0.75479954930532):0"/>
				<v:ud v:nameU="PictureAreaAspectRatio" v:prompt="" v:val="VT0(0.52195920731133):26"/>
				<v:ud v:nameU="PictureWidth" v:prompt="" v:val="VT0(0.39397457443435):0"/>
				<v:ud v:nameU="PictureHeight" v:prompt="" v:val="VT0(0.39397457443435):0"/>
				<v:ud v:nameU="DividerOffset" v:prompt="" v:val="VT0(0.40937074497601):29"/>
				<v:ud v:nameU="CalcTextLineHeight" v:prompt="" v:val="VT0(0.2):29"/>
			</v:userDefs>
			<title>Manager.77</title>
			<desc>ssgClass 6</desc>
			<g id="shape77-105" v:mID="77" v:groupContext="groupContent">
				<v:textBlock v:margins="rect(0,0,0,0)"/>
				<v:textRect cx="49.4493" cy="543.716" width="93.96" height="29.4728"/>
				<path d="M0 573.19 L0 514.24 L98.9 514.24 L98.9 573.19 L0 573.19 Z" class="st1"/>
				<path d="M0 573.19 L0 514.24 L98.9 514.24 L98.9 573.19 L0 573.19" class="st2"/>
				<path d="M1.8 571.39 L1.8 516.04 L97.1 516.04 L97.1 571.39 L1.8 571.39" class="st2"/>
				<text x="25.11" y="540.12" class="st3" v:langID="1033"><v:paragraph v:horizAlign="1"/><v:tabList/>ssgClass<v:newlineChar/><tspan
							x="46.11" dy="1.2em" class="st4">6</tspan></text>			</g>
		</g>
		<g id="group82-111" transform="translate(518.55,-81.7107) rotate(0.2)" v:mID="82" v:groupContext="group">
			<v:custProps>
				<v:cp v:nameU="Department" v:lbl="Department" v:type="0" v:invis="false" v:ask="false" v:langID="1033" v:cal="0"
						v:val="VT4(Department)"/>
				<v:cp v:nameU="Telephone" v:lbl="Telephone" v:type="0" v:invis="false" v:ask="false" v:langID="1033" v:cal="0"
						v:val="VT4(Telephone)"/>
				<v:cp v:nameU="Name" v:lbl="Name" v:type="0" v:invis="false" v:ask="false" v:langID="1033" v:cal="0"
						v:val="VT4(Name)"/>
				<v:cp v:nameU="Title" v:lbl="Title" v:type="0" v:invis="false" v:ask="false" v:langID="1033" v:cal="0"
						v:val="VT4(Title)"/>
				<v:cp v:nameU="Email" v:lbl="E-mail" v:type="0" v:invis="false" v:ask="false" v:langID="1033" v:cal="0"
						v:val="VT4(E-mail)"/>
				<v:cp v:nameU="Name" v:lbl="" v:prompt="" v:type="0" v:format="" v:sortKey="" v:invis="false" v:ask="false"
						v:langID="0" v:cal="0" v:val="VT4(messageType)"/>
				<v:cp v:nameU="Calendar" v:lbl="" v:prompt="" v:type="0" v:format="" v:sortKey="" v:invis="false" v:ask="false"
						v:langID="0" v:cal="0"/>
			</v:custProps>
			<v:userDefs>
				<v:ud v:nameU="Solsh" v:prompt="" v:val="VT15({0BF98B35-200C-41D5-8A23-20EF77CBC94A}):41"/>
				<v:ud v:nameU="ShapeType" v:prompt="" v:val="VT0(1):26"/>
				<v:ud v:nameU="ShowPicture" v:prompt="" v:val="VT0(0):26"/>
				<v:ud v:nameU="ShowSubordinates" v:prompt="" v:val="VT0(1):26"/>
				<v:ud v:nameU="DocShowPicture" v:prompt="" v:val="VT0(1):26"/>
				<v:ud v:nameU="Margin" v:prompt="" v:val="VT0(0.025):0"/>
				<v:ud v:nameU="HasSubordinates" v:prompt="" v:val="VT0(0):26"/>
				<v:ud v:nameU="IsHidingSubs" v:prompt="" v:val="VT0(0):5"/>
				<v:ud v:nameU="ShowDivider" v:prompt="" v:val="VT0(0):26"/>
				<v:ud v:nameU="ThisLayoutStyle" v:prompt="" v:val="VT0(0):26"/>
				<v:ud v:nameU="HasPicture" v:prompt="" v:val="VT0(0):26"/>
				<v:ud v:nameU="Width" v:prompt="" v:val="VT0(1):0"/>
				<v:ud v:nameU="Height" v:prompt="" v:val="VT0(0.5):0"/>
				<v:ud v:nameU="Prop" v:prompt=""/>
				<v:ud v:nameU="PictureAspectRatio" v:prompt="" v:val="VT0(1):26"/>
				<v:ud v:nameU="PictureID" v:prompt=""/>
				<v:ud v:nameU="SetWidth" v:prompt=""/>
				<v:ud v:nameU="SetHeight" v:prompt=""/>
				<v:ud v:nameU="PositionID" v:prompt="" v:val="VT0(0):26"/>
				<v:ud v:nameU="DeltaX" v:prompt="" v:val="VT0(0):26"/>
				<v:ud v:nameU="DeltaY" v:prompt="" v:val="VT0(0):26"/>
				<v:ud v:nameU="ParLocX" v:prompt="" v:val="VT0(0):26"/>
				<v:ud v:nameU="ParLocY" v:prompt="" v:val="VT0(0):26"/>
				<v:ud v:nameU="PageLoc" v:prompt="" v:val="VT0(0):26"/>
				<v:ud v:nameU="ParLoc" v:prompt="" v:val="VT0(0):26"/>
				<v:ud v:nameU="PictureAreaWidth" v:prompt="" v:val="VT0(0.26944444444444):0"/>
				<v:ud v:nameU="PictureAreaHeight" v:prompt="" v:val="VT0(0.43611111111111):0"/>
				<v:ud v:nameU="PictureAreaAspectRatio" v:prompt="" v:val="VT0(0.61783439490446):26"/>
				<v:ud v:nameU="PictureWidth" v:prompt="" v:val="VT0(0.26944444444444):0"/>
				<v:ud v:nameU="PictureHeight" v:prompt="" v:val="VT0(0.26944444444444):0"/>
				<v:ud v:nameU="DividerOffset" v:prompt="" v:val="VT0(0.2500244913737):0"/>
				<v:ud v:nameU="CalcTextLineHeight" v:prompt="" v:val="VT0(0.13333333333333):29"/>
				<v:ud v:nameU="ExpandedForPicture" v:prompt="" v:val="VT0(0):26"/>
				<v:ud v:nameU="Theme" v:prompt="" v:val="VT0(0):26"/>
				<v:ud v:nameU="visVersion" v:prompt="" v:val="VT0(12):26"/>
				<v:ud v:nameU="ThisLayoutStyle" v:prompt="" v:val="VT0(100):26"/>
				<v:ud v:nameU="Width" v:prompt="" v:val="VT0(1.3432910003329):1"/>
				<v:ud v:nameU="Height" v:prompt="" v:val="VT0(0.80257465251948):1"/>
				<v:ud v:nameU="Prop" v:prompt="" v:val="VT4(Name)"/>
				<v:ud v:nameU="PositionID" v:prompt="" v:val="VT4({A873296A-8818-4974-85C9-06E08B992095})"/>
				<v:ud v:nameU="PictureAreaWidth" v:prompt="" v:val="VT0(0.38387477788875):0"/>
				<v:ud v:nameU="PictureAreaHeight" v:prompt="" v:val="VT0(0.7386857636306):0"/>
				<v:ud v:nameU="PictureAreaAspectRatio" v:prompt="" v:val="VT0(0.5196726359014):26"/>
				<v:ud v:nameU="PictureWidth" v:prompt="" v:val="VT0(0.38387477788875):0"/>
				<v:ud v:nameU="PictureHeight" v:prompt="" v:val="VT0(0.38387477788875):0"/>
				<v:ud v:nameU="DividerOffset" v:prompt="" v:val="VT0(0.40131385213865):29"/>
				<v:ud v:nameU="CalcTextLineHeight" v:prompt="" v:val="VT0(0.2):29"/>
			</v:userDefs>
			<title>Manager.82</title>
			<desc>messageType 12</desc>
			<g id="shape82-112" v:mID="82" v:groupContext="groupContent">
				<v:textBlock v:margins="rect(0,0,0,0)"/>
				<v:textRect cx="48.3585" cy="544.296" width="91.89" height="28.8927"/>
				<path d="M0 573.19 L0 515.4 L96.72 515.4 L96.72 573.19 L0 573.19 Z" class="st1"/>
				<path d="M0 573.19 L0 515.4 L96.72 515.4 L96.72 573.19 L0 573.19" class="st2"/>
				<path d="M1.8 571.39 L1.8 517.2 L94.92 517.2 L94.92 571.39 L1.8 571.39" class="st2"/>
				<text x="10.67" y="540.7" class="st3" v:langID="1033"><v:paragraph v:horizAlign="1"/><v:tabList/>messageType<v:newlineChar/><tspan
							x="41.68" dy="1.2em" class="st4">12</tspan></text>			</g>
		</g>
		<g id="group88-118" transform="translate(255.054,-0.69288) rotate(0.2)" v:mID="88" v:groupContext="group">
			<v:custProps>
				<v:cp v:nameU="Department" v:lbl="Department" v:type="0" v:invis="false" v:ask="false" v:langID="1033" v:cal="0"
						v:val="VT4(Department)"/>
				<v:cp v:nameU="Telephone" v:lbl="Telephone" v:type="0" v:invis="false" v:ask="false" v:langID="1033" v:cal="0"
						v:val="VT4(Telephone)"/>
				<v:cp v:nameU="Name" v:lbl="Name" v:type="0" v:invis="false" v:ask="false" v:langID="1033" v:cal="0"
						v:val="VT4(Name)"/>
				<v:cp v:nameU="Title" v:lbl="Title" v:type="0" v:invis="false" v:ask="false" v:langID="1033" v:cal="0"
						v:val="VT4(Title)"/>
				<v:cp v:nameU="Email" v:lbl="E-mail" v:type="0" v:invis="false" v:ask="false" v:langID="1033" v:cal="0"
						v:val="VT4(E-mail)"/>
				<v:cp v:nameU="Name" v:lbl="" v:prompt="" v:type="0" v:format="" v:sortKey="" v:invis="false" v:ask="false"
						v:langID="0" v:cal="0" v:val="VT4(alarm)"/>
				<v:cp v:nameU="Calendar" v:lbl="" v:prompt="" v:type="0" v:format="" v:sortKey="" v:invis="false" v:ask="false"
						v:langID="0" v:cal="0"/>
			</v:custProps>
			<v:userDefs>
				<v:ud v:nameU="Solsh" v:prompt="" v:val="VT15({0BF98B35-200C-41D5-8A23-20EF77CBC94A}):41"/>
				<v:ud v:nameU="ShapeType" v:prompt="" v:val="VT0(1):26"/>
				<v:ud v:nameU="ShowPicture" v:prompt="" v:val="VT0(0):26"/>
				<v:ud v:nameU="ShowSubordinates" v:prompt="" v:val="VT0(1):26"/>
				<v:ud v:nameU="DocShowPicture" v:prompt="" v:val="VT0(1):26"/>
				<v:ud v:nameU="Margin" v:prompt="" v:val="VT0(0.025):0"/>
				<v:ud v:nameU="HasSubordinates" v:prompt="" v:val="VT0(0):26"/>
				<v:ud v:nameU="IsHidingSubs" v:prompt="" v:val="VT0(0):5"/>
				<v:ud v:nameU="ShowDivider" v:prompt="" v:val="VT0(0):26"/>
				<v:ud v:nameU="ThisLayoutStyle" v:prompt="" v:val="VT0(0):26"/>
				<v:ud v:nameU="HasPicture" v:prompt="" v:val="VT0(0):26"/>
				<v:ud v:nameU="Width" v:prompt="" v:val="VT0(1):0"/>
				<v:ud v:nameU="Height" v:prompt="" v:val="VT0(0.5):0"/>
				<v:ud v:nameU="Prop" v:prompt=""/>
				<v:ud v:nameU="PictureAspectRatio" v:prompt="" v:val="VT0(1):26"/>
				<v:ud v:nameU="PictureID" v:prompt=""/>
				<v:ud v:nameU="SetWidth" v:prompt=""/>
				<v:ud v:nameU="SetHeight" v:prompt=""/>
				<v:ud v:nameU="PositionID" v:prompt="" v:val="VT0(0):26"/>
				<v:ud v:nameU="DeltaX" v:prompt="" v:val="VT0(0):26"/>
				<v:ud v:nameU="DeltaY" v:prompt="" v:val="VT0(0):26"/>
				<v:ud v:nameU="ParLocX" v:prompt="" v:val="VT0(0):26"/>
				<v:ud v:nameU="ParLocY" v:prompt="" v:val="VT0(0):26"/>
				<v:ud v:nameU="PageLoc" v:prompt="" v:val="VT0(0):26"/>
				<v:ud v:nameU="ParLoc" v:prompt="" v:val="VT0(0):26"/>
				<v:ud v:nameU="PictureAreaWidth" v:prompt="" v:val="VT0(0.26944444444444):0"/>
				<v:ud v:nameU="PictureAreaHeight" v:prompt="" v:val="VT0(0.43611111111111):0"/>
				<v:ud v:nameU="PictureAreaAspectRatio" v:prompt="" v:val="VT0(0.61783439490446):26"/>
				<v:ud v:nameU="PictureWidth" v:prompt="" v:val="VT0(0.26944444444444):0"/>
				<v:ud v:nameU="PictureHeight" v:prompt="" v:val="VT0(0.26944444444444):0"/>
				<v:ud v:nameU="DividerOffset" v:prompt="" v:val="VT0(0.2500244913737):0"/>
				<v:ud v:nameU="CalcTextLineHeight" v:prompt="" v:val="VT0(0.13333333333333):29"/>
				<v:ud v:nameU="ExpandedForPicture" v:prompt="" v:val="VT0(0):26"/>
				<v:ud v:nameU="Theme" v:prompt="" v:val="VT0(0):26"/>
				<v:ud v:nameU="visVersion" v:prompt="" v:val="VT0(12):26"/>
				<v:ud v:nameU="Width" v:prompt="" v:val="VT0(1.3383826481967):1"/>
				<v:ud v:nameU="Height" v:prompt="" v:val="VT0(0.74750528884833):1"/>
				<v:ud v:nameU="Prop" v:prompt="" v:val="VT4(Name)"/>
				<v:ud v:nameU="PositionID" v:prompt="" v:val="VT4({BE3D19FC-59F5-4258-ABB9-8F7806FEBF03})"/>
				<v:ud v:nameU="ParLocX" v:prompt="" v:val="VT0(0):26"/>
				<v:ud v:nameU="ParLocY" v:prompt="" v:val="VT0(0):26"/>
				<v:ud v:nameU="PageLoc" v:prompt="" v:val="VT7(PNT(0,0)):40"/>
				<v:ud v:nameU="PictureAreaWidth" v:prompt="" v:val="VT0(0.38223866051001):0"/>
				<v:ud v:nameU="PictureAreaHeight" v:prompt="" v:val="VT0(0.68361639995944):0"/>
				<v:ud v:nameU="PictureAreaAspectRatio" v:prompt="" v:val="VT0(0.55914202838418):26"/>
				<v:ud v:nameU="PictureWidth" v:prompt="" v:val="VT0(0.38223866051001):0"/>
				<v:ud v:nameU="PictureHeight" v:prompt="" v:val="VT0(0.38223866051001):0"/>
				<v:ud v:nameU="DividerOffset" v:prompt="" v:val="VT0(0.37377917030307):29"/>
				<v:ud v:nameU="CalcTextLineHeight" v:prompt="" v:val="VT0(0.2):29"/>
			</v:userDefs>
			<title>Manager.88</title>
			<desc>alarm 13</desc>
			<g id="shape88-119" v:mID="88" v:groupContext="groupContent">
				<v:textBlock v:margins="rect(0,0,0,0)"/>
				<v:textRect cx="48.1818" cy="546.279" width="91.55" height="26.9102"/>
				<path d="M0 573.19 L0 519.37 L96.36 519.37 L96.36 573.19 L0 573.19 Z" class="st1"/>
				<path d="M0 573.19 L0 519.37 L96.36 519.37 L96.36 573.19 L0 573.19" class="st2"/>
				<path d="M1.8 571.39 L1.8 521.17 L94.56 521.17 L94.56 571.39 L1.8 571.39" class="st2"/>
				<text x="33.18" y="542.68" class="st3" v:langID="1033"><v:paragraph v:horizAlign="1"/><v:tabList/>alarm<v:newlineChar/><tspan
							x="41.51" dy="1.2em" class="st4">13</tspan></text>			</g>
		</g>
		<g id="shape101-125" v:mID="101" v:groupContext="shape" v:layerMember="0" transform="translate(864.832,311.829) rotate(90)">
			<title>Multi-tree square.101</title>
			<v:userDefs>
				<v:ud v:nameU="Scale" v:val="VT0(1):26"/>
				<v:ud v:nameU="AntiScale" v:val="VT0(1):26"/>
				<v:ud v:nameU="visVersion" v:val="VT0(15):26"/>
			</v:userDefs>
			<path d="M0 573.19 L108 573.19" class="st2"/>
			<path d="M108 573.19 L108 813.18 L121.86 813.18" class="st2"/>
			<path d="M108 573.19 L108 299.72 L122.03 299.72" class="st2"/>
			<path d="M108 573.19 L108 709.94 L122 709.94" class="st2"/>
			<path d="M108 573.19 L108 612.76 L122.02 612.76" class="st2"/>
			<path d="M108 573.19 L108 506.56 L122.03 506.56" class="st2"/>
			<path d="M108 573.19 L108 402.57 L122.01 402.57" class="st2"/>
		</g>
		<g id="shape102-134" v:mID="102" v:groupContext="shape" v:layerMember="0" transform="translate(300.901,-54.3482)">
			<title>Bottom to top 1</title>
			<v:userDefs>
				<v:ud v:nameU="TextPos" v:val="VT0(1):26"/>
				<v:ud v:nameU="visVersion" v:val="VT0(15):26"/>
			</v:userDefs>
			<path d="M0 474.18 L0.52 474.18 L0.52 573.19" class="st2"/>
		</g>
		<g id="group104-137" transform="translate(43.8688,-468.36)" v:mID="104" v:groupContext="group">
			<v:custProps>
				<v:cp v:nameU="Department" v:lbl="Department" v:type="0" v:invis="false" v:ask="false" v:langID="1033" v:cal="0"
						v:val="VT4(Department)"/>
				<v:cp v:nameU="Telephone" v:lbl="Telephone" v:type="0" v:invis="false" v:ask="false" v:langID="1033" v:cal="0"
						v:val="VT4(Telephone)"/>
				<v:cp v:nameU="Name" v:lbl="Name" v:type="0" v:invis="false" v:ask="false" v:langID="1033" v:cal="0"
						v:val="VT4(Name)"/>
				<v:cp v:nameU="Title" v:lbl="Title" v:type="0" v:invis="false" v:ask="false" v:langID="1033" v:cal="0"
						v:val="VT4(Title)"/>
				<v:cp v:nameU="Email" v:lbl="E-mail" v:type="0" v:invis="false" v:ask="false" v:langID="1033" v:cal="0"
						v:val="VT4(E-mail)"/>
				<v:cp v:nameU="Name" v:lbl="" v:prompt="" v:type="0" v:format="" v:sortKey="" v:invis="false" v:ask="false"
						v:langID="0" v:cal="0" v:val="VT4(netAnalyzer3000Production)"/>
				<v:cp v:nameU="Calendar" v:lbl="" v:prompt="" v:type="0" v:format="" v:sortKey="" v:invis="false" v:ask="false"
						v:langID="0" v:cal="0"/>
			</v:custProps>
			<v:userDefs>
				<v:ud v:nameU="Solsh" v:prompt="" v:val="VT15({0BF98B35-200C-41D5-8A23-20EF77CBC94A}):41"/>
				<v:ud v:nameU="ShapeType" v:prompt="" v:val="VT0(1):26"/>
				<v:ud v:nameU="ShowPicture" v:prompt="" v:val="VT0(0):26"/>
				<v:ud v:nameU="ShowSubordinates" v:prompt="" v:val="VT0(1):26"/>
				<v:ud v:nameU="DocShowPicture" v:prompt="" v:val="VT0(1):26"/>
				<v:ud v:nameU="Margin" v:prompt="" v:val="VT0(0.025):0"/>
				<v:ud v:nameU="HasSubordinates" v:prompt="" v:val="VT0(0):26"/>
				<v:ud v:nameU="IsHidingSubs" v:prompt="" v:val="VT0(0):5"/>
				<v:ud v:nameU="ShowDivider" v:prompt="" v:val="VT0(0):26"/>
				<v:ud v:nameU="ThisLayoutStyle" v:prompt="" v:val="VT0(0):26"/>
				<v:ud v:nameU="HasPicture" v:prompt="" v:val="VT0(0):26"/>
				<v:ud v:nameU="Width" v:prompt="" v:val="VT0(1):0"/>
				<v:ud v:nameU="Height" v:prompt="" v:val="VT0(0.5):0"/>
				<v:ud v:nameU="Prop" v:prompt=""/>
				<v:ud v:nameU="PictureAspectRatio" v:prompt="" v:val="VT0(1):26"/>
				<v:ud v:nameU="PictureID" v:prompt=""/>
				<v:ud v:nameU="SetWidth" v:prompt=""/>
				<v:ud v:nameU="SetHeight" v:prompt=""/>
				<v:ud v:nameU="PositionID" v:prompt="" v:val="VT0(0):26"/>
				<v:ud v:nameU="DeltaX" v:prompt="" v:val="VT0(0):26"/>
				<v:ud v:nameU="DeltaY" v:prompt="" v:val="VT0(0):26"/>
				<v:ud v:nameU="ParLocX" v:prompt="" v:val="VT0(0):26"/>
				<v:ud v:nameU="ParLocY" v:prompt="" v:val="VT0(0):26"/>
				<v:ud v:nameU="PageLoc" v:prompt="" v:val="VT0(0):26"/>
				<v:ud v:nameU="ParLoc" v:prompt="" v:val="VT0(0):26"/>
				<v:ud v:nameU="PictureAreaWidth" v:prompt="" v:val="VT0(0.26944444444444):0"/>
				<v:ud v:nameU="PictureAreaHeight" v:prompt="" v:val="VT0(0.43611111111111):0"/>
				<v:ud v:nameU="PictureAreaAspectRatio" v:prompt="" v:val="VT0(0.61783439490446):26"/>
				<v:ud v:nameU="PictureWidth" v:prompt="" v:val="VT0(0.26944444444444):0"/>
				<v:ud v:nameU="PictureHeight" v:prompt="" v:val="VT0(0.26944444444444):0"/>
				<v:ud v:nameU="DividerOffset" v:prompt="" v:val="VT0(0.2500244913737):0"/>
				<v:ud v:nameU="CalcTextLineHeight" v:prompt="" v:val="VT0(0.13333333333333):29"/>
				<v:ud v:nameU="ExpandedForPicture" v:prompt="" v:val="VT0(0):26"/>
				<v:ud v:nameU="Theme" v:prompt="" v:val="VT0(0):26"/>
				<v:ud v:nameU="visVersion" v:prompt="" v:val="VT0(12):26"/>
				<v:ud v:nameU="Width" v:prompt="" v:val="VT0(2.25):1"/>
				<v:ud v:nameU="Height" v:prompt="" v:val="VT0(0.62500000005926):1"/>
				<v:ud v:nameU="Prop" v:prompt="" v:val="VT4(Name)"/>
				<v:ud v:nameU="PositionID" v:prompt="" v:val="VT4({506EA6A8-5C35-40C7-811F-D9FE613532DF})"/>
				<v:ud v:nameU="ParLocX" v:prompt="" v:val="VT0(0):26"/>
				<v:ud v:nameU="ParLocY" v:prompt="" v:val="VT0(0):26"/>
				<v:ud v:nameU="PageLoc" v:prompt="" v:val="VT7(PNT(0,0)):40"/>
				<v:ud v:nameU="PictureAreaWidth" v:prompt="" v:val="VT0(0.68611111111111):0"/>
				<v:ud v:nameU="PictureAreaHeight" v:prompt="" v:val="VT0(0.56111111117037):0"/>
				<v:ud v:nameU="PictureAreaAspectRatio" v:prompt="" v:val="VT0(1.2227722770986):26"/>
				<v:ud v:nameU="PictureWidth" v:prompt="" v:val="VT0(0.56111111117037):0"/>
				<v:ud v:nameU="PictureHeight" v:prompt="" v:val="VT0(0.56111111117037):0"/>
				<v:ud v:nameU="DividerOffset" v:prompt="" v:val="VT0(0.31252652590854):29"/>
				<v:ud v:nameU="CalcTextLineHeight" v:prompt="" v:val="VT0(0.2):29"/>
			</v:userDefs>
			<title>Manager.22</title>
			<desc>netAnalyzer3000Production 1</desc>
			<g id="shape104-138" v:mID="104" v:groupContext="groupContent">
				<v:textBlock v:margins="rect(0,0,0,0)"/>
				<v:textRect cx="81" cy="550.689" width="153.9" height="22.5"/>
				<path d="M0 573.19 L0 528.19 L162 528.19 L162 573.19 L0 573.19 Z" class="st8"/>
				<path d="M0 573.19 L0 528.19 L162 528.19 L162 573.19 L0 573.19" class="st2"/>
				<path d="M1.8 571.39 L1.8 529.99 L160.2 529.99 L160.2 571.39 L1.8 571.39" class="st2"/>
				<text x="7.28" y="547.09" class="st3" v:langID="1033"><v:paragraph v:horizAlign="1"/><v:tabList/>netAnalyzer3000Production<v:newlineChar/><tspan
							x="77.66" dy="1.2em" class="st4">1</tspan></text>			</g>
		</g>
		<g id="shape109-144" v:mID="109" v:groupContext="shape" v:layerMember="0"
				transform="translate(124.869,-454.853) scale(-1,1)">
			<title>Bottom to top 1.98</title>
			<v:userDefs>
				<v:ud v:nameU="TextPos" v:val="VT0(1):26"/>
				<v:ud v:nameU="visVersion" v:val="VT0(15):26"/>
			</v:userDefs>
			<path d="M0 559.68 L0 566.44 L0.09 566.44 L0.09 573.19" class="st2"/>
		</g>
		<g id="group110-147" transform="translate(43.8708,-531.36)" v:mID="110" v:groupContext="group">
			<v:custProps>
				<v:cp v:nameU="Department" v:lbl="Department" v:type="0" v:invis="false" v:ask="false" v:langID="1033" v:cal="0"
						v:val="VT4(Department)"/>
				<v:cp v:nameU="Telephone" v:lbl="Telephone" v:type="0" v:invis="false" v:ask="false" v:langID="1033" v:cal="0"
						v:val="VT4(Telephone)"/>
				<v:cp v:nameU="Name" v:lbl="Name" v:type="0" v:invis="false" v:ask="false" v:langID="1033" v:cal="0"
						v:val="VT4(Name)"/>
				<v:cp v:nameU="Title" v:lbl="Title" v:type="0" v:invis="false" v:ask="false" v:langID="1033" v:cal="0"
						v:val="VT4(Title)"/>
				<v:cp v:nameU="Email" v:lbl="E-mail" v:type="0" v:invis="false" v:ask="false" v:langID="1033" v:cal="0"
						v:val="VT4(E-mail)"/>
				<v:cp v:nameU="Name" v:lbl="" v:prompt="" v:type="0" v:format="" v:sortKey="" v:invis="false" v:ask="false"
						v:langID="0" v:cal="0" v:val="VT4(teknoProduction)"/>
				<v:cp v:nameU="Calendar" v:lbl="" v:prompt="" v:type="0" v:format="" v:sortKey="" v:invis="false" v:ask="false"
						v:langID="0" v:cal="0"/>
			</v:custProps>
			<v:userDefs>
				<v:ud v:nameU="Solsh" v:prompt="" v:val="VT15({0BF98B35-200C-41D5-8A23-20EF77CBC94A}):41"/>
				<v:ud v:nameU="ShapeType" v:prompt="" v:val="VT0(1):26"/>
				<v:ud v:nameU="ShowPicture" v:prompt="" v:val="VT0(0):26"/>
				<v:ud v:nameU="ShowSubordinates" v:prompt="" v:val="VT0(1):26"/>
				<v:ud v:nameU="DocShowPicture" v:prompt="" v:val="VT0(1):26"/>
				<v:ud v:nameU="Margin" v:prompt="" v:val="VT0(0.025):0"/>
				<v:ud v:nameU="HasSubordinates" v:prompt="" v:val="VT0(0):26"/>
				<v:ud v:nameU="IsHidingSubs" v:prompt="" v:val="VT0(0):5"/>
				<v:ud v:nameU="ShowDivider" v:prompt="" v:val="VT0(0):26"/>
				<v:ud v:nameU="ThisLayoutStyle" v:prompt="" v:val="VT0(0):26"/>
				<v:ud v:nameU="HasPicture" v:prompt="" v:val="VT0(0):26"/>
				<v:ud v:nameU="Width" v:prompt="" v:val="VT0(1):0"/>
				<v:ud v:nameU="Height" v:prompt="" v:val="VT0(0.5):0"/>
				<v:ud v:nameU="Prop" v:prompt=""/>
				<v:ud v:nameU="PictureAspectRatio" v:prompt="" v:val="VT0(1):26"/>
				<v:ud v:nameU="PictureID" v:prompt=""/>
				<v:ud v:nameU="SetWidth" v:prompt=""/>
				<v:ud v:nameU="SetHeight" v:prompt=""/>
				<v:ud v:nameU="PositionID" v:prompt="" v:val="VT0(0):26"/>
				<v:ud v:nameU="DeltaX" v:prompt="" v:val="VT0(0):26"/>
				<v:ud v:nameU="DeltaY" v:prompt="" v:val="VT0(0):26"/>
				<v:ud v:nameU="ParLocX" v:prompt="" v:val="VT0(0):26"/>
				<v:ud v:nameU="ParLocY" v:prompt="" v:val="VT0(0):26"/>
				<v:ud v:nameU="PageLoc" v:prompt="" v:val="VT0(0):26"/>
				<v:ud v:nameU="ParLoc" v:prompt="" v:val="VT0(0):26"/>
				<v:ud v:nameU="PictureAreaWidth" v:prompt="" v:val="VT0(0.26944444444444):0"/>
				<v:ud v:nameU="PictureAreaHeight" v:prompt="" v:val="VT0(0.43611111111111):0"/>
				<v:ud v:nameU="PictureAreaAspectRatio" v:prompt="" v:val="VT0(0.61783439490446):26"/>
				<v:ud v:nameU="PictureWidth" v:prompt="" v:val="VT0(0.26944444444444):0"/>
				<v:ud v:nameU="PictureHeight" v:prompt="" v:val="VT0(0.26944444444444):0"/>
				<v:ud v:nameU="DividerOffset" v:prompt="" v:val="VT0(0.2500244913737):0"/>
				<v:ud v:nameU="CalcTextLineHeight" v:prompt="" v:val="VT0(0.13333333333333):29"/>
				<v:ud v:nameU="ExpandedForPicture" v:prompt="" v:val="VT0(0):26"/>
				<v:ud v:nameU="Theme" v:prompt="" v:val="VT0(0):26"/>
				<v:ud v:nameU="visVersion" v:prompt="" v:val="VT0(12):26"/>
				<v:ud v:nameU="Width" v:prompt="" v:val="VT0(2.25):1"/>
				<v:ud v:nameU="Height" v:prompt="" v:val="VT0(0.57595744804439):1"/>
				<v:ud v:nameU="Prop" v:prompt="" v:val="VT4(Name)"/>
				<v:ud v:nameU="PositionID" v:prompt="" v:val="VT4({19179F30-6A69-4308-93E3-C62F161BC2BD})"/>
				<v:ud v:nameU="PictureAreaWidth" v:prompt="" v:val="VT0(0.68611111111111):0"/>
				<v:ud v:nameU="PictureAreaHeight" v:prompt="" v:val="VT0(0.5120685591555):0"/>
				<v:ud v:nameU="PictureAreaAspectRatio" v:prompt="" v:val="VT0(1.3398813476122):26"/>
				<v:ud v:nameU="PictureWidth" v:prompt="" v:val="VT0(0.5120685591555):0"/>
				<v:ud v:nameU="PictureHeight" v:prompt="" v:val="VT0(0.5120685591555):0"/>
				<v:ud v:nameU="DividerOffset" v:prompt="" v:val="VT0(0.2880052499011):29"/>
				<v:ud v:nameU="CalcTextLineHeight" v:prompt="" v:val="VT0(0.2):29"/>
			</v:userDefs>
			<title>Manager.182</title>
			<desc>teknoProduction 2</desc>
			<g id="shape110-148" v:mID="110" v:groupContext="groupContent">
				<v:textBlock v:margins="rect(0,0,0,0)"/>
				<v:textRect cx="81" cy="552.454" width="153.9" height="20.7345"/>
				<path d="M0 573.19 L0 531.72 L162 531.72 L162 573.19 L0 573.19 Z" class="st9"/>
				<path d="M0 573.19 L0 531.72 L162 531.72 L162 573.19 L0 573.19" class="st2"/>
				<path d="M1.8 571.39 L1.8 533.52 L160.2 533.52 L160.2 571.39 L1.8 571.39" class="st2"/>
				<text x="37.64" y="548.85" class="st3" v:langID="1033"><v:paragraph v:horizAlign="1"/><v:tabList/>teknoProduction<v:newlineChar/><tspan
							x="77.66" dy="1.2em" class="st4">2</tspan></text>			</g>
		</g>
		<g id="shape115-154" v:mID="115" v:groupContext="shape" v:layerMember="0"
				transform="translate(124.871,-513.36) scale(-1,1)">
			<title>Bottom to top 1.104</title>
			<v:userDefs>
				<v:ud v:nameU="TextPos" v:val="VT0(1):26"/>
				<v:ud v:nameU="visVersion" v:val="VT0(15):26"/>
			</v:userDefs>
			<path d="M0 555.19 L0 564.19 L0 564.19 L0 573.19" class="st2"/>
		</g>
		<g id="shape117-157" v:mID="117" v:groupContext="shape" v:layerMember="0" transform="translate(124.618,-360.11)">
			<title>Bottom to top fixed 2</title>
			<v:userDefs>
				<v:ud v:nameU="TextPos" v:val="VT0(1):26"/>
				<v:ud v:nameU="Offset" v:val="VT0(0.25):0"/>
				<v:ud v:nameU="Scale" v:val="VT0(1):26"/>
				<v:ud v:nameU="AntiScale" v:val="VT0(1):26"/>
				<v:ud v:nameU="visVersion" v:val="VT0(15):26"/>
			</v:userDefs>
			<path d="M0 523.44 L0 555.19 L195.64 555.19 L195.64 573.19" class="st2"/>
		</g>
	</g>
</svg>
